%!PS-Adobe-3.0 EPSF-3.0
%%Creator: (MATLAB, The Mathworks, Inc. Version 9.6.0.1072779 \(R2019a\). Operating System: Linux)
%%Title: ./plot/ContSystem_zeroth/plot_fval.eps
%%CreationDate: 2019-05-01T16:16:28
%%Pages: (atend)
%%BoundingBox:    10     2   420   285
%%LanguageLevel: 3
%%EndComments
%%BeginProlog
%%BeginResource: procset (Apache XML Graphics Std ProcSet) 1.2 0
%%Version: 1.2 0
%%Copyright: (Copyright 2001-2003,2010 The Apache Software Foundation. License terms: http://www.apache.org/licenses/LICENSE-2.0)
/bd{bind def}bind def
/ld{load def}bd
/GR/grestore ld
/GS/gsave ld
/RM/rmoveto ld
/C/curveto ld
/t/show ld
/L/lineto ld
/ML/setmiterlimit ld
/CT/concat ld
/f/fill ld
/N/newpath ld
/S/stroke ld
/CC/setcmykcolor ld
/A/ashow ld
/cp/closepath ld
/RC/setrgbcolor ld
/LJ/setlinejoin ld
/GC/setgray ld
/LW/setlinewidth ld
/M/moveto ld
/re {4 2 roll M
1 index 0 rlineto
0 exch rlineto
neg 0 rlineto
cp } bd
/_ctm matrix def
/_tm matrix def
/BT { _ctm currentmatrix pop matrix _tm copy pop 0 0 moveto } bd
/ET { _ctm setmatrix } bd
/iTm { _ctm setmatrix _tm concat } bd
/Tm { _tm astore pop iTm 0 0 moveto } bd
/ux 0.0 def
/uy 0.0 def
/F {
  /Tp exch def
  /Tf exch def
  Tf findfont Tp scalefont setfont
  /cf Tf def  /cs Tp def
} bd
/ULS {currentpoint /uy exch def /ux exch def} bd
/ULE {
  /Tcx currentpoint pop def
  gsave
  newpath
  cf findfont cs scalefont dup
  /FontMatrix get 0 get /Ts exch def /FontInfo get dup
  /UnderlinePosition get Ts mul /To exch def
  /UnderlineThickness get Ts mul /Tt exch def
  ux uy To add moveto  Tcx uy To add lineto
  Tt setlinewidth stroke
  grestore
} bd
/OLE {
  /Tcx currentpoint pop def
  gsave
  newpath
  cf findfont cs scalefont dup
  /FontMatrix get 0 get /Ts exch def /FontInfo get dup
  /UnderlinePosition get Ts mul /To exch def
  /UnderlineThickness get Ts mul /Tt exch def
  ux uy To add cs add moveto Tcx uy To add cs add lineto
  Tt setlinewidth stroke
  grestore
} bd
/SOE {
  /Tcx currentpoint pop def
  gsave
  newpath
  cf findfont cs scalefont dup
  /FontMatrix get 0 get /Ts exch def /FontInfo get dup
  /UnderlinePosition get Ts mul /To exch def
  /UnderlineThickness get Ts mul /Tt exch def
  ux uy To add cs 10 mul 26 idiv add moveto Tcx uy To add cs 10 mul 26 idiv add lineto
  Tt setlinewidth stroke
  grestore
} bd
/QT {
/Y22 exch store
/X22 exch store
/Y21 exch store
/X21 exch store
currentpoint
/Y21 load 2 mul add 3 div exch
/X21 load 2 mul add 3 div exch
/X21 load 2 mul /X22 load add 3 div
/Y21 load 2 mul /Y22 load add 3 div
/X22 load /Y22 load curveto
} bd
/SSPD {
dup length /d exch dict def
{
/v exch def
/k exch def
currentpagedevice k known {
/cpdv currentpagedevice k get def
v cpdv ne {
/upd false def
/nullv v type /nulltype eq def
/nullcpdv cpdv type /nulltype eq def
nullv nullcpdv or
{
/upd true def
} {
/sametype v type cpdv type eq def
sametype {
v type /arraytype eq {
/vlen v length def
/cpdvlen cpdv length def
vlen cpdvlen eq {
0 1 vlen 1 sub {
/i exch def
/obj v i get def
/cpdobj cpdv i get def
obj cpdobj ne {
/upd true def
exit
} if
} for
} {
/upd true def
} ifelse
} {
v type /dicttype eq {
v {
/dv exch def
/dk exch def
/cpddv cpdv dk get def
dv cpddv ne {
/upd true def
exit
} if
} forall
} {
/upd true def
} ifelse
} ifelse
} if
} ifelse
upd true eq {
d k v put
} if
} if
} if
} forall
d length 0 gt {
d setpagedevice
} if
} bd
/RE { % /NewFontName [NewEncodingArray] /FontName RE -
  findfont dup length dict begin
  {
    1 index /FID ne
    {def} {pop pop} ifelse
  } forall
  /Encoding exch def
  /FontName 1 index def
  currentdict definefont pop
  end
} bind def
%%EndResource
%%BeginResource: procset (Apache XML Graphics EPS ProcSet) 1.0 0
%%Version: 1.0 0
%%Copyright: (Copyright 2002-2003 The Apache Software Foundation. License terms: http://www.apache.org/licenses/LICENSE-2.0)
/BeginEPSF { %def
/b4_Inc_state save def         % Save state for cleanup
/dict_count countdictstack def % Count objects on dict stack
/op_count count 1 sub def      % Count objects on operand stack
userdict begin                 % Push userdict on dict stack
/showpage { } def              % Redefine showpage, { } = null proc
0 setgray 0 setlinecap         % Prepare graphics state
1 setlinewidth 0 setlinejoin
10 setmiterlimit [ ] 0 setdash newpath
/languagelevel where           % If level not equal to 1 then
{pop languagelevel             % set strokeadjust and
1 ne                           % overprint to their defaults.
{false setstrokeadjust false setoverprint
} if
} if
} bd
/EndEPSF { %def
count op_count sub {pop} repeat            % Clean up stacks
countdictstack dict_count sub {end} repeat
b4_Inc_state restore
} bd
%%EndResource
%FOPBeginFontDict
%%IncludeResource: font Courier-Oblique
%%IncludeResource: font Courier-BoldOblique
%%IncludeResource: font Courier-Bold
%%IncludeResource: font ZapfDingbats
%%IncludeResource: font Symbol
%%IncludeResource: font Helvetica
%%IncludeResource: font Helvetica-Oblique
%%IncludeResource: font Helvetica-Bold
%%IncludeResource: font Helvetica-BoldOblique
%%IncludeResource: font Times-Roman
%%IncludeResource: font Times-Italic
%%IncludeResource: font Times-Bold
%%IncludeResource: font Times-BoldItalic
%%IncludeResource: font Courier
%FOPEndFontDict
%%BeginResource: encoding WinAnsiEncoding
/WinAnsiEncoding [
/.notdef /.notdef /.notdef /.notdef /.notdef
/.notdef /.notdef /.notdef /.notdef /.notdef
/.notdef /.notdef /.notdef /.notdef /.notdef
/.notdef /.notdef /.notdef /.notdef /.notdef
/.notdef /.notdef /.notdef /.notdef /.notdef
/.notdef /.notdef /.notdef /.notdef /.notdef
/.notdef /.notdef /space /exclam /quotedbl
/numbersign /dollar /percent /ampersand /quotesingle
/parenleft /parenright /asterisk /plus /comma
/hyphen /period /slash /zero /one
/two /three /four /five /six
/seven /eight /nine /colon /semicolon
/less /equal /greater /question /at
/A /B /C /D /E
/F /G /H /I /J
/K /L /M /N /O
/P /Q /R /S /T
/U /V /W /X /Y
/Z /bracketleft /backslash /bracketright /asciicircum
/underscore /quoteleft /a /b /c
/d /e /f /g /h
/i /j /k /l /m
/n /o /p /q /r
/s /t /u /v /w
/x /y /z /braceleft /bar
/braceright /asciitilde /bullet /Euro /bullet
/quotesinglbase /florin /quotedblbase /ellipsis /dagger
/daggerdbl /circumflex /perthousand /Scaron /guilsinglleft
/OE /bullet /Zcaron /bullet /bullet
/quoteleft /quoteright /quotedblleft /quotedblright /bullet
/endash /emdash /asciitilde /trademark /scaron
/guilsinglright /oe /bullet /zcaron /Ydieresis
/space /exclamdown /cent /sterling /currency
/yen /brokenbar /section /dieresis /copyright
/ordfeminine /guillemotleft /logicalnot /sfthyphen /registered
/macron /degree /plusminus /twosuperior /threesuperior
/acute /mu /paragraph /middot /cedilla
/onesuperior /ordmasculine /guillemotright /onequarter /onehalf
/threequarters /questiondown /Agrave /Aacute /Acircumflex
/Atilde /Adieresis /Aring /AE /Ccedilla
/Egrave /Eacute /Ecircumflex /Edieresis /Igrave
/Iacute /Icircumflex /Idieresis /Eth /Ntilde
/Ograve /Oacute /Ocircumflex /Otilde /Odieresis
/multiply /Oslash /Ugrave /Uacute /Ucircumflex
/Udieresis /Yacute /Thorn /germandbls /agrave
/aacute /acircumflex /atilde /adieresis /aring
/ae /ccedilla /egrave /eacute /ecircumflex
/edieresis /igrave /iacute /icircumflex /idieresis
/eth /ntilde /ograve /oacute /ocircumflex
/otilde /odieresis /divide /oslash /ugrave
/uacute /ucircumflex /udieresis /yacute /thorn
/ydieresis
] def
%%EndResource
%FOPBeginFontReencode
/Courier-Oblique findfont
dup length dict begin
  {1 index /FID ne {def} {pop pop} ifelse} forall
  /Encoding WinAnsiEncoding def
  currentdict
end
/Courier-Oblique exch definefont pop
/Courier-BoldOblique findfont
dup length dict begin
  {1 index /FID ne {def} {pop pop} ifelse} forall
  /Encoding WinAnsiEncoding def
  currentdict
end
/Courier-BoldOblique exch definefont pop
/Courier-Bold findfont
dup length dict begin
  {1 index /FID ne {def} {pop pop} ifelse} forall
  /Encoding WinAnsiEncoding def
  currentdict
end
/Courier-Bold exch definefont pop
/Helvetica findfont
dup length dict begin
  {1 index /FID ne {def} {pop pop} ifelse} forall
  /Encoding WinAnsiEncoding def
  currentdict
end
/Helvetica exch definefont pop
/Helvetica-Oblique findfont
dup length dict begin
  {1 index /FID ne {def} {pop pop} ifelse} forall
  /Encoding WinAnsiEncoding def
  currentdict
end
/Helvetica-Oblique exch definefont pop
/Helvetica-Bold findfont
dup length dict begin
  {1 index /FID ne {def} {pop pop} ifelse} forall
  /Encoding WinAnsiEncoding def
  currentdict
end
/Helvetica-Bold exch definefont pop
/Helvetica-BoldOblique findfont
dup length dict begin
  {1 index /FID ne {def} {pop pop} ifelse} forall
  /Encoding WinAnsiEncoding def
  currentdict
end
/Helvetica-BoldOblique exch definefont pop
/Times-Roman findfont
dup length dict begin
  {1 index /FID ne {def} {pop pop} ifelse} forall
  /Encoding WinAnsiEncoding def
  currentdict
end
/Times-Roman exch definefont pop
/Times-Italic findfont
dup length dict begin
  {1 index /FID ne {def} {pop pop} ifelse} forall
  /Encoding WinAnsiEncoding def
  currentdict
end
/Times-Italic exch definefont pop
/Times-Bold findfont
dup length dict begin
  {1 index /FID ne {def} {pop pop} ifelse} forall
  /Encoding WinAnsiEncoding def
  currentdict
end
/Times-Bold exch definefont pop
/Times-BoldItalic findfont
dup length dict begin
  {1 index /FID ne {def} {pop pop} ifelse} forall
  /Encoding WinAnsiEncoding def
  currentdict
end
/Times-BoldItalic exch definefont pop
/Courier findfont
dup length dict begin
  {1 index /FID ne {def} {pop pop} ifelse} forall
  /Encoding WinAnsiEncoding def
  currentdict
end
/Courier exch definefont pop
%FOPEndFontReencode
%%EndProlog
%%Page: 1 1
%%PageBoundingBox: 0 0 458 302
%%BeginPageSetup
[1 0 0 -1 0 302] CT
%%EndPageSetup
GS
[0.75 0 0 0.75 0 0.5] CT
N
0 0 M
610 0 L
610 402 L
0 402 L
0 0 L
cp
clip
1 GC
N
0 0 610 402 re
f
GR
GS
[0.75 0 0 0.75 0 0.5] CT
1 GC
N
0 0 610 402 re
f
GR
GS
[0.75 0 0 0.75 0 0.5] CT
1 GC
N
79 358 M
552 358 L
552 30 L
79 30 L
cp
f
GR
GS
[0.75 0 0 0.75 0 0.5] CT
0.873 GC
1 LJ
0.667 LW
N
79 358 M
79 30 L
S
GR
GS
[0.75 0 0 0.75 0 0.5] CT
0.873 GC
1 LJ
0.667 LW
N
173.6 358 M
173.6 30 L
S
GR
GS
[0.75 0 0 0.75 0 0.5] CT
0.873 GC
1 LJ
0.667 LW
N
268.2 358 M
268.2 30 L
S
GR
GS
[0.75 0 0 0.75 0 0.5] CT
0.873 GC
1 LJ
0.667 LW
N
362.8 358 M
362.8 30 L
S
GR
GS
[0.75 0 0 0.75 0 0.5] CT
0.873 GC
1 LJ
0.667 LW
N
457.4 358 M
457.4 30 L
S
GR
GS
[0.75 0 0 0.75 0 0.5] CT
0.873 GC
1 LJ
0.667 LW
N
552 358 M
552 30 L
S
GR
GS
[0.75 0 0 0.75 0 0.5] CT
0.775 GC
[1 3] 0 setdash
2 LJ
0.667 LW
N
552 358 M
79 358 L
S
GR
GS
[0.75 0 0 0.75 0 0.5] CT
0.775 GC
[1 3] 0 setdash
2 LJ
0.667 LW
N
552 356.613 M
79 356.613 L
S
GR
GS
[0.75 0 0 0.75 0 0.5] CT
0.775 GC
[1 3] 0 setdash
2 LJ
0.667 LW
N
552 347.21 M
79 347.21 L
S
GR
GS
[0.75 0 0 0.75 0 0.5] CT
0.775 GC
[1 3] 0 setdash
2 LJ
0.667 LW
N
552 342.436 M
79 342.436 L
S
GR
GS
[0.75 0 0 0.75 0 0.5] CT
0.775 GC
[1 3] 0 setdash
2 LJ
0.667 LW
N
552 339.048 M
79 339.048 L
S
GR
GS
[0.75 0 0 0.75 0 0.5] CT
0.775 GC
[1 3] 0 setdash
2 LJ
0.667 LW
N
552 336.42 M
79 336.42 L
S
GR
GS
[0.75 0 0 0.75 0 0.5] CT
0.775 GC
[1 3] 0 setdash
2 LJ
0.667 LW
N
552 334.273 M
79 334.273 L
S
GR
GS
[0.75 0 0 0.75 0 0.5] CT
0.775 GC
[1 3] 0 setdash
2 LJ
0.667 LW
N
552 332.458 M
79 332.458 L
S
GR
GS
[0.75 0 0 0.75 0 0.5] CT
0.775 GC
[1 3] 0 setdash
2 LJ
0.667 LW
N
552 330.886 M
79 330.886 L
S
GR
GS
[0.75 0 0 0.75 0 0.5] CT
0.775 GC
[1 3] 0 setdash
2 LJ
0.667 LW
N
552 329.499 M
79 329.499 L
S
GR
GS
[0.75 0 0 0.75 0 0.5] CT
0.775 GC
[1 3] 0 setdash
2 LJ
0.667 LW
N
552 328.258 M
79 328.258 L
S
GR
GS
[0.75 0 0 0.75 0 0.5] CT
0.775 GC
[1 3] 0 setdash
2 LJ
0.667 LW
N
552 320.096 M
79 320.096 L
S
GR
GS
[0.75 0 0 0.75 0 0.5] CT
0.775 GC
[1 3] 0 setdash
2 LJ
0.667 LW
N
552 315.321 M
79 315.321 L
S
GR
GS
[0.75 0 0 0.75 0 0.5] CT
0.775 GC
[1 3] 0 setdash
2 LJ
0.667 LW
N
552 311.934 M
79 311.934 L
S
GR
GS
[0.75 0 0 0.75 0 0.5] CT
0.775 GC
[1 3] 0 setdash
2 LJ
0.667 LW
N
552 309.306 M
79 309.306 L
S
GR
GS
[0.75 0 0 0.75 0 0.5] CT
0.775 GC
[1 3] 0 setdash
2 LJ
0.667 LW
N
552 307.159 M
79 307.159 L
S
GR
GS
[0.75 0 0 0.75 0 0.5] CT
0.775 GC
[1 3] 0 setdash
2 LJ
0.667 LW
N
552 305.344 M
79 305.344 L
S
GR
GS
[0.75 0 0 0.75 0 0.5] CT
0.775 GC
[1 3] 0 setdash
2 LJ
0.667 LW
N
552 303.771 M
79 303.771 L
S
GR
GS
[0.75 0 0 0.75 0 0.5] CT
0.775 GC
[1 3] 0 setdash
2 LJ
0.667 LW
N
552 302.384 M
79 302.384 L
S
GR
GS
[0.75 0 0 0.75 0 0.5] CT
0.775 GC
[1 3] 0 setdash
2 LJ
0.667 LW
N
552 292.981 M
79 292.981 L
S
GR
GS
[0.75 0 0 0.75 0 0.5] CT
0.775 GC
[1 3] 0 setdash
2 LJ
0.667 LW
N
552 288.207 M
79 288.207 L
S
GR
GS
[0.75 0 0 0.75 0 0.5] CT
0.775 GC
[1 3] 0 setdash
2 LJ
0.667 LW
N
552 284.819 M
79 284.819 L
S
GR
GS
[0.75 0 0 0.75 0 0.5] CT
0.775 GC
[1 3] 0 setdash
2 LJ
0.667 LW
N
552 282.191 M
79 282.191 L
S
GR
GS
[0.75 0 0 0.75 0 0.5] CT
0.775 GC
[1 3] 0 setdash
2 LJ
0.667 LW
N
552 280.045 M
79 280.045 L
S
GR
GS
[0.75 0 0 0.75 0 0.5] CT
0.775 GC
[1 3] 0 setdash
2 LJ
0.667 LW
N
552 278.229 M
79 278.229 L
S
GR
GS
[0.75 0 0 0.75 0 0.5] CT
0.775 GC
[1 3] 0 setdash
2 LJ
0.667 LW
N
552 276.657 M
79 276.657 L
S
GR
GS
[0.75 0 0 0.75 0 0.5] CT
0.775 GC
[1 3] 0 setdash
2 LJ
0.667 LW
N
552 275.27 M
79 275.27 L
S
GR
GS
[0.75 0 0 0.75 0 0.5] CT
0.775 GC
[1 3] 0 setdash
2 LJ
0.667 LW
N
552 274.029 M
79 274.029 L
S
GR
GS
[0.75 0 0 0.75 0 0.5] CT
0.775 GC
[1 3] 0 setdash
2 LJ
0.667 LW
N
552 265.867 M
79 265.867 L
S
GR
GS
[0.75 0 0 0.75 0 0.5] CT
0.775 GC
[1 3] 0 setdash
2 LJ
0.667 LW
N
552 261.092 M
79 261.092 L
S
GR
GS
[0.75 0 0 0.75 0 0.5] CT
0.775 GC
[1 3] 0 setdash
2 LJ
0.667 LW
N
552 257.705 M
79 257.705 L
S
GR
GS
[0.75 0 0 0.75 0 0.5] CT
0.775 GC
[1 3] 0 setdash
2 LJ
0.667 LW
N
552 255.077 M
79 255.077 L
S
GR
GS
[0.75 0 0 0.75 0 0.5] CT
0.775 GC
[1 3] 0 setdash
2 LJ
0.667 LW
N
552 252.93 M
79 252.93 L
S
GR
GS
[0.75 0 0 0.75 0 0.5] CT
0.775 GC
[1 3] 0 setdash
2 LJ
0.667 LW
N
552 251.115 M
79 251.115 L
S
GR
GS
[0.75 0 0 0.75 0 0.5] CT
0.775 GC
[1 3] 0 setdash
2 LJ
0.667 LW
N
552 249.543 M
79 249.543 L
S
GR
GS
[0.75 0 0 0.75 0 0.5] CT
0.775 GC
[1 3] 0 setdash
2 LJ
0.667 LW
N
552 248.156 M
79 248.156 L
S
GR
GS
[0.75 0 0 0.75 0 0.5] CT
0.775 GC
[1 3] 0 setdash
2 LJ
0.667 LW
N
552 238.753 M
79 238.753 L
S
GR
GS
[0.75 0 0 0.75 0 0.5] CT
0.775 GC
[1 3] 0 setdash
2 LJ
0.667 LW
N
552 233.978 M
79 233.978 L
S
GR
GS
[0.75 0 0 0.75 0 0.5] CT
0.775 GC
[1 3] 0 setdash
2 LJ
0.667 LW
N
552 230.59 M
79 230.59 L
S
GR
GS
[0.75 0 0 0.75 0 0.5] CT
0.775 GC
[1 3] 0 setdash
2 LJ
0.667 LW
N
552 227.963 M
79 227.963 L
S
GR
GS
[0.75 0 0 0.75 0 0.5] CT
0.775 GC
[1 3] 0 setdash
2 LJ
0.667 LW
N
552 225.816 M
79 225.816 L
S
GR
GS
[0.75 0 0 0.75 0 0.5] CT
0.775 GC
[1 3] 0 setdash
2 LJ
0.667 LW
N
552 224.001 M
79 224.001 L
S
GR
GS
[0.75 0 0 0.75 0 0.5] CT
0.775 GC
[1 3] 0 setdash
2 LJ
0.667 LW
N
552 222.428 M
79 222.428 L
S
GR
GS
[0.75 0 0 0.75 0 0.5] CT
0.775 GC
[1 3] 0 setdash
2 LJ
0.667 LW
N
552 221.041 M
79 221.041 L
S
GR
GS
[0.75 0 0 0.75 0 0.5] CT
0.775 GC
[1 3] 0 setdash
2 LJ
0.667 LW
N
552 219.801 M
79 219.801 L
S
GR
GS
[0.75 0 0 0.75 0 0.5] CT
0.775 GC
[1 3] 0 setdash
2 LJ
0.667 LW
N
552 211.638 M
79 211.638 L
S
GR
GS
[0.75 0 0 0.75 0 0.5] CT
0.775 GC
[1 3] 0 setdash
2 LJ
0.667 LW
N
552 206.864 M
79 206.864 L
S
GR
GS
[0.75 0 0 0.75 0 0.5] CT
0.775 GC
[1 3] 0 setdash
2 LJ
0.667 LW
N
552 203.476 M
79 203.476 L
S
GR
GS
[0.75 0 0 0.75 0 0.5] CT
0.775 GC
[1 3] 0 setdash
2 LJ
0.667 LW
N
552 200.848 M
79 200.848 L
S
GR
GS
[0.75 0 0 0.75 0 0.5] CT
0.775 GC
[1 3] 0 setdash
2 LJ
0.667 LW
N
552 198.701 M
79 198.701 L
S
GR
GS
[0.75 0 0 0.75 0 0.5] CT
0.775 GC
[1 3] 0 setdash
2 LJ
0.667 LW
N
552 196.886 M
79 196.886 L
S
GR
GS
[0.75 0 0 0.75 0 0.5] CT
0.775 GC
[1 3] 0 setdash
2 LJ
0.667 LW
N
552 195.314 M
79 195.314 L
S
GR
GS
[0.75 0 0 0.75 0 0.5] CT
0.775 GC
[1 3] 0 setdash
2 LJ
0.667 LW
N
552 193.927 M
79 193.927 L
S
GR
GS
[0.75 0 0 0.75 0 0.5] CT
0.775 GC
[1 3] 0 setdash
2 LJ
0.667 LW
N
552 192.686 M
79 192.686 L
S
GR
GS
[0.75 0 0 0.75 0 0.5] CT
0.775 GC
[1 3] 0 setdash
2 LJ
0.667 LW
N
552 184.524 M
79 184.524 L
S
GR
GS
[0.75 0 0 0.75 0 0.5] CT
0.775 GC
[1 3] 0 setdash
2 LJ
0.667 LW
N
552 179.749 M
79 179.749 L
S
GR
GS
[0.75 0 0 0.75 0 0.5] CT
0.775 GC
[1 3] 0 setdash
2 LJ
0.667 LW
N
552 176.362 M
79 176.362 L
S
GR
GS
[0.75 0 0 0.75 0 0.5] CT
0.775 GC
[1 3] 0 setdash
2 LJ
0.667 LW
N
552 173.734 M
79 173.734 L
S
GR
GS
[0.75 0 0 0.75 0 0.5] CT
0.775 GC
[1 3] 0 setdash
2 LJ
0.667 LW
N
552 171.587 M
79 171.587 L
S
GR
GS
[0.75 0 0 0.75 0 0.5] CT
0.775 GC
[1 3] 0 setdash
2 LJ
0.667 LW
N
552 169.772 M
79 169.772 L
S
GR
GS
[0.75 0 0 0.75 0 0.5] CT
0.775 GC
[1 3] 0 setdash
2 LJ
0.667 LW
N
552 168.199 M
79 168.199 L
S
GR
GS
[0.75 0 0 0.75 0 0.5] CT
0.775 GC
[1 3] 0 setdash
2 LJ
0.667 LW
N
552 166.813 M
79 166.813 L
S
GR
GS
[0.75 0 0 0.75 0 0.5] CT
0.775 GC
[1 3] 0 setdash
2 LJ
0.667 LW
N
552 165.572 M
79 165.572 L
S
GR
GS
[0.75 0 0 0.75 0 0.5] CT
0.775 GC
[1 3] 0 setdash
2 LJ
0.667 LW
N
552 157.41 M
79 157.41 L
S
GR
GS
[0.75 0 0 0.75 0 0.5] CT
0.775 GC
[1 3] 0 setdash
2 LJ
0.667 LW
N
552 152.635 M
79 152.635 L
S
GR
GS
[0.75 0 0 0.75 0 0.5] CT
0.775 GC
[1 3] 0 setdash
2 LJ
0.667 LW
N
552 149.247 M
79 149.247 L
S
GR
GS
[0.75 0 0 0.75 0 0.5] CT
0.775 GC
[1 3] 0 setdash
2 LJ
0.667 LW
N
552 146.62 M
79 146.62 L
S
GR
GS
[0.75 0 0 0.75 0 0.5] CT
0.775 GC
[1 3] 0 setdash
2 LJ
0.667 LW
N
552 144.473 M
79 144.473 L
S
GR
GS
[0.75 0 0 0.75 0 0.5] CT
0.775 GC
[1 3] 0 setdash
2 LJ
0.667 LW
N
552 142.658 M
79 142.658 L
S
GR
GS
[0.75 0 0 0.75 0 0.5] CT
0.775 GC
[1 3] 0 setdash
2 LJ
0.667 LW
N
552 141.085 M
79 141.085 L
S
GR
GS
[0.75 0 0 0.75 0 0.5] CT
0.775 GC
[1 3] 0 setdash
2 LJ
0.667 LW
N
552 139.698 M
79 139.698 L
S
GR
GS
[0.75 0 0 0.75 0 0.5] CT
0.775 GC
[1 3] 0 setdash
2 LJ
0.667 LW
N
552 130.295 M
79 130.295 L
S
GR
GS
[0.75 0 0 0.75 0 0.5] CT
0.775 GC
[1 3] 0 setdash
2 LJ
0.667 LW
N
552 125.521 M
79 125.521 L
S
GR
GS
[0.75 0 0 0.75 0 0.5] CT
0.775 GC
[1 3] 0 setdash
2 LJ
0.667 LW
N
552 122.133 M
79 122.133 L
S
GR
GS
[0.75 0 0 0.75 0 0.5] CT
0.775 GC
[1 3] 0 setdash
2 LJ
0.667 LW
N
552 119.505 M
79 119.505 L
S
GR
GS
[0.75 0 0 0.75 0 0.5] CT
0.775 GC
[1 3] 0 setdash
2 LJ
0.667 LW
N
552 117.358 M
79 117.358 L
S
GR
GS
[0.75 0 0 0.75 0 0.5] CT
0.775 GC
[1 3] 0 setdash
2 LJ
0.667 LW
N
552 115.543 M
79 115.543 L
S
GR
GS
[0.75 0 0 0.75 0 0.5] CT
0.775 GC
[1 3] 0 setdash
2 LJ
0.667 LW
N
552 113.971 M
79 113.971 L
S
GR
GS
[0.75 0 0 0.75 0 0.5] CT
0.775 GC
[1 3] 0 setdash
2 LJ
0.667 LW
N
552 112.584 M
79 112.584 L
S
GR
GS
[0.75 0 0 0.75 0 0.5] CT
0.775 GC
[1 3] 0 setdash
2 LJ
0.667 LW
N
552 111.343 M
79 111.343 L
S
GR
GS
[0.75 0 0 0.75 0 0.5] CT
0.775 GC
[1 3] 0 setdash
2 LJ
0.667 LW
N
552 103.181 M
79 103.181 L
S
GR
GS
[0.75 0 0 0.75 0 0.5] CT
0.775 GC
[1 3] 0 setdash
2 LJ
0.667 LW
N
552 98.406 M
79 98.406 L
S
GR
GS
[0.75 0 0 0.75 0 0.5] CT
0.775 GC
[1 3] 0 setdash
2 LJ
0.667 LW
N
552 95.019 M
79 95.019 L
S
GR
GS
[0.75 0 0 0.75 0 0.5] CT
0.775 GC
[1 3] 0 setdash
2 LJ
0.667 LW
N
552 92.391 M
79 92.391 L
S
GR
GS
[0.75 0 0 0.75 0 0.5] CT
0.775 GC
[1 3] 0 setdash
2 LJ
0.667 LW
N
552 90.244 M
79 90.244 L
S
GR
GS
[0.75 0 0 0.75 0 0.5] CT
0.775 GC
[1 3] 0 setdash
2 LJ
0.667 LW
N
552 88.429 M
79 88.429 L
S
GR
GS
[0.75 0 0 0.75 0 0.5] CT
0.775 GC
[1 3] 0 setdash
2 LJ
0.667 LW
N
552 86.856 M
79 86.856 L
S
GR
GS
[0.75 0 0 0.75 0 0.5] CT
0.775 GC
[1 3] 0 setdash
2 LJ
0.667 LW
N
552 85.469 M
79 85.469 L
S
GR
GS
[0.75 0 0 0.75 0 0.5] CT
0.775 GC
[1 3] 0 setdash
2 LJ
0.667 LW
N
552 76.066 M
79 76.066 L
S
GR
GS
[0.75 0 0 0.75 0 0.5] CT
0.775 GC
[1 3] 0 setdash
2 LJ
0.667 LW
N
552 71.292 M
79 71.292 L
S
GR
GS
[0.75 0 0 0.75 0 0.5] CT
0.775 GC
[1 3] 0 setdash
2 LJ
0.667 LW
N
552 67.904 M
79 67.904 L
S
GR
GS
[0.75 0 0 0.75 0 0.5] CT
0.775 GC
[1 3] 0 setdash
2 LJ
0.667 LW
N
552 65.277 M
79 65.277 L
S
GR
GS
[0.75 0 0 0.75 0 0.5] CT
0.775 GC
[1 3] 0 setdash
2 LJ
0.667 LW
N
552 63.13 M
79 63.13 L
S
GR
GS
[0.75 0 0 0.75 0 0.5] CT
0.775 GC
[1 3] 0 setdash
2 LJ
0.667 LW
N
552 61.314 M
79 61.314 L
S
GR
GS
[0.75 0 0 0.75 0 0.5] CT
0.775 GC
[1 3] 0 setdash
2 LJ
0.667 LW
N
552 59.742 M
79 59.742 L
S
GR
GS
[0.75 0 0 0.75 0 0.5] CT
0.775 GC
[1 3] 0 setdash
2 LJ
0.667 LW
N
552 58.355 M
79 58.355 L
S
GR
GS
[0.75 0 0 0.75 0 0.5] CT
0.775 GC
[1 3] 0 setdash
2 LJ
0.667 LW
N
552 57.114 M
79 57.114 L
S
GR
GS
[0.75 0 0 0.75 0 0.5] CT
0.775 GC
[1 3] 0 setdash
2 LJ
0.667 LW
N
552 48.952 M
79 48.952 L
S
GR
GS
[0.75 0 0 0.75 0 0.5] CT
0.775 GC
[1 3] 0 setdash
2 LJ
0.667 LW
N
552 44.178 M
79 44.178 L
S
GR
GS
[0.75 0 0 0.75 0 0.5] CT
0.775 GC
[1 3] 0 setdash
2 LJ
0.667 LW
N
552 40.79 M
79 40.79 L
S
GR
GS
[0.75 0 0 0.75 0 0.5] CT
0.775 GC
[1 3] 0 setdash
2 LJ
0.667 LW
N
552 38.162 M
79 38.162 L
S
GR
GS
[0.75 0 0 0.75 0 0.5] CT
0.775 GC
[1 3] 0 setdash
2 LJ
0.667 LW
N
552 36.015 M
79 36.015 L
S
GR
GS
[0.75 0 0 0.75 0 0.5] CT
0.775 GC
[1 3] 0 setdash
2 LJ
0.667 LW
N
552 34.2 M
79 34.2 L
S
GR
GS
[0.75 0 0 0.75 0 0.5] CT
0.775 GC
[1 3] 0 setdash
2 LJ
0.667 LW
N
552 32.628 M
79 32.628 L
S
GR
GS
[0.75 0 0 0.75 0 0.5] CT
0.775 GC
[1 3] 0 setdash
2 LJ
0.667 LW
N
552 31.241 M
79 31.241 L
S
GR
GS
[0.75 0 0 0.75 0 0.5] CT
0.873 GC
1 LJ
0.667 LW
N
552 355.372 M
79 355.372 L
S
GR
GS
[0.75 0 0 0.75 0 0.5] CT
0.873 GC
1 LJ
0.667 LW
N
552 301.144 M
79 301.144 L
S
GR
GS
[0.75 0 0 0.75 0 0.5] CT
0.873 GC
1 LJ
0.667 LW
N
552 246.915 M
79 246.915 L
S
GR
GS
[0.75 0 0 0.75 0 0.5] CT
0.873 GC
1 LJ
0.667 LW
N
552 192.686 M
79 192.686 L
S
GR
GS
[0.75 0 0 0.75 0 0.5] CT
0.873 GC
1 LJ
0.667 LW
N
552 138.457 M
79 138.457 L
S
GR
GS
[0.75 0 0 0.75 0 0.5] CT
0.873 GC
1 LJ
0.667 LW
N
552 84.229 M
79 84.229 L
S
GR
GS
[0.75 0 0 0.75 0 0.5] CT
0.873 GC
1 LJ
0.667 LW
N
552 30 M
79 30 L
S
GR
GS
[0.75 0 0 0.75 0 0.5] CT
0.149 GC
2 setlinecap
1 LJ
0.667 LW
N
79 358 M
552 358 L
S
GR
GS
[0.75 0 0 0.75 0 0.5] CT
0.149 GC
2 setlinecap
1 LJ
0.667 LW
N
79 30 M
552 30 L
S
GR
GS
[0.75 0 0 0.75 0 0.5] CT
0.149 GC
2 setlinecap
1 LJ
0.667 LW
N
79 358 M
79 353.27 L
S
GR
GS
[0.75 0 0 0.75 0 0.5] CT
0.149 GC
2 setlinecap
1 LJ
0.667 LW
N
173.6 358 M
173.6 353.27 L
S
GR
GS
[0.75 0 0 0.75 0 0.5] CT
0.149 GC
2 setlinecap
1 LJ
0.667 LW
N
268.2 358 M
268.2 353.27 L
S
GR
GS
[0.75 0 0 0.75 0 0.5] CT
0.149 GC
2 setlinecap
1 LJ
0.667 LW
N
362.8 358 M
362.8 353.27 L
S
GR
GS
[0.75 0 0 0.75 0 0.5] CT
0.149 GC
2 setlinecap
1 LJ
0.667 LW
N
457.4 358 M
457.4 353.27 L
S
GR
GS
[0.75 0 0 0.75 0 0.5] CT
0.149 GC
2 setlinecap
1 LJ
0.667 LW
N
552 358 M
552 353.27 L
S
GR
GS
[0.75 0 0 0.75 0 0.5] CT
0.149 GC
2 setlinecap
1 LJ
0.667 LW
N
79 30 M
79 34.73 L
S
GR
GS
[0.75 0 0 0.75 0 0.5] CT
0.149 GC
2 setlinecap
1 LJ
0.667 LW
N
173.6 30 M
173.6 34.73 L
S
GR
GS
[0.75 0 0 0.75 0 0.5] CT
0.149 GC
2 setlinecap
1 LJ
0.667 LW
N
268.2 30 M
268.2 34.73 L
S
GR
GS
[0.75 0 0 0.75 0 0.5] CT
0.149 GC
2 setlinecap
1 LJ
0.667 LW
N
362.8 30 M
362.8 34.73 L
S
GR
GS
[0.75 0 0 0.75 0 0.5] CT
0.149 GC
2 setlinecap
1 LJ
0.667 LW
N
457.4 30 M
457.4 34.73 L
S
GR
GS
[0.75 0 0 0.75 0 0.5] CT
0.149 GC
2 setlinecap
1 LJ
0.667 LW
N
552 30 M
552 34.73 L
S
GR
GS
[0.75 0 0 0.75 59.25 273.00001] CT
0.149 GC
/Helvetica 13.333 F
GS
[1 0 0 1 0 0] CT
-4.5 12 moveto 
1 -1 scale
(0) t 
GR
GR
GS
[0.75 0 0 0.75 130.2 273.00001] CT
0.149 GC
/Helvetica 13.333 F
GS
[1 0 0 1 0 0] CT
-4.5 12 moveto 
1 -1 scale
(2) t 
GR
GR
GS
[0.75 0 0 0.75 201.15001 273.00001] CT
0.149 GC
/Helvetica 13.333 F
GS
[1 0 0 1 0 0] CT
-4.5 12 moveto 
1 -1 scale
(4) t 
GR
GR
GS
[0.75 0 0 0.75 272.10001 273.00001] CT
0.149 GC
/Helvetica 13.333 F
GS
[1 0 0 1 0 0] CT
-4.5 12 moveto 
1 -1 scale
(6) t 
GR
GR
GS
[0.75 0 0 0.75 343.05 273.00001] CT
0.149 GC
/Helvetica 13.333 F
GS
[1 0 0 1 0 0] CT
-4.5 12 moveto 
1 -1 scale
(8) t 
GR
GR
GS
[0.75 0 0 0.75 414 273.00001] CT
0.149 GC
/Helvetica 13.333 F
GS
[1 0 0 1 0 0] CT
-8.5 12 moveto 
1 -1 scale
(10) t 
GR
GR
GS
[0.75 0 0 0.75 236.62516 284.49999] CT
0.149 GC
N
-30.034 15.68 M
-30.034 15.008 L
-29.065 15.008 -28.167 14.906 QT
-27.268 14.805 -27.268 14.414 QT
-27.268 3.977 L
-27.268 3.571 -27.495 3.469 QT
-27.721 3.367 -28.237 3.367 QT
-29.034 3.367 L
-30.596 3.367 -31.268 4.055 QT
-31.596 4.399 -31.745 5.156 QT
-31.893 5.914 -32.003 7.055 QT
-32.55 7.055 L
-32.19 2.696 L
-20.581 2.696 L
-20.221 7.055 L
-20.784 7.055 L
-20.893 5.821 -21.026 5.102 QT
-21.159 4.383 -21.503 4.055 QT
-22.175 3.367 -23.737 3.367 QT
-24.534 3.367 L
-24.878 3.367 -25.065 3.399 QT
-25.253 3.43 -25.378 3.563 QT
-25.503 3.696 -25.503 3.977 QT
-25.503 14.414 L
-25.503 14.805 -24.604 14.906 QT
-23.706 15.008 -22.753 15.008 QT
-22.753 15.68 L
-30.034 15.68 L
cp
f
GR
GS
[0.75 0 0 0.75 236.62516 284.49999] CT
0.149 GC
N
-19.177 15.68 M
-19.177 15.008 L
-18.521 15.008 -18.107 14.906 QT
-17.693 14.805 -17.693 14.414 QT
-17.693 9.227 L
-17.693 8.492 -17.974 8.321 QT
-18.256 8.149 -19.084 8.149 QT
-19.084 7.492 L
-16.349 7.289 L
-16.349 14.414 L
-16.349 14.805 -15.99 14.906 QT
-15.631 15.008 -15.021 15.008 QT
-15.021 15.68 L
-19.177 15.68 L
cp
-18.365 4.024 M
-18.365 3.602 -18.052 3.289 QT
-17.74 2.977 -17.318 2.977 QT
-17.052 2.977 -16.802 3.11 QT
-16.552 3.242 -16.412 3.492 QT
-16.271 3.742 -16.271 4.024 QT
-16.271 4.43 -16.592 4.742 QT
-16.912 5.055 -17.318 5.055 QT
-17.74 5.055 -18.052 4.742 QT
-18.365 4.43 -18.365 4.024 QT
cp
f
GR
GS
[0.75 0 0 0.75 236.62516 284.49999] CT
0.149 GC
N
-14.008 15.68 M
-14.008 15.008 L
-13.352 15.008 -12.938 14.906 QT
-12.523 14.805 -12.523 14.414 QT
-12.523 9.227 L
-12.523 8.711 -12.672 8.485 QT
-12.82 8.258 -13.109 8.203 QT
-13.398 8.149 -14.008 8.149 QT
-14.008 7.492 L
-11.242 7.289 L
-11.242 9.133 L
-10.867 8.321 -10.117 7.805 QT
-9.367 7.289 -8.492 7.289 QT
-6.305 7.289 -5.93 9.071 QT
-5.539 8.274 -4.805 7.781 QT
-4.07 7.289 -3.211 7.289 QT
-2.336 7.289 -1.75 7.563 QT
-1.164 7.836 -0.867 8.406 QT
-0.57 8.977 -0.57 9.852 QT
-0.57 14.414 L
-0.57 14.805 -0.148 14.906 QT
0.273 15.008 0.914 15.008 QT
0.914 15.68 L
-3.43 15.68 L
-3.43 15.008 L
-2.789 15.008 -2.367 14.906 QT
-1.945 14.805 -1.945 14.414 QT
-1.945 9.899 L
-1.945 8.946 -2.219 8.36 QT
-2.492 7.774 -3.32 7.774 QT
-4.414 7.774 -5.133 8.656 QT
-5.852 9.539 -5.852 10.664 QT
-5.852 14.414 L
-5.852 14.805 -5.43 14.906 QT
-5.008 15.008 -4.367 15.008 QT
-4.367 15.68 L
-8.711 15.68 L
-8.711 15.008 L
-8.07 15.008 -7.648 14.906 QT
-7.227 14.805 -7.227 14.414 QT
-7.227 9.899 L
-7.227 8.977 -7.5 8.375 QT
-7.773 7.774 -8.602 7.774 QT
-9.711 7.774 -10.422 8.656 QT
-11.133 9.539 -11.133 10.664 QT
-11.133 14.414 L
-11.133 14.805 -10.711 14.906 QT
-10.289 15.008 -9.648 15.008 QT
-9.648 15.68 L
-14.008 15.68 L
cp
f
GR
GS
[0.75 0 0 0.75 236.62516 284.49999] CT
0.149 GC
N
5.72 15.899 M
4.563 15.899 3.595 15.289 QT
2.626 14.68 2.071 13.664 QT
1.516 12.649 1.516 11.508 QT
1.516 10.399 2.024 9.399 QT
2.532 8.399 3.431 7.781 QT
4.329 7.164 5.454 7.164 QT
6.313 7.164 6.962 7.453 QT
7.61 7.742 8.024 8.266 QT
8.438 8.789 8.657 9.492 QT
8.876 10.196 8.876 11.039 QT
8.876 11.289 8.673 11.289 QT
3.173 11.289 L
3.173 11.492 L
3.173 13.071 3.806 14.203 QT
4.438 15.336 5.891 15.336 QT
6.47 15.336 6.962 15.078 QT
7.454 14.821 7.821 14.352 QT
8.188 13.883 8.329 13.367 QT
8.345 13.289 8.391 13.242 QT
8.438 13.196 8.516 13.196 QT
8.673 13.196 L
8.876 13.196 8.876 13.43 QT
8.595 14.508 7.704 15.203 QT
6.813 15.899 5.72 15.899 QT
cp
3.188 10.821 M
7.532 10.821 L
7.532 10.102 7.329 9.367 QT
7.126 8.633 6.665 8.149 QT
6.204 7.664 5.454 7.664 QT
4.376 7.664 3.782 8.672 QT
3.188 9.68 3.188 10.821 QT
cp
f
GR
GS
[0.75 0 0 0.75 236.62516 284.49999] CT
0.149 GC
N
17.754 20.43 M
17.754 1.43 L
20.347 1.43 L
20.347 2.196 L
18.504 2.196 L
18.504 19.664 L
20.347 19.664 L
20.347 20.43 L
17.754 20.43 L
cp
f
GR
GS
[0.75 0 0 0.75 236.62516 284.49999] CT
0.149 GC
N
21.314 15.742 M
21.314 12.633 L
21.314 12.492 21.486 12.492 QT
21.72 12.492 L
21.83 12.492 21.861 12.633 QT
22.392 15.399 24.423 15.399 QT
25.33 15.399 25.939 14.985 QT
26.548 14.571 26.548 13.727 QT
26.548 13.117 26.072 12.68 QT
25.595 12.242 24.955 12.086 QT
23.673 11.836 L
23.033 11.696 22.509 11.406 QT
21.986 11.117 21.65 10.641 QT
21.314 10.164 21.314 9.539 QT
21.314 8.696 21.759 8.164 QT
22.205 7.633 22.908 7.399 QT
23.611 7.164 24.423 7.164 QT
25.408 7.164 26.126 7.68 QT
26.673 7.211 L
26.673 7.164 26.767 7.164 QT
26.908 7.164 L
26.955 7.164 27.001 7.211 QT
27.048 7.258 27.048 7.321 QT
27.048 9.805 L
27.048 9.977 26.908 9.977 QT
26.673 9.977 L
26.501 9.977 26.501 9.805 QT
26.501 8.821 25.955 8.211 QT
25.408 7.602 24.408 7.602 QT
23.548 7.602 22.923 7.922 QT
22.298 8.242 22.298 9.008 QT
22.298 9.539 22.751 9.875 QT
23.205 10.211 23.814 10.367 QT
25.095 10.602 L
25.751 10.758 26.306 11.11 QT
26.861 11.461 27.197 12 QT
27.533 12.539 27.533 13.211 QT
27.533 13.899 27.29 14.406 QT
27.048 14.914 26.626 15.242 QT
26.205 15.571 25.634 15.735 QT
25.064 15.899 24.423 15.899 QT
23.236 15.899 22.392 15.102 QT
21.705 15.852 L
21.705 15.899 21.595 15.899 QT
21.486 15.899 L
21.314 15.899 21.314 15.742 QT
cp
f
GR
GS
[0.75 0 0 0.75 236.62516 284.49999] CT
0.149 GC
N
28.474 20.43 M
28.474 19.664 L
30.318 19.664 L
30.318 2.196 L
28.474 2.196 L
28.474 1.43 L
31.083 1.43 L
31.083 20.43 L
28.474 20.43 L
cp
f
GR
GS
[0.75 0 0 0.75 0 0.5] CT
0.149 GC
2 setlinecap
1 LJ
0.667 LW
N
79 358 M
79 30 L
S
GR
GS
[0.75 0 0 0.75 0 0.5] CT
0.149 GC
2 setlinecap
1 LJ
0.667 LW
N
552 358 M
552 30 L
S
GR
GS
[0.75 0 0 0.75 0 0.5] CT
0.149 GC
2 setlinecap
1 LJ
0.667 LW
N
79 355.372 M
83.73 355.372 L
S
GR
GS
[0.75 0 0 0.75 0 0.5] CT
0.149 GC
2 setlinecap
1 LJ
0.667 LW
N
79 301.144 M
83.73 301.144 L
S
GR
GS
[0.75 0 0 0.75 0 0.5] CT
0.149 GC
2 setlinecap
1 LJ
0.667 LW
N
79 246.915 M
83.73 246.915 L
S
GR
GS
[0.75 0 0 0.75 0 0.5] CT
0.149 GC
2 setlinecap
1 LJ
0.667 LW
N
79 192.686 M
83.73 192.686 L
S
GR
GS
[0.75 0 0 0.75 0 0.5] CT
0.149 GC
2 setlinecap
1 LJ
0.667 LW
N
79 138.457 M
83.73 138.457 L
S
GR
GS
[0.75 0 0 0.75 0 0.5] CT
0.149 GC
2 setlinecap
1 LJ
0.667 LW
N
79 84.229 M
83.73 84.229 L
S
GR
GS
[0.75 0 0 0.75 0 0.5] CT
0.149 GC
2 setlinecap
1 LJ
0.667 LW
N
79 30 M
83.73 30 L
S
GR
GS
[0.75 0 0 0.75 0 0.5] CT
0.149 GC
2 setlinecap
1 LJ
0.667 LW
N
552 355.372 M
547.27 355.372 L
S
GR
GS
[0.75 0 0 0.75 0 0.5] CT
0.149 GC
2 setlinecap
1 LJ
0.667 LW
N
552 301.144 M
547.27 301.144 L
S
GR
GS
[0.75 0 0 0.75 0 0.5] CT
0.149 GC
2 setlinecap
1 LJ
0.667 LW
N
552 246.915 M
547.27 246.915 L
S
GR
GS
[0.75 0 0 0.75 0 0.5] CT
0.149 GC
2 setlinecap
1 LJ
0.667 LW
N
552 192.686 M
547.27 192.686 L
S
GR
GS
[0.75 0 0 0.75 0 0.5] CT
0.149 GC
2 setlinecap
1 LJ
0.667 LW
N
552 138.457 M
547.27 138.457 L
S
GR
GS
[0.75 0 0 0.75 0 0.5] CT
0.149 GC
2 setlinecap
1 LJ
0.667 LW
N
552 84.229 M
547.27 84.229 L
S
GR
GS
[0.75 0 0 0.75 0 0.5] CT
0.149 GC
2 setlinecap
1 LJ
0.667 LW
N
552 30 M
547.27 30 L
S
GR
GS
[0.75 0 0 0.75 0 0.5] CT
0.149 GC
2 setlinecap
1 LJ
0.667 LW
N
79 358 M
81.365 358 L
S
GR
GS
[0.75 0 0 0.75 0 0.5] CT
0.149 GC
2 setlinecap
1 LJ
0.667 LW
N
79 356.613 M
81.365 356.613 L
S
GR
GS
[0.75 0 0 0.75 0 0.5] CT
0.149 GC
2 setlinecap
1 LJ
0.667 LW
N
79 355.372 M
81.365 355.372 L
S
GR
GS
[0.75 0 0 0.75 0 0.5] CT
0.149 GC
2 setlinecap
1 LJ
0.667 LW
N
79 347.21 M
81.365 347.21 L
S
GR
GS
[0.75 0 0 0.75 0 0.5] CT
0.149 GC
2 setlinecap
1 LJ
0.667 LW
N
79 342.436 M
81.365 342.436 L
S
GR
GS
[0.75 0 0 0.75 0 0.5] CT
0.149 GC
2 setlinecap
1 LJ
0.667 LW
N
79 339.048 M
81.365 339.048 L
S
GR
GS
[0.75 0 0 0.75 0 0.5] CT
0.149 GC
2 setlinecap
1 LJ
0.667 LW
N
79 336.42 M
81.365 336.42 L
S
GR
GS
[0.75 0 0 0.75 0 0.5] CT
0.149 GC
2 setlinecap
1 LJ
0.667 LW
N
79 334.273 M
81.365 334.273 L
S
GR
GS
[0.75 0 0 0.75 0 0.5] CT
0.149 GC
2 setlinecap
1 LJ
0.667 LW
N
79 332.458 M
81.365 332.458 L
S
GR
GS
[0.75 0 0 0.75 0 0.5] CT
0.149 GC
2 setlinecap
1 LJ
0.667 LW
N
79 330.886 M
81.365 330.886 L
S
GR
GS
[0.75 0 0 0.75 0 0.5] CT
0.149 GC
2 setlinecap
1 LJ
0.667 LW
N
79 329.499 M
81.365 329.499 L
S
GR
GS
[0.75 0 0 0.75 0 0.5] CT
0.149 GC
2 setlinecap
1 LJ
0.667 LW
N
79 328.258 M
81.365 328.258 L
S
GR
GS
[0.75 0 0 0.75 0 0.5] CT
0.149 GC
2 setlinecap
1 LJ
0.667 LW
N
79 320.096 M
81.365 320.096 L
S
GR
GS
[0.75 0 0 0.75 0 0.5] CT
0.149 GC
2 setlinecap
1 LJ
0.667 LW
N
79 315.321 M
81.365 315.321 L
S
GR
GS
[0.75 0 0 0.75 0 0.5] CT
0.149 GC
2 setlinecap
1 LJ
0.667 LW
N
79 311.934 M
81.365 311.934 L
S
GR
GS
[0.75 0 0 0.75 0 0.5] CT
0.149 GC
2 setlinecap
1 LJ
0.667 LW
N
79 309.306 M
81.365 309.306 L
S
GR
GS
[0.75 0 0 0.75 0 0.5] CT
0.149 GC
2 setlinecap
1 LJ
0.667 LW
N
79 307.159 M
81.365 307.159 L
S
GR
GS
[0.75 0 0 0.75 0 0.5] CT
0.149 GC
2 setlinecap
1 LJ
0.667 LW
N
79 305.344 M
81.365 305.344 L
S
GR
GS
[0.75 0 0 0.75 0 0.5] CT
0.149 GC
2 setlinecap
1 LJ
0.667 LW
N
79 303.771 M
81.365 303.771 L
S
GR
GS
[0.75 0 0 0.75 0 0.5] CT
0.149 GC
2 setlinecap
1 LJ
0.667 LW
N
79 302.384 M
81.365 302.384 L
S
GR
GS
[0.75 0 0 0.75 0 0.5] CT
0.149 GC
2 setlinecap
1 LJ
0.667 LW
N
79 301.144 M
81.365 301.144 L
S
GR
GS
[0.75 0 0 0.75 0 0.5] CT
0.149 GC
2 setlinecap
1 LJ
0.667 LW
N
79 292.981 M
81.365 292.981 L
S
GR
GS
[0.75 0 0 0.75 0 0.5] CT
0.149 GC
2 setlinecap
1 LJ
0.667 LW
N
79 288.207 M
81.365 288.207 L
S
GR
GS
[0.75 0 0 0.75 0 0.5] CT
0.149 GC
2 setlinecap
1 LJ
0.667 LW
N
79 284.819 M
81.365 284.819 L
S
GR
GS
[0.75 0 0 0.75 0 0.5] CT
0.149 GC
2 setlinecap
1 LJ
0.667 LW
N
79 282.191 M
81.365 282.191 L
S
GR
GS
[0.75 0 0 0.75 0 0.5] CT
0.149 GC
2 setlinecap
1 LJ
0.667 LW
N
79 280.045 M
81.365 280.045 L
S
GR
GS
[0.75 0 0 0.75 0 0.5] CT
0.149 GC
2 setlinecap
1 LJ
0.667 LW
N
79 278.229 M
81.365 278.229 L
S
GR
GS
[0.75 0 0 0.75 0 0.5] CT
0.149 GC
2 setlinecap
1 LJ
0.667 LW
N
79 276.657 M
81.365 276.657 L
S
GR
GS
[0.75 0 0 0.75 0 0.5] CT
0.149 GC
2 setlinecap
1 LJ
0.667 LW
N
79 275.27 M
81.365 275.27 L
S
GR
GS
[0.75 0 0 0.75 0 0.5] CT
0.149 GC
2 setlinecap
1 LJ
0.667 LW
N
79 274.029 M
81.365 274.029 L
S
GR
GS
[0.75 0 0 0.75 0 0.5] CT
0.149 GC
2 setlinecap
1 LJ
0.667 LW
N
79 265.867 M
81.365 265.867 L
S
GR
GS
[0.75 0 0 0.75 0 0.5] CT
0.149 GC
2 setlinecap
1 LJ
0.667 LW
N
79 261.092 M
81.365 261.092 L
S
GR
GS
[0.75 0 0 0.75 0 0.5] CT
0.149 GC
2 setlinecap
1 LJ
0.667 LW
N
79 257.705 M
81.365 257.705 L
S
GR
GS
[0.75 0 0 0.75 0 0.5] CT
0.149 GC
2 setlinecap
1 LJ
0.667 LW
N
79 255.077 M
81.365 255.077 L
S
GR
GS
[0.75 0 0 0.75 0 0.5] CT
0.149 GC
2 setlinecap
1 LJ
0.667 LW
N
79 252.93 M
81.365 252.93 L
S
GR
GS
[0.75 0 0 0.75 0 0.5] CT
0.149 GC
2 setlinecap
1 LJ
0.667 LW
N
79 251.115 M
81.365 251.115 L
S
GR
GS
[0.75 0 0 0.75 0 0.5] CT
0.149 GC
2 setlinecap
1 LJ
0.667 LW
N
79 249.543 M
81.365 249.543 L
S
GR
GS
[0.75 0 0 0.75 0 0.5] CT
0.149 GC
2 setlinecap
1 LJ
0.667 LW
N
79 248.156 M
81.365 248.156 L
S
GR
GS
[0.75 0 0 0.75 0 0.5] CT
0.149 GC
2 setlinecap
1 LJ
0.667 LW
N
79 246.915 M
81.365 246.915 L
S
GR
GS
[0.75 0 0 0.75 0 0.5] CT
0.149 GC
2 setlinecap
1 LJ
0.667 LW
N
79 238.753 M
81.365 238.753 L
S
GR
GS
[0.75 0 0 0.75 0 0.5] CT
0.149 GC
2 setlinecap
1 LJ
0.667 LW
N
79 233.978 M
81.365 233.978 L
S
GR
GS
[0.75 0 0 0.75 0 0.5] CT
0.149 GC
2 setlinecap
1 LJ
0.667 LW
N
79 230.59 M
81.365 230.59 L
S
GR
GS
[0.75 0 0 0.75 0 0.5] CT
0.149 GC
2 setlinecap
1 LJ
0.667 LW
N
79 227.963 M
81.365 227.963 L
S
GR
GS
[0.75 0 0 0.75 0 0.5] CT
0.149 GC
2 setlinecap
1 LJ
0.667 LW
N
79 225.816 M
81.365 225.816 L
S
GR
GS
[0.75 0 0 0.75 0 0.5] CT
0.149 GC
2 setlinecap
1 LJ
0.667 LW
N
79 224.001 M
81.365 224.001 L
S
GR
GS
[0.75 0 0 0.75 0 0.5] CT
0.149 GC
2 setlinecap
1 LJ
0.667 LW
N
79 222.428 M
81.365 222.428 L
S
GR
GS
[0.75 0 0 0.75 0 0.5] CT
0.149 GC
2 setlinecap
1 LJ
0.667 LW
N
79 221.041 M
81.365 221.041 L
S
GR
GS
[0.75 0 0 0.75 0 0.5] CT
0.149 GC
2 setlinecap
1 LJ
0.667 LW
N
79 219.801 M
81.365 219.801 L
S
GR
GS
[0.75 0 0 0.75 0 0.5] CT
0.149 GC
2 setlinecap
1 LJ
0.667 LW
N
79 211.638 M
81.365 211.638 L
S
GR
GS
[0.75 0 0 0.75 0 0.5] CT
0.149 GC
2 setlinecap
1 LJ
0.667 LW
N
79 206.864 M
81.365 206.864 L
S
GR
GS
[0.75 0 0 0.75 0 0.5] CT
0.149 GC
2 setlinecap
1 LJ
0.667 LW
N
79 203.476 M
81.365 203.476 L
S
GR
GS
[0.75 0 0 0.75 0 0.5] CT
0.149 GC
2 setlinecap
1 LJ
0.667 LW
N
79 200.848 M
81.365 200.848 L
S
GR
GS
[0.75 0 0 0.75 0 0.5] CT
0.149 GC
2 setlinecap
1 LJ
0.667 LW
N
79 198.701 M
81.365 198.701 L
S
GR
GS
[0.75 0 0 0.75 0 0.5] CT
0.149 GC
2 setlinecap
1 LJ
0.667 LW
N
79 196.886 M
81.365 196.886 L
S
GR
GS
[0.75 0 0 0.75 0 0.5] CT
0.149 GC
2 setlinecap
1 LJ
0.667 LW
N
79 195.314 M
81.365 195.314 L
S
GR
GS
[0.75 0 0 0.75 0 0.5] CT
0.149 GC
2 setlinecap
1 LJ
0.667 LW
N
79 193.927 M
81.365 193.927 L
S
GR
GS
[0.75 0 0 0.75 0 0.5] CT
0.149 GC
2 setlinecap
1 LJ
0.667 LW
N
79 192.686 M
81.365 192.686 L
S
GR
GS
[0.75 0 0 0.75 0 0.5] CT
0.149 GC
2 setlinecap
1 LJ
0.667 LW
N
79 192.686 M
81.365 192.686 L
S
GR
GS
[0.75 0 0 0.75 0 0.5] CT
0.149 GC
2 setlinecap
1 LJ
0.667 LW
N
79 184.524 M
81.365 184.524 L
S
GR
GS
[0.75 0 0 0.75 0 0.5] CT
0.149 GC
2 setlinecap
1 LJ
0.667 LW
N
79 179.749 M
81.365 179.749 L
S
GR
GS
[0.75 0 0 0.75 0 0.5] CT
0.149 GC
2 setlinecap
1 LJ
0.667 LW
N
79 176.362 M
81.365 176.362 L
S
GR
GS
[0.75 0 0 0.75 0 0.5] CT
0.149 GC
2 setlinecap
1 LJ
0.667 LW
N
79 173.734 M
81.365 173.734 L
S
GR
GS
[0.75 0 0 0.75 0 0.5] CT
0.149 GC
2 setlinecap
1 LJ
0.667 LW
N
79 171.587 M
81.365 171.587 L
S
GR
GS
[0.75 0 0 0.75 0 0.5] CT
0.149 GC
2 setlinecap
1 LJ
0.667 LW
N
79 169.772 M
81.365 169.772 L
S
GR
GS
[0.75 0 0 0.75 0 0.5] CT
0.149 GC
2 setlinecap
1 LJ
0.667 LW
N
79 168.199 M
81.365 168.199 L
S
GR
GS
[0.75 0 0 0.75 0 0.5] CT
0.149 GC
2 setlinecap
1 LJ
0.667 LW
N
79 166.813 M
81.365 166.813 L
S
GR
GS
[0.75 0 0 0.75 0 0.5] CT
0.149 GC
2 setlinecap
1 LJ
0.667 LW
N
79 165.572 M
81.365 165.572 L
S
GR
GS
[0.75 0 0 0.75 0 0.5] CT
0.149 GC
2 setlinecap
1 LJ
0.667 LW
N
79 157.41 M
81.365 157.41 L
S
GR
GS
[0.75 0 0 0.75 0 0.5] CT
0.149 GC
2 setlinecap
1 LJ
0.667 LW
N
79 152.635 M
81.365 152.635 L
S
GR
GS
[0.75 0 0 0.75 0 0.5] CT
0.149 GC
2 setlinecap
1 LJ
0.667 LW
N
79 149.247 M
81.365 149.247 L
S
GR
GS
[0.75 0 0 0.75 0 0.5] CT
0.149 GC
2 setlinecap
1 LJ
0.667 LW
N
79 146.62 M
81.365 146.62 L
S
GR
GS
[0.75 0 0 0.75 0 0.5] CT
0.149 GC
2 setlinecap
1 LJ
0.667 LW
N
79 144.473 M
81.365 144.473 L
S
GR
GS
[0.75 0 0 0.75 0 0.5] CT
0.149 GC
2 setlinecap
1 LJ
0.667 LW
N
79 142.658 M
81.365 142.658 L
S
GR
GS
[0.75 0 0 0.75 0 0.5] CT
0.149 GC
2 setlinecap
1 LJ
0.667 LW
N
79 141.085 M
81.365 141.085 L
S
GR
GS
[0.75 0 0 0.75 0 0.5] CT
0.149 GC
2 setlinecap
1 LJ
0.667 LW
N
79 139.698 M
81.365 139.698 L
S
GR
GS
[0.75 0 0 0.75 0 0.5] CT
0.149 GC
2 setlinecap
1 LJ
0.667 LW
N
79 138.457 M
81.365 138.457 L
S
GR
GS
[0.75 0 0 0.75 0 0.5] CT
0.149 GC
2 setlinecap
1 LJ
0.667 LW
N
79 130.295 M
81.365 130.295 L
S
GR
GS
[0.75 0 0 0.75 0 0.5] CT
0.149 GC
2 setlinecap
1 LJ
0.667 LW
N
79 125.521 M
81.365 125.521 L
S
GR
GS
[0.75 0 0 0.75 0 0.5] CT
0.149 GC
2 setlinecap
1 LJ
0.667 LW
N
79 122.133 M
81.365 122.133 L
S
GR
GS
[0.75 0 0 0.75 0 0.5] CT
0.149 GC
2 setlinecap
1 LJ
0.667 LW
N
79 119.505 M
81.365 119.505 L
S
GR
GS
[0.75 0 0 0.75 0 0.5] CT
0.149 GC
2 setlinecap
1 LJ
0.667 LW
N
79 117.358 M
81.365 117.358 L
S
GR
GS
[0.75 0 0 0.75 0 0.5] CT
0.149 GC
2 setlinecap
1 LJ
0.667 LW
N
79 115.543 M
81.365 115.543 L
S
GR
GS
[0.75 0 0 0.75 0 0.5] CT
0.149 GC
2 setlinecap
1 LJ
0.667 LW
N
79 113.971 M
81.365 113.971 L
S
GR
GS
[0.75 0 0 0.75 0 0.5] CT
0.149 GC
2 setlinecap
1 LJ
0.667 LW
N
79 112.584 M
81.365 112.584 L
S
GR
GS
[0.75 0 0 0.75 0 0.5] CT
0.149 GC
2 setlinecap
1 LJ
0.667 LW
N
79 111.343 M
81.365 111.343 L
S
GR
GS
[0.75 0 0 0.75 0 0.5] CT
0.149 GC
2 setlinecap
1 LJ
0.667 LW
N
79 103.181 M
81.365 103.181 L
S
GR
GS
[0.75 0 0 0.75 0 0.5] CT
0.149 GC
2 setlinecap
1 LJ
0.667 LW
N
79 98.406 M
81.365 98.406 L
S
GR
GS
[0.75 0 0 0.75 0 0.5] CT
0.149 GC
2 setlinecap
1 LJ
0.667 LW
N
79 95.019 M
81.365 95.019 L
S
GR
GS
[0.75 0 0 0.75 0 0.5] CT
0.149 GC
2 setlinecap
1 LJ
0.667 LW
N
79 92.391 M
81.365 92.391 L
S
GR
GS
[0.75 0 0 0.75 0 0.5] CT
0.149 GC
2 setlinecap
1 LJ
0.667 LW
N
79 90.244 M
81.365 90.244 L
S
GR
GS
[0.75 0 0 0.75 0 0.5] CT
0.149 GC
2 setlinecap
1 LJ
0.667 LW
N
79 88.429 M
81.365 88.429 L
S
GR
GS
[0.75 0 0 0.75 0 0.5] CT
0.149 GC
2 setlinecap
1 LJ
0.667 LW
N
79 86.856 M
81.365 86.856 L
S
GR
GS
[0.75 0 0 0.75 0 0.5] CT
0.149 GC
2 setlinecap
1 LJ
0.667 LW
N
79 85.469 M
81.365 85.469 L
S
GR
GS
[0.75 0 0 0.75 0 0.5] CT
0.149 GC
2 setlinecap
1 LJ
0.667 LW
N
79 84.229 M
81.365 84.229 L
S
GR
GS
[0.75 0 0 0.75 0 0.5] CT
0.149 GC
2 setlinecap
1 LJ
0.667 LW
N
79 76.066 M
81.365 76.066 L
S
GR
GS
[0.75 0 0 0.75 0 0.5] CT
0.149 GC
2 setlinecap
1 LJ
0.667 LW
N
79 71.292 M
81.365 71.292 L
S
GR
GS
[0.75 0 0 0.75 0 0.5] CT
0.149 GC
2 setlinecap
1 LJ
0.667 LW
N
79 67.904 M
81.365 67.904 L
S
GR
GS
[0.75 0 0 0.75 0 0.5] CT
0.149 GC
2 setlinecap
1 LJ
0.667 LW
N
79 65.277 M
81.365 65.277 L
S
GR
GS
[0.75 0 0 0.75 0 0.5] CT
0.149 GC
2 setlinecap
1 LJ
0.667 LW
N
79 63.13 M
81.365 63.13 L
S
GR
GS
[0.75 0 0 0.75 0 0.5] CT
0.149 GC
2 setlinecap
1 LJ
0.667 LW
N
79 61.314 M
81.365 61.314 L
S
GR
GS
[0.75 0 0 0.75 0 0.5] CT
0.149 GC
2 setlinecap
1 LJ
0.667 LW
N
79 59.742 M
81.365 59.742 L
S
GR
GS
[0.75 0 0 0.75 0 0.5] CT
0.149 GC
2 setlinecap
1 LJ
0.667 LW
N
79 58.355 M
81.365 58.355 L
S
GR
GS
[0.75 0 0 0.75 0 0.5] CT
0.149 GC
2 setlinecap
1 LJ
0.667 LW
N
79 57.114 M
81.365 57.114 L
S
GR
GS
[0.75 0 0 0.75 0 0.5] CT
0.149 GC
2 setlinecap
1 LJ
0.667 LW
N
79 48.952 M
81.365 48.952 L
S
GR
GS
[0.75 0 0 0.75 0 0.5] CT
0.149 GC
2 setlinecap
1 LJ
0.667 LW
N
79 44.178 M
81.365 44.178 L
S
GR
GS
[0.75 0 0 0.75 0 0.5] CT
0.149 GC
2 setlinecap
1 LJ
0.667 LW
N
79 40.79 M
81.365 40.79 L
S
GR
GS
[0.75 0 0 0.75 0 0.5] CT
0.149 GC
2 setlinecap
1 LJ
0.667 LW
N
79 38.162 M
81.365 38.162 L
S
GR
GS
[0.75 0 0 0.75 0 0.5] CT
0.149 GC
2 setlinecap
1 LJ
0.667 LW
N
79 36.015 M
81.365 36.015 L
S
GR
GS
[0.75 0 0 0.75 0 0.5] CT
0.149 GC
2 setlinecap
1 LJ
0.667 LW
N
79 34.2 M
81.365 34.2 L
S
GR
GS
[0.75 0 0 0.75 0 0.5] CT
0.149 GC
2 setlinecap
1 LJ
0.667 LW
N
79 32.628 M
81.365 32.628 L
S
GR
GS
[0.75 0 0 0.75 0 0.5] CT
0.149 GC
2 setlinecap
1 LJ
0.667 LW
N
79 31.241 M
81.365 31.241 L
S
GR
GS
[0.75 0 0 0.75 0 0.5] CT
0.149 GC
2 setlinecap
1 LJ
0.667 LW
N
79 30 M
81.365 30 L
S
GR
GS
[0.75 0 0 0.75 0 0.5] CT
0.149 GC
2 setlinecap
1 LJ
0.667 LW
N
552 358 M
549.635 358 L
S
GR
GS
[0.75 0 0 0.75 0 0.5] CT
0.149 GC
2 setlinecap
1 LJ
0.667 LW
N
552 356.613 M
549.635 356.613 L
S
GR
GS
[0.75 0 0 0.75 0 0.5] CT
0.149 GC
2 setlinecap
1 LJ
0.667 LW
N
552 355.372 M
549.635 355.372 L
S
GR
GS
[0.75 0 0 0.75 0 0.5] CT
0.149 GC
2 setlinecap
1 LJ
0.667 LW
N
552 347.21 M
549.635 347.21 L
S
GR
GS
[0.75 0 0 0.75 0 0.5] CT
0.149 GC
2 setlinecap
1 LJ
0.667 LW
N
552 342.436 M
549.635 342.436 L
S
GR
GS
[0.75 0 0 0.75 0 0.5] CT
0.149 GC
2 setlinecap
1 LJ
0.667 LW
N
552 339.048 M
549.635 339.048 L
S
GR
GS
[0.75 0 0 0.75 0 0.5] CT
0.149 GC
2 setlinecap
1 LJ
0.667 LW
N
552 336.42 M
549.635 336.42 L
S
GR
GS
[0.75 0 0 0.75 0 0.5] CT
0.149 GC
2 setlinecap
1 LJ
0.667 LW
N
552 334.273 M
549.635 334.273 L
S
GR
GS
[0.75 0 0 0.75 0 0.5] CT
0.149 GC
2 setlinecap
1 LJ
0.667 LW
N
552 332.458 M
549.635 332.458 L
S
GR
GS
[0.75 0 0 0.75 0 0.5] CT
0.149 GC
2 setlinecap
1 LJ
0.667 LW
N
552 330.886 M
549.635 330.886 L
S
GR
GS
[0.75 0 0 0.75 0 0.5] CT
0.149 GC
2 setlinecap
1 LJ
0.667 LW
N
552 329.499 M
549.635 329.499 L
S
GR
GS
[0.75 0 0 0.75 0 0.5] CT
0.149 GC
2 setlinecap
1 LJ
0.667 LW
N
552 328.258 M
549.635 328.258 L
S
GR
GS
[0.75 0 0 0.75 0 0.5] CT
0.149 GC
2 setlinecap
1 LJ
0.667 LW
N
552 320.096 M
549.635 320.096 L
S
GR
GS
[0.75 0 0 0.75 0 0.5] CT
0.149 GC
2 setlinecap
1 LJ
0.667 LW
N
552 315.321 M
549.635 315.321 L
S
GR
GS
[0.75 0 0 0.75 0 0.5] CT
0.149 GC
2 setlinecap
1 LJ
0.667 LW
N
552 311.934 M
549.635 311.934 L
S
GR
GS
[0.75 0 0 0.75 0 0.5] CT
0.149 GC
2 setlinecap
1 LJ
0.667 LW
N
552 309.306 M
549.635 309.306 L
S
GR
GS
[0.75 0 0 0.75 0 0.5] CT
0.149 GC
2 setlinecap
1 LJ
0.667 LW
N
552 307.159 M
549.635 307.159 L
S
GR
GS
[0.75 0 0 0.75 0 0.5] CT
0.149 GC
2 setlinecap
1 LJ
0.667 LW
N
552 305.344 M
549.635 305.344 L
S
GR
GS
[0.75 0 0 0.75 0 0.5] CT
0.149 GC
2 setlinecap
1 LJ
0.667 LW
N
552 303.771 M
549.635 303.771 L
S
GR
GS
[0.75 0 0 0.75 0 0.5] CT
0.149 GC
2 setlinecap
1 LJ
0.667 LW
N
552 302.384 M
549.635 302.384 L
S
GR
GS
[0.75 0 0 0.75 0 0.5] CT
0.149 GC
2 setlinecap
1 LJ
0.667 LW
N
552 301.144 M
549.635 301.144 L
S
GR
GS
[0.75 0 0 0.75 0 0.5] CT
0.149 GC
2 setlinecap
1 LJ
0.667 LW
N
552 292.981 M
549.635 292.981 L
S
GR
GS
[0.75 0 0 0.75 0 0.5] CT
0.149 GC
2 setlinecap
1 LJ
0.667 LW
N
552 288.207 M
549.635 288.207 L
S
GR
GS
[0.75 0 0 0.75 0 0.5] CT
0.149 GC
2 setlinecap
1 LJ
0.667 LW
N
552 284.819 M
549.635 284.819 L
S
GR
GS
[0.75 0 0 0.75 0 0.5] CT
0.149 GC
2 setlinecap
1 LJ
0.667 LW
N
552 282.191 M
549.635 282.191 L
S
GR
GS
[0.75 0 0 0.75 0 0.5] CT
0.149 GC
2 setlinecap
1 LJ
0.667 LW
N
552 280.045 M
549.635 280.045 L
S
GR
GS
[0.75 0 0 0.75 0 0.5] CT
0.149 GC
2 setlinecap
1 LJ
0.667 LW
N
552 278.229 M
549.635 278.229 L
S
GR
GS
[0.75 0 0 0.75 0 0.5] CT
0.149 GC
2 setlinecap
1 LJ
0.667 LW
N
552 276.657 M
549.635 276.657 L
S
GR
GS
[0.75 0 0 0.75 0 0.5] CT
0.149 GC
2 setlinecap
1 LJ
0.667 LW
N
552 275.27 M
549.635 275.27 L
S
GR
GS
[0.75 0 0 0.75 0 0.5] CT
0.149 GC
2 setlinecap
1 LJ
0.667 LW
N
552 274.029 M
549.635 274.029 L
S
GR
GS
[0.75 0 0 0.75 0 0.5] CT
0.149 GC
2 setlinecap
1 LJ
0.667 LW
N
552 265.867 M
549.635 265.867 L
S
GR
GS
[0.75 0 0 0.75 0 0.5] CT
0.149 GC
2 setlinecap
1 LJ
0.667 LW
N
552 261.092 M
549.635 261.092 L
S
GR
GS
[0.75 0 0 0.75 0 0.5] CT
0.149 GC
2 setlinecap
1 LJ
0.667 LW
N
552 257.705 M
549.635 257.705 L
S
GR
GS
[0.75 0 0 0.75 0 0.5] CT
0.149 GC
2 setlinecap
1 LJ
0.667 LW
N
552 255.077 M
549.635 255.077 L
S
GR
GS
[0.75 0 0 0.75 0 0.5] CT
0.149 GC
2 setlinecap
1 LJ
0.667 LW
N
552 252.93 M
549.635 252.93 L
S
GR
GS
[0.75 0 0 0.75 0 0.5] CT
0.149 GC
2 setlinecap
1 LJ
0.667 LW
N
552 251.115 M
549.635 251.115 L
S
GR
GS
[0.75 0 0 0.75 0 0.5] CT
0.149 GC
2 setlinecap
1 LJ
0.667 LW
N
552 249.543 M
549.635 249.543 L
S
GR
GS
[0.75 0 0 0.75 0 0.5] CT
0.149 GC
2 setlinecap
1 LJ
0.667 LW
N
552 248.156 M
549.635 248.156 L
S
GR
GS
[0.75 0 0 0.75 0 0.5] CT
0.149 GC
2 setlinecap
1 LJ
0.667 LW
N
552 246.915 M
549.635 246.915 L
S
GR
GS
[0.75 0 0 0.75 0 0.5] CT
0.149 GC
2 setlinecap
1 LJ
0.667 LW
N
552 238.753 M
549.635 238.753 L
S
GR
GS
[0.75 0 0 0.75 0 0.5] CT
0.149 GC
2 setlinecap
1 LJ
0.667 LW
N
552 233.978 M
549.635 233.978 L
S
GR
GS
[0.75 0 0 0.75 0 0.5] CT
0.149 GC
2 setlinecap
1 LJ
0.667 LW
N
552 230.59 M
549.635 230.59 L
S
GR
GS
[0.75 0 0 0.75 0 0.5] CT
0.149 GC
2 setlinecap
1 LJ
0.667 LW
N
552 227.963 M
549.635 227.963 L
S
GR
GS
[0.75 0 0 0.75 0 0.5] CT
0.149 GC
2 setlinecap
1 LJ
0.667 LW
N
552 225.816 M
549.635 225.816 L
S
GR
GS
[0.75 0 0 0.75 0 0.5] CT
0.149 GC
2 setlinecap
1 LJ
0.667 LW
N
552 224.001 M
549.635 224.001 L
S
GR
GS
[0.75 0 0 0.75 0 0.5] CT
0.149 GC
2 setlinecap
1 LJ
0.667 LW
N
552 222.428 M
549.635 222.428 L
S
GR
GS
[0.75 0 0 0.75 0 0.5] CT
0.149 GC
2 setlinecap
1 LJ
0.667 LW
N
552 221.041 M
549.635 221.041 L
S
GR
GS
[0.75 0 0 0.75 0 0.5] CT
0.149 GC
2 setlinecap
1 LJ
0.667 LW
N
552 219.801 M
549.635 219.801 L
S
GR
GS
[0.75 0 0 0.75 0 0.5] CT
0.149 GC
2 setlinecap
1 LJ
0.667 LW
N
552 211.638 M
549.635 211.638 L
S
GR
GS
[0.75 0 0 0.75 0 0.5] CT
0.149 GC
2 setlinecap
1 LJ
0.667 LW
N
552 206.864 M
549.635 206.864 L
S
GR
GS
[0.75 0 0 0.75 0 0.5] CT
0.149 GC
2 setlinecap
1 LJ
0.667 LW
N
552 203.476 M
549.635 203.476 L
S
GR
GS
[0.75 0 0 0.75 0 0.5] CT
0.149 GC
2 setlinecap
1 LJ
0.667 LW
N
552 200.848 M
549.635 200.848 L
S
GR
GS
[0.75 0 0 0.75 0 0.5] CT
0.149 GC
2 setlinecap
1 LJ
0.667 LW
N
552 198.701 M
549.635 198.701 L
S
GR
GS
[0.75 0 0 0.75 0 0.5] CT
0.149 GC
2 setlinecap
1 LJ
0.667 LW
N
552 196.886 M
549.635 196.886 L
S
GR
GS
[0.75 0 0 0.75 0 0.5] CT
0.149 GC
2 setlinecap
1 LJ
0.667 LW
N
552 195.314 M
549.635 195.314 L
S
GR
GS
[0.75 0 0 0.75 0 0.5] CT
0.149 GC
2 setlinecap
1 LJ
0.667 LW
N
552 193.927 M
549.635 193.927 L
S
GR
GS
[0.75 0 0 0.75 0 0.5] CT
0.149 GC
2 setlinecap
1 LJ
0.667 LW
N
552 192.686 M
549.635 192.686 L
S
GR
GS
[0.75 0 0 0.75 0 0.5] CT
0.149 GC
2 setlinecap
1 LJ
0.667 LW
N
552 192.686 M
549.635 192.686 L
S
GR
GS
[0.75 0 0 0.75 0 0.5] CT
0.149 GC
2 setlinecap
1 LJ
0.667 LW
N
552 184.524 M
549.635 184.524 L
S
GR
GS
[0.75 0 0 0.75 0 0.5] CT
0.149 GC
2 setlinecap
1 LJ
0.667 LW
N
552 179.749 M
549.635 179.749 L
S
GR
GS
[0.75 0 0 0.75 0 0.5] CT
0.149 GC
2 setlinecap
1 LJ
0.667 LW
N
552 176.362 M
549.635 176.362 L
S
GR
GS
[0.75 0 0 0.75 0 0.5] CT
0.149 GC
2 setlinecap
1 LJ
0.667 LW
N
552 173.734 M
549.635 173.734 L
S
GR
GS
[0.75 0 0 0.75 0 0.5] CT
0.149 GC
2 setlinecap
1 LJ
0.667 LW
N
552 171.587 M
549.635 171.587 L
S
GR
GS
[0.75 0 0 0.75 0 0.5] CT
0.149 GC
2 setlinecap
1 LJ
0.667 LW
N
552 169.772 M
549.635 169.772 L
S
GR
GS
[0.75 0 0 0.75 0 0.5] CT
0.149 GC
2 setlinecap
1 LJ
0.667 LW
N
552 168.199 M
549.635 168.199 L
S
GR
GS
[0.75 0 0 0.75 0 0.5] CT
0.149 GC
2 setlinecap
1 LJ
0.667 LW
N
552 166.813 M
549.635 166.813 L
S
GR
GS
[0.75 0 0 0.75 0 0.5] CT
0.149 GC
2 setlinecap
1 LJ
0.667 LW
N
552 165.572 M
549.635 165.572 L
S
GR
GS
[0.75 0 0 0.75 0 0.5] CT
0.149 GC
2 setlinecap
1 LJ
0.667 LW
N
552 157.41 M
549.635 157.41 L
S
GR
GS
[0.75 0 0 0.75 0 0.5] CT
0.149 GC
2 setlinecap
1 LJ
0.667 LW
N
552 152.635 M
549.635 152.635 L
S
GR
GS
[0.75 0 0 0.75 0 0.5] CT
0.149 GC
2 setlinecap
1 LJ
0.667 LW
N
552 149.247 M
549.635 149.247 L
S
GR
GS
[0.75 0 0 0.75 0 0.5] CT
0.149 GC
2 setlinecap
1 LJ
0.667 LW
N
552 146.62 M
549.635 146.62 L
S
GR
GS
[0.75 0 0 0.75 0 0.5] CT
0.149 GC
2 setlinecap
1 LJ
0.667 LW
N
552 144.473 M
549.635 144.473 L
S
GR
GS
[0.75 0 0 0.75 0 0.5] CT
0.149 GC
2 setlinecap
1 LJ
0.667 LW
N
552 142.658 M
549.635 142.658 L
S
GR
GS
[0.75 0 0 0.75 0 0.5] CT
0.149 GC
2 setlinecap
1 LJ
0.667 LW
N
552 141.085 M
549.635 141.085 L
S
GR
GS
[0.75 0 0 0.75 0 0.5] CT
0.149 GC
2 setlinecap
1 LJ
0.667 LW
N
552 139.698 M
549.635 139.698 L
S
GR
GS
[0.75 0 0 0.75 0 0.5] CT
0.149 GC
2 setlinecap
1 LJ
0.667 LW
N
552 138.457 M
549.635 138.457 L
S
GR
GS
[0.75 0 0 0.75 0 0.5] CT
0.149 GC
2 setlinecap
1 LJ
0.667 LW
N
552 130.295 M
549.635 130.295 L
S
GR
GS
[0.75 0 0 0.75 0 0.5] CT
0.149 GC
2 setlinecap
1 LJ
0.667 LW
N
552 125.521 M
549.635 125.521 L
S
GR
GS
[0.75 0 0 0.75 0 0.5] CT
0.149 GC
2 setlinecap
1 LJ
0.667 LW
N
552 122.133 M
549.635 122.133 L
S
GR
GS
[0.75 0 0 0.75 0 0.5] CT
0.149 GC
2 setlinecap
1 LJ
0.667 LW
N
552 119.505 M
549.635 119.505 L
S
GR
GS
[0.75 0 0 0.75 0 0.5] CT
0.149 GC
2 setlinecap
1 LJ
0.667 LW
N
552 117.358 M
549.635 117.358 L
S
GR
GS
[0.75 0 0 0.75 0 0.5] CT
0.149 GC
2 setlinecap
1 LJ
0.667 LW
N
552 115.543 M
549.635 115.543 L
S
GR
GS
[0.75 0 0 0.75 0 0.5] CT
0.149 GC
2 setlinecap
1 LJ
0.667 LW
N
552 113.971 M
549.635 113.971 L
S
GR
GS
[0.75 0 0 0.75 0 0.5] CT
0.149 GC
2 setlinecap
1 LJ
0.667 LW
N
552 112.584 M
549.635 112.584 L
S
GR
GS
[0.75 0 0 0.75 0 0.5] CT
0.149 GC
2 setlinecap
1 LJ
0.667 LW
N
552 111.343 M
549.635 111.343 L
S
GR
GS
[0.75 0 0 0.75 0 0.5] CT
0.149 GC
2 setlinecap
1 LJ
0.667 LW
N
552 103.181 M
549.635 103.181 L
S
GR
GS
[0.75 0 0 0.75 0 0.5] CT
0.149 GC
2 setlinecap
1 LJ
0.667 LW
N
552 98.406 M
549.635 98.406 L
S
GR
GS
[0.75 0 0 0.75 0 0.5] CT
0.149 GC
2 setlinecap
1 LJ
0.667 LW
N
552 95.019 M
549.635 95.019 L
S
GR
GS
[0.75 0 0 0.75 0 0.5] CT
0.149 GC
2 setlinecap
1 LJ
0.667 LW
N
552 92.391 M
549.635 92.391 L
S
GR
GS
[0.75 0 0 0.75 0 0.5] CT
0.149 GC
2 setlinecap
1 LJ
0.667 LW
N
552 90.244 M
549.635 90.244 L
S
GR
GS
[0.75 0 0 0.75 0 0.5] CT
0.149 GC
2 setlinecap
1 LJ
0.667 LW
N
552 88.429 M
549.635 88.429 L
S
GR
GS
[0.75 0 0 0.75 0 0.5] CT
0.149 GC
2 setlinecap
1 LJ
0.667 LW
N
552 86.856 M
549.635 86.856 L
S
GR
GS
[0.75 0 0 0.75 0 0.5] CT
0.149 GC
2 setlinecap
1 LJ
0.667 LW
N
552 85.469 M
549.635 85.469 L
S
GR
GS
[0.75 0 0 0.75 0 0.5] CT
0.149 GC
2 setlinecap
1 LJ
0.667 LW
N
552 84.229 M
549.635 84.229 L
S
GR
GS
[0.75 0 0 0.75 0 0.5] CT
0.149 GC
2 setlinecap
1 LJ
0.667 LW
N
552 76.066 M
549.635 76.066 L
S
GR
GS
[0.75 0 0 0.75 0 0.5] CT
0.149 GC
2 setlinecap
1 LJ
0.667 LW
N
552 71.292 M
549.635 71.292 L
S
GR
GS
[0.75 0 0 0.75 0 0.5] CT
0.149 GC
2 setlinecap
1 LJ
0.667 LW
N
552 67.904 M
549.635 67.904 L
S
GR
GS
[0.75 0 0 0.75 0 0.5] CT
0.149 GC
2 setlinecap
1 LJ
0.667 LW
N
552 65.277 M
549.635 65.277 L
S
GR
GS
[0.75 0 0 0.75 0 0.5] CT
0.149 GC
2 setlinecap
1 LJ
0.667 LW
N
552 63.13 M
549.635 63.13 L
S
GR
GS
[0.75 0 0 0.75 0 0.5] CT
0.149 GC
2 setlinecap
1 LJ
0.667 LW
N
552 61.314 M
549.635 61.314 L
S
GR
GS
[0.75 0 0 0.75 0 0.5] CT
0.149 GC
2 setlinecap
1 LJ
0.667 LW
N
552 59.742 M
549.635 59.742 L
S
GR
GS
[0.75 0 0 0.75 0 0.5] CT
0.149 GC
2 setlinecap
1 LJ
0.667 LW
N
552 58.355 M
549.635 58.355 L
S
GR
GS
[0.75 0 0 0.75 0 0.5] CT
0.149 GC
2 setlinecap
1 LJ
0.667 LW
N
552 57.114 M
549.635 57.114 L
S
GR
GS
[0.75 0 0 0.75 0 0.5] CT
0.149 GC
2 setlinecap
1 LJ
0.667 LW
N
552 48.952 M
549.635 48.952 L
S
GR
GS
[0.75 0 0 0.75 0 0.5] CT
0.149 GC
2 setlinecap
1 LJ
0.667 LW
N
552 44.178 M
549.635 44.178 L
S
GR
GS
[0.75 0 0 0.75 0 0.5] CT
0.149 GC
2 setlinecap
1 LJ
0.667 LW
N
552 40.79 M
549.635 40.79 L
S
GR
GS
[0.75 0 0 0.75 0 0.5] CT
0.149 GC
2 setlinecap
1 LJ
0.667 LW
N
552 38.162 M
549.635 38.162 L
S
GR
GS
[0.75 0 0 0.75 0 0.5] CT
0.149 GC
2 setlinecap
1 LJ
0.667 LW
N
552 36.015 M
549.635 36.015 L
S
GR
GS
[0.75 0 0 0.75 0 0.5] CT
0.149 GC
2 setlinecap
1 LJ
0.667 LW
N
552 34.2 M
549.635 34.2 L
S
GR
GS
[0.75 0 0 0.75 0 0.5] CT
0.149 GC
2 setlinecap
1 LJ
0.667 LW
N
552 32.628 M
549.635 32.628 L
S
GR
GS
[0.75 0 0 0.75 0 0.5] CT
0.149 GC
2 setlinecap
1 LJ
0.667 LW
N
552 31.241 M
549.635 31.241 L
S
GR
GS
[0.75 0 0 0.75 0 0.5] CT
0.149 GC
2 setlinecap
1 LJ
0.667 LW
N
552 30 M
549.635 30 L
S
GR
GS
[0.75 0 0 0.75 29.25 272] CT
0.149 GC
/Helvetica 13.333 F
GS
[1 0 0 1 0 0] CT
0 0 moveto 
1 -1 scale
(10) t 
GR
GR
GS
[0.75 0 0 0.75 42 267.5] CT
0.149 GC
/Helvetica 10.667 F
GS
[1 0 0 1 0 0] CT
0 0 moveto 
1 -1 scale
(-10) t 
GR
GR
GS
[0.75 0 0 0.75 34.5 231.5] CT
0.149 GC
/Helvetica 13.333 F
GS
[1 0 0 1 0 0] CT
0 0 moveto 
1 -1 scale
(10) t 
GR
GR
GS
[0.75 0 0 0.75 47.25 227] CT
0.149 GC
/Helvetica 10.667 F
GS
[1 0 0 1 0 0] CT
0 0 moveto 
1 -1 scale
(-8) t 
GR
GR
GS
[0.75 0 0 0.75 34.5 191] CT
0.149 GC
/Helvetica 13.333 F
GS
[1 0 0 1 0 0] CT
0 0 moveto 
1 -1 scale
(10) t 
GR
GR
GS
[0.75 0 0 0.75 47.25 186.5] CT
0.149 GC
/Helvetica 10.667 F
GS
[1 0 0 1 0 0] CT
0 0 moveto 
1 -1 scale
(-6) t 
GR
GR
GS
[0.75 0 0 0.75 34.5 150.5] CT
0.149 GC
/Helvetica 13.333 F
GS
[1 0 0 1 0 0] CT
0 0 moveto 
1 -1 scale
(10) t 
GR
GR
GS
[0.75 0 0 0.75 47.25 146] CT
0.149 GC
/Helvetica 10.667 F
GS
[1 0 0 1 0 0] CT
0 0 moveto 
1 -1 scale
(-4) t 
GR
GR
GS
[0.75 0 0 0.75 34.5 109.25] CT
0.149 GC
/Helvetica 13.333 F
GS
[1 0 0 1 0 0] CT
0 0 moveto 
1 -1 scale
(10) t 
GR
GR
GS
[0.75 0 0 0.75 47.25 104.75] CT
0.149 GC
/Helvetica 10.667 F
GS
[1 0 0 1 0 0] CT
0 0 moveto 
1 -1 scale
(-2) t 
GR
GR
GS
[0.75 0 0 0.75 37.5 68.75] CT
0.149 GC
/Helvetica 13.333 F
GS
[1 0 0 1 0 0] CT
0 0 moveto 
1 -1 scale
(10) t 
GR
GR
GS
[0.75 0 0 0.75 50.25 64.25] CT
0.149 GC
/Helvetica 10.667 F
GS
[1 0 0 1 0 0] CT
0 0 moveto 
1 -1 scale
(0) t 
GR
GR
GS
[0.75 0 0 0.75 37.5 28.25] CT
0.149 GC
/Helvetica 13.333 F
GS
[1 0 0 1 0 0] CT
0 0 moveto 
1 -1 scale
(10) t 
GR
GR
GS
[0.75 0 0 0.75 50.25 23.75] CT
0.149 GC
/Helvetica 10.667 F
GS
[1 0 0 1 0 0] CT
0 0 moveto 
1 -1 scale
(2) t 
GR
GR
GS
[0 -0.75 0.75 0 26 145.99989] CT
0.149 GC
N
-44.387 -6.501 M
-48.871 -18.423 L
-49.027 -18.829 -49.504 -18.931 QT
-49.98 -19.033 -50.715 -19.033 QT
-50.715 -19.704 L
-45.496 -19.704 L
-45.496 -19.033 L
-47.059 -19.033 -47.059 -18.533 QT
-47.059 -18.517 -47.051 -18.494 QT
-47.043 -18.47 -47.043 -18.423 QT
-43.402 -8.736 L
-39.965 -17.908 L
-39.918 -17.986 -39.918 -18.142 QT
-39.918 -18.611 -40.348 -18.822 QT
-40.777 -19.033 -41.309 -19.033 QT
-41.309 -19.704 L
-37.199 -19.704 L
-37.199 -19.033 L
-37.918 -19.033 -38.465 -18.767 QT
-39.012 -18.501 -39.23 -17.908 QT
-43.527 -6.501 L
-43.59 -6.298 -43.84 -6.298 QT
-44.074 -6.298 L
-44.324 -6.298 -44.387 -6.501 QT
cp
f
GR
GS
[0 -0.75 0.75 0 26 145.99989] CT
0.149 GC
N
-37.864 -8.579 M
-37.864 -9.72 -36.973 -10.431 QT
-36.083 -11.142 -34.841 -11.431 QT
-33.598 -11.72 -32.473 -11.72 QT
-32.473 -12.501 L
-32.473 -13.048 -32.716 -13.564 QT
-32.958 -14.079 -33.411 -14.408 QT
-33.864 -14.736 -34.411 -14.736 QT
-35.677 -14.736 -36.333 -14.173 QT
-35.973 -14.173 -35.731 -13.9 QT
-35.489 -13.626 -35.489 -13.267 QT
-35.489 -12.876 -35.763 -12.611 QT
-36.036 -12.345 -36.395 -12.345 QT
-36.786 -12.345 -37.052 -12.611 QT
-37.317 -12.876 -37.317 -13.267 QT
-37.317 -14.267 -36.411 -14.751 QT
-35.505 -15.236 -34.411 -15.236 QT
-33.645 -15.236 -32.864 -14.908 QT
-32.083 -14.579 -31.583 -13.97 QT
-31.083 -13.361 -31.083 -12.533 QT
-31.083 -8.267 L
-31.083 -7.892 -30.927 -7.579 QT
-30.77 -7.267 -30.442 -7.267 QT
-30.13 -7.267 -29.973 -7.579 QT
-29.817 -7.892 -29.817 -8.267 QT
-29.817 -9.47 L
-29.255 -9.47 L
-29.255 -8.267 L
-29.255 -7.829 -29.481 -7.447 QT
-29.708 -7.064 -30.083 -6.837 QT
-30.458 -6.611 -30.895 -6.611 QT
-31.442 -6.611 -31.848 -7.04 QT
-32.255 -7.47 -32.302 -8.064 QT
-32.661 -7.345 -33.341 -6.923 QT
-34.02 -6.501 -34.802 -6.501 QT
-35.536 -6.501 -36.231 -6.72 QT
-36.927 -6.939 -37.395 -7.392 QT
-37.864 -7.845 -37.864 -8.579 QT
cp
-36.333 -8.579 M
-36.333 -7.923 -35.841 -7.462 QT
-35.348 -7.001 -34.677 -7.001 QT
-34.067 -7.001 -33.567 -7.314 QT
-33.067 -7.626 -32.77 -8.15 QT
-32.473 -8.673 -32.473 -9.267 QT
-32.473 -11.236 L
-33.333 -11.236 -34.239 -10.954 QT
-35.145 -10.673 -35.739 -10.072 QT
-36.333 -9.47 -36.333 -8.579 QT
cp
f
GR
GS
[0 -0.75 0.75 0 26 145.99989] CT
0.149 GC
N
-28.718 -6.72 M
-28.718 -7.392 L
-28.062 -7.392 -27.648 -7.494 QT
-27.234 -7.595 -27.234 -7.986 QT
-27.234 -17.97 L
-27.234 -18.47 -27.382 -18.697 QT
-27.531 -18.923 -27.82 -18.978 QT
-28.109 -19.033 -28.718 -19.033 QT
-28.718 -19.704 L
-25.89 -19.908 L
-25.89 -7.986 L
-25.89 -7.595 -25.476 -7.494 QT
-25.062 -7.392 -24.421 -7.392 QT
-24.421 -6.72 L
-28.718 -6.72 L
cp
f
GR
GS
[0 -0.75 0.75 0 26 145.99989] CT
0.149 GC
N
-22.064 -8.986 M
-22.064 -13.173 L
-22.064 -13.689 -22.213 -13.915 QT
-22.361 -14.142 -22.65 -14.197 QT
-22.939 -14.251 -23.549 -14.251 QT
-23.549 -14.908 L
-20.674 -15.111 L
-20.674 -8.986 L
-20.674 -8.236 -20.564 -7.829 QT
-20.455 -7.423 -20.111 -7.212 QT
-19.767 -7.001 -19.002 -7.001 QT
-17.986 -7.001 -17.377 -7.861 QT
-16.767 -8.72 -16.767 -9.798 QT
-16.767 -13.173 L
-16.767 -13.689 -16.931 -13.915 QT
-17.096 -14.142 -17.377 -14.197 QT
-17.658 -14.251 -18.252 -14.251 QT
-18.252 -14.908 L
-15.392 -15.111 L
-15.392 -8.439 L
-15.392 -7.939 -15.236 -7.712 QT
-15.08 -7.486 -14.791 -7.439 QT
-14.502 -7.392 -13.908 -7.392 QT
-13.908 -6.72 L
-16.721 -6.501 L
-16.721 -8.111 L
-17.064 -7.392 -17.697 -6.947 QT
-18.33 -6.501 -19.096 -6.501 QT
-20.455 -6.501 -21.26 -7.087 QT
-22.064 -7.673 -22.064 -8.986 QT
cp
f
GR
GS
[0 -0.75 0.75 0 26 145.99989] CT
0.149 GC
N
-9.006 -6.501 M
-10.163 -6.501 -11.131 -7.111 QT
-12.1 -7.72 -12.655 -8.736 QT
-13.21 -9.751 -13.21 -10.892 QT
-13.21 -12.001 -12.702 -13.001 QT
-12.194 -14.001 -11.295 -14.619 QT
-10.397 -15.236 -9.272 -15.236 QT
-8.413 -15.236 -7.764 -14.947 QT
-7.116 -14.658 -6.702 -14.134 QT
-6.288 -13.611 -6.069 -12.908 QT
-5.85 -12.204 -5.85 -11.361 QT
-5.85 -11.111 -6.053 -11.111 QT
-11.553 -11.111 L
-11.553 -10.908 L
-11.553 -9.329 -10.92 -8.197 QT
-10.288 -7.064 -8.835 -7.064 QT
-8.256 -7.064 -7.764 -7.322 QT
-7.272 -7.579 -6.905 -8.048 QT
-6.538 -8.517 -6.397 -9.033 QT
-6.381 -9.111 -6.335 -9.158 QT
-6.288 -9.204 -6.21 -9.204 QT
-6.053 -9.204 L
-5.85 -9.204 -5.85 -8.97 QT
-6.131 -7.892 -7.022 -7.197 QT
-7.913 -6.501 -9.006 -6.501 QT
cp
-11.538 -11.579 M
-7.194 -11.579 L
-7.194 -12.298 -7.397 -13.033 QT
-7.6 -13.767 -8.061 -14.251 QT
-8.522 -14.736 -9.272 -14.736 QT
-10.35 -14.736 -10.944 -13.728 QT
-11.538 -12.72 -11.538 -11.579 QT
cp
f
GR
GS
[0 -0.75 0.75 0 26 145.99989] CT
0.149 GC
N
5.528 -6.501 M
4.387 -6.501 3.411 -7.087 QT
2.434 -7.673 1.871 -8.642 QT
1.309 -9.611 1.309 -10.767 QT
1.309 -11.642 1.621 -12.447 QT
1.934 -13.251 2.512 -13.884 QT
3.09 -14.517 3.856 -14.876 QT
4.621 -15.236 5.528 -15.236 QT
6.7 -15.236 7.661 -14.619 QT
8.621 -14.001 9.176 -12.97 QT
9.731 -11.939 9.731 -10.767 QT
9.731 -9.626 9.168 -8.65 QT
8.606 -7.673 7.629 -7.087 QT
6.653 -6.501 5.528 -6.501 QT
cp
5.528 -7.064 M
7.043 -7.064 7.559 -8.165 QT
8.075 -9.267 8.075 -10.986 QT
8.075 -11.939 7.973 -12.564 QT
7.871 -13.189 7.528 -13.704 QT
7.309 -14.017 6.981 -14.251 QT
6.653 -14.486 6.286 -14.611 QT
5.918 -14.736 5.528 -14.736 QT
4.934 -14.736 4.403 -14.47 QT
3.871 -14.204 3.512 -13.704 QT
3.168 -13.158 3.067 -12.517 QT
2.965 -11.876 2.965 -10.986 QT
2.965 -9.908 3.153 -9.064 QT
3.34 -8.22 3.903 -7.642 QT
4.465 -7.064 5.528 -7.064 QT
cp
f
GR
GS
[0 -0.75 0.75 0 26 145.99989] CT
0.149 GC
N
10.72 -6.72 M
10.72 -7.392 L
11.361 -7.392 11.783 -7.494 QT
12.205 -7.595 12.205 -7.986 QT
12.205 -14.251 L
10.736 -14.251 L
10.736 -14.908 L
12.205 -14.908 L
12.205 -17.189 L
12.205 -17.798 12.455 -18.329 QT
12.705 -18.861 13.135 -19.259 QT
13.564 -19.658 14.127 -19.884 QT
14.689 -20.111 15.299 -20.111 QT
15.939 -20.111 16.455 -19.736 QT
16.97 -19.361 16.97 -18.72 QT
16.97 -18.361 16.72 -18.119 QT
16.47 -17.876 16.111 -17.876 QT
15.752 -17.876 15.494 -18.119 QT
15.236 -18.361 15.236 -18.72 QT
15.236 -19.314 15.752 -19.517 QT
15.439 -19.626 15.205 -19.626 QT
14.642 -19.626 14.252 -19.228 QT
13.861 -18.829 13.666 -18.267 QT
13.47 -17.704 13.47 -17.142 QT
13.47 -14.908 L
15.658 -14.908 L
15.658 -14.251 L
13.533 -14.251 L
13.533 -7.986 L
13.533 -7.595 14.088 -7.494 QT
14.642 -7.392 15.377 -7.392 QT
15.377 -6.72 L
10.72 -6.72 L
cp
f
GR
GS
[0 -0.75 0.75 0 26 145.99989] CT
0.149 GC
N
22.646 -6.72 M
22.646 -7.392 L
23.287 -7.392 23.709 -7.494 QT
24.131 -7.595 24.131 -7.986 QT
24.131 -14.251 L
22.662 -14.251 L
22.662 -14.908 L
24.131 -14.908 L
24.131 -17.189 L
24.131 -17.798 24.381 -18.329 QT
24.631 -18.861 25.06 -19.259 QT
25.49 -19.658 26.053 -19.884 QT
26.615 -20.111 27.225 -20.111 QT
27.865 -20.111 28.381 -19.736 QT
28.896 -19.361 28.896 -18.72 QT
28.896 -18.361 28.646 -18.119 QT
28.396 -17.876 28.037 -17.876 QT
27.678 -17.876 27.42 -18.119 QT
27.162 -18.361 27.162 -18.72 QT
27.162 -19.314 27.678 -19.517 QT
27.365 -19.626 27.131 -19.626 QT
26.568 -19.626 26.178 -19.228 QT
25.787 -18.829 25.592 -18.267 QT
25.396 -17.704 25.396 -17.142 QT
25.396 -14.908 L
27.584 -14.908 L
27.584 -14.251 L
25.459 -14.251 L
25.459 -7.986 L
25.459 -7.595 26.014 -7.494 QT
26.568 -7.392 27.303 -7.392 QT
27.303 -6.72 L
22.646 -6.72 L
cp
f
GR
GS
[0 -0.75 0.75 0 26 145.99989] CT
0.149 GC
N
32.381 -6.72 M
29.6 -13.704 L
29.428 -14.048 29.061 -14.15 QT
28.694 -14.251 28.1 -14.251 QT
28.1 -14.908 L
32.085 -14.908 L
32.085 -14.251 L
31.022 -14.251 31.022 -13.783 QT
31.022 -13.72 31.038 -13.673 QT
33.178 -8.314 L
35.1 -13.158 L
35.147 -13.314 35.147 -13.47 QT
35.147 -13.829 34.874 -14.04 QT
34.6 -14.251 34.241 -14.251 QT
34.241 -14.908 L
37.397 -14.908 L
37.397 -14.251 L
36.803 -14.251 36.366 -13.978 QT
35.928 -13.704 35.678 -13.173 QT
33.116 -6.72 L
33.053 -6.501 32.819 -6.501 QT
32.678 -6.501 L
32.444 -6.501 32.381 -6.72 QT
cp
f
GR
GS
[0 -0.75 0.75 0 26 145.99989] CT
0.149 GC
N
37.321 -8.579 M
37.321 -9.72 38.212 -10.431 QT
39.103 -11.142 40.345 -11.431 QT
41.587 -11.72 42.712 -11.72 QT
42.712 -12.501 L
42.712 -13.048 42.47 -13.564 QT
42.228 -14.079 41.774 -14.408 QT
41.321 -14.736 40.774 -14.736 QT
39.509 -14.736 38.853 -14.173 QT
39.212 -14.173 39.454 -13.9 QT
39.696 -13.626 39.696 -13.267 QT
39.696 -12.876 39.423 -12.611 QT
39.149 -12.345 38.79 -12.345 QT
38.399 -12.345 38.134 -12.611 QT
37.868 -12.876 37.868 -13.267 QT
37.868 -14.267 38.774 -14.751 QT
39.681 -15.236 40.774 -15.236 QT
41.54 -15.236 42.321 -14.908 QT
43.103 -14.579 43.603 -13.97 QT
44.103 -13.361 44.103 -12.533 QT
44.103 -8.267 L
44.103 -7.892 44.259 -7.579 QT
44.415 -7.267 44.743 -7.267 QT
45.056 -7.267 45.212 -7.579 QT
45.368 -7.892 45.368 -8.267 QT
45.368 -9.47 L
45.931 -9.47 L
45.931 -8.267 L
45.931 -7.829 45.704 -7.447 QT
45.478 -7.064 45.103 -6.837 QT
44.728 -6.611 44.29 -6.611 QT
43.743 -6.611 43.337 -7.04 QT
42.931 -7.47 42.884 -8.064 QT
42.524 -7.345 41.845 -6.923 QT
41.165 -6.501 40.384 -6.501 QT
39.649 -6.501 38.954 -6.72 QT
38.259 -6.939 37.79 -7.392 QT
37.321 -7.845 37.321 -8.579 QT
cp
38.853 -8.579 M
38.853 -7.923 39.345 -7.462 QT
39.837 -7.001 40.509 -7.001 QT
41.118 -7.001 41.618 -7.314 QT
42.118 -7.626 42.415 -8.15 QT
42.712 -8.673 42.712 -9.267 QT
42.712 -11.236 L
41.853 -11.236 40.946 -10.954 QT
40.04 -10.673 39.446 -10.072 QT
38.853 -9.47 38.853 -8.579 QT
cp
f
GR
GS
[0 -0.75 0.75 0 26 145.99989] CT
0.149 GC
N
46.467 -6.72 M
46.467 -7.392 L
47.123 -7.392 47.537 -7.494 QT
47.951 -7.595 47.951 -7.986 QT
47.951 -17.97 L
47.951 -18.47 47.803 -18.697 QT
47.655 -18.923 47.366 -18.978 QT
47.076 -19.033 46.467 -19.033 QT
46.467 -19.704 L
49.295 -19.908 L
49.295 -7.986 L
49.295 -7.595 49.709 -7.494 QT
50.123 -7.392 50.764 -7.392 QT
50.764 -6.72 L
46.467 -6.72 L
cp
f
GR
GS
[0.75 0 0 0.75 0 0.5] CT
0 0.447 0.741 RC
1 LJ
2.667 LW
N
83.73 33.5 M
88.46 34.825 L
93.19 36.258 L
97.92 37.781 L
102.65 39.43 L
107.38 41.214 L
112.11 43.128 L
116.84 45.165 L
121.57 47.314 L
126.3 49.567 L
131.03 51.908 L
135.76 54.344 L
140.49 56.859 L
145.22 59.445 L
149.95 62.094 L
154.68 64.801 L
159.41 67.56 L
164.14 70.365 L
168.87 73.212 L
173.6 76.097 L
178.33 79.015 L
183.06 81.964 L
187.79 84.941 L
192.52 87.943 L
197.25 90.967 L
201.98 94.012 L
206.71 97.075 L
211.44 100.155 L
216.17 103.25 L
220.9 106.36 L
225.63 109.482 L
230.36 112.615 L
235.09 115.759 L
239.82 118.912 L
244.55 122.074 L
249.28 125.243 L
254.01 128.42 L
258.74 131.604 L
263.47 134.793 L
268.2 137.988 L
272.93 141.187 L
277.66 144.391 L
282.39 147.6 L
287.12 150.812 L
291.85 154.028 L
296.58 157.247 L
301.31 160.468 L
306.04 163.69 L
310.77 166.913 L
315.5 170.136 L
320.23 173.358 L
324.96 176.579 L
329.69 179.799 L
334.42 183.016 L
339.15 186.233 L
343.88 189.447 L
348.61 192.659 L
353.34 195.869 L
358.07 199.078 L
362.8 202.285 L
367.53 205.49 L
372.26 208.694 L
376.99 211.897 L
381.72 215.099 L
386.45 218.3 L
391.18 221.5 L
395.91 224.7 L
400.64 227.9 L
405.37 231.099 L
410.1 234.299 L
414.83 237.498 L
419.56 240.697 L
424.29 243.896 L
429.02 247.096 L
433.75 250.296 L
438.48 253.496 L
443.21 256.696 L
447.94 259.896 L
452.67 263.097 L
457.4 266.298 L
462.13 269.499 L
466.86 272.7 L
471.59 275.901 L
476.32 279.103 L
481.05 282.304 L
485.78 285.506 L
490.51 288.707 L
495.24 291.909 L
499.97 295.111 L
504.7 298.313 L
509.43 301.515 L
514.16 304.717 L
518.89 307.919 L
523.62 311.119 L
528.35 314.317 L
533.08 317.502 L
537.81 320.68 L
542.54 323.841 L
547.27 326.981 L
552 330.097 L
S
GR
GS
[0.75 0 0 0.75 0 0.5] CT
1 GC
N
541 65 M
541 41 L
463 41 L
463 65 L
cp
f
GR
GS
[0.75 0 0 0.75 382.51671 40.25] CT
N
0.547 4.16 M
0.547 3.566 L
1.125 3.566 1.5 3.472 QT
1.875 3.379 1.875 3.019 QT
1.875 -2.574 L
0.563 -2.574 L
0.563 -3.168 L
1.875 -3.168 L
1.875 -5.199 L
1.875 -5.746 2.102 -6.223 QT
2.328 -6.699 2.711 -7.059 QT
3.094 -7.418 3.594 -7.621 QT
4.094 -7.824 4.641 -7.824 QT
5.219 -7.824 5.68 -7.489 QT
6.141 -7.153 6.141 -6.574 QT
6.141 -6.262 5.914 -6.043 QT
5.688 -5.824 5.375 -5.824 QT
5.047 -5.824 4.82 -6.043 QT
4.594 -6.262 4.594 -6.574 QT
4.594 -7.106 5.047 -7.293 QT
4.766 -7.387 4.563 -7.387 QT
4.063 -7.387 3.711 -7.035 QT
3.359 -6.684 3.18 -6.176 QT
3 -5.668 3 -5.168 QT
3 -3.168 L
4.969 -3.168 L
4.969 -2.574 L
3.063 -2.574 L
3.063 3.019 L
3.063 3.379 3.563 3.472 QT
4.063 3.566 4.703 3.566 QT
4.703 4.16 L
0.547 4.16 L
cp
f
GR
GS
[0.75 0 0 0.75 382.51671 40.25] CT
N
9.453 4.16 M
6.968 -2.09 L
6.812 -2.403 6.484 -2.489 QT
6.156 -2.574 5.624 -2.574 QT
5.624 -3.168 L
9.187 -3.168 L
9.187 -2.574 L
8.234 -2.574 8.234 -2.168 QT
8.234 -2.106 8.249 -2.059 QT
10.156 2.738 L
11.874 -1.606 L
11.921 -1.731 11.921 -1.871 QT
11.921 -2.199 11.679 -2.387 QT
11.437 -2.574 11.109 -2.574 QT
11.109 -3.168 L
13.937 -3.168 L
13.937 -2.574 L
13.406 -2.574 13.015 -2.332 QT
12.624 -2.09 12.406 -1.621 QT
10.109 4.16 L
10.046 4.347 9.843 4.347 QT
9.718 4.347 L
9.499 4.347 9.453 4.16 QT
cp
f
GR
GS
[0.75 0 0 0.75 382.51671 40.25] CT
N
14.169 2.488 M
14.169 1.472 14.966 0.84 QT
15.763 0.207 16.872 -0.051 QT
17.982 -0.309 18.997 -0.309 QT
18.997 -1.012 L
18.997 -1.496 18.778 -1.957 QT
18.56 -2.418 18.153 -2.715 QT
17.747 -3.012 17.263 -3.012 QT
16.122 -3.012 15.544 -2.512 QT
15.857 -2.512 16.075 -2.262 QT
16.294 -2.012 16.294 -1.699 QT
16.294 -1.356 16.052 -1.114 QT
15.81 -0.871 15.482 -0.871 QT
15.138 -0.871 14.896 -1.114 QT
14.653 -1.356 14.653 -1.699 QT
14.653 -2.59 15.466 -3.028 QT
16.278 -3.465 17.263 -3.465 QT
17.95 -3.465 18.646 -3.168 QT
19.341 -2.871 19.786 -2.324 QT
20.232 -1.778 20.232 -1.043 QT
20.232 2.785 L
20.232 3.113 20.372 3.394 QT
20.513 3.676 20.81 3.676 QT
21.091 3.676 21.232 3.394 QT
21.372 3.113 21.372 2.785 QT
21.372 1.691 L
21.872 1.691 L
21.872 2.785 L
21.872 3.16 21.669 3.504 QT
21.466 3.847 21.13 4.051 QT
20.794 4.254 20.403 4.254 QT
19.903 4.254 19.544 3.871 QT
19.185 3.488 19.138 2.957 QT
18.825 3.597 18.216 3.972 QT
17.607 4.347 16.903 4.347 QT
16.247 4.347 15.622 4.16 QT
14.997 3.972 14.583 3.558 QT
14.169 3.144 14.169 2.488 QT
cp
15.544 2.488 M
15.544 3.082 15.982 3.496 QT
16.419 3.91 17.013 3.91 QT
17.56 3.91 18.013 3.629 QT
18.466 3.347 18.732 2.879 QT
18.997 2.41 18.997 1.879 QT
18.997 0.113 L
18.216 0.113 17.411 0.371 QT
16.607 0.629 16.075 1.168 QT
15.544 1.707 15.544 2.488 QT
cp
f
GR
GS
[0.75 0 0 0.75 382.51671 40.25] CT
N
22.664 4.16 M
22.664 3.566 L
23.258 3.566 23.625 3.472 QT
23.992 3.379 23.992 3.019 QT
23.992 -5.903 L
23.992 -6.356 23.859 -6.559 QT
23.726 -6.762 23.469 -6.809 QT
23.211 -6.856 22.664 -6.856 QT
22.664 -7.449 L
25.195 -7.637 L
25.195 3.019 L
25.195 3.379 25.57 3.472 QT
25.945 3.566 26.508 3.566 QT
26.508 4.16 L
22.664 4.16 L
cp
f
GR
GS
[0.75 0 0 0.75 0 0.5] CT
0 0.447 0.741 RC
1 LJ
2.667 LW
N
467.002 53 M
507.021 53 L
S
GR
GS
[0.75 0 0 0.75 0 0.5] CT
0.149 GC
10.0 ML
0.667 LW
N
463 65 M
463 41 L
541 41 L
541 65 L
cp
S
GR
%%Trailer
%%Pages: 1
%%EOF
