%!PS-Adobe-3.0 EPSF-3.0
%%Creator: (MATLAB, The Mathworks, Inc. Version 9.6.0.1072779 \(R2019a\). Operating System: Linux)
%%Title: ./plot/ContSystem_zeroth/plot_omega.eps
%%CreationDate: 2019-05-01T16:16:26
%%Pages: (atend)
%%BoundingBox:    15     2   420   283
%%LanguageLevel: 3
%%EndComments
%%BeginProlog
%%BeginResource: procset (Apache XML Graphics Std ProcSet) 1.2 0
%%Version: 1.2 0
%%Copyright: (Copyright 2001-2003,2010 The Apache Software Foundation. License terms: http://www.apache.org/licenses/LICENSE-2.0)
/bd{bind def}bind def
/ld{load def}bd
/GR/grestore ld
/GS/gsave ld
/RM/rmoveto ld
/C/curveto ld
/t/show ld
/L/lineto ld
/ML/setmiterlimit ld
/CT/concat ld
/f/fill ld
/N/newpath ld
/S/stroke ld
/CC/setcmykcolor ld
/A/ashow ld
/cp/closepath ld
/RC/setrgbcolor ld
/LJ/setlinejoin ld
/GC/setgray ld
/LW/setlinewidth ld
/M/moveto ld
/re {4 2 roll M
1 index 0 rlineto
0 exch rlineto
neg 0 rlineto
cp } bd
/_ctm matrix def
/_tm matrix def
/BT { _ctm currentmatrix pop matrix _tm copy pop 0 0 moveto } bd
/ET { _ctm setmatrix } bd
/iTm { _ctm setmatrix _tm concat } bd
/Tm { _tm astore pop iTm 0 0 moveto } bd
/ux 0.0 def
/uy 0.0 def
/F {
  /Tp exch def
  /Tf exch def
  Tf findfont Tp scalefont setfont
  /cf Tf def  /cs Tp def
} bd
/ULS {currentpoint /uy exch def /ux exch def} bd
/ULE {
  /Tcx currentpoint pop def
  gsave
  newpath
  cf findfont cs scalefont dup
  /FontMatrix get 0 get /Ts exch def /FontInfo get dup
  /UnderlinePosition get Ts mul /To exch def
  /UnderlineThickness get Ts mul /Tt exch def
  ux uy To add moveto  Tcx uy To add lineto
  Tt setlinewidth stroke
  grestore
} bd
/OLE {
  /Tcx currentpoint pop def
  gsave
  newpath
  cf findfont cs scalefont dup
  /FontMatrix get 0 get /Ts exch def /FontInfo get dup
  /UnderlinePosition get Ts mul /To exch def
  /UnderlineThickness get Ts mul /Tt exch def
  ux uy To add cs add moveto Tcx uy To add cs add lineto
  Tt setlinewidth stroke
  grestore
} bd
/SOE {
  /Tcx currentpoint pop def
  gsave
  newpath
  cf findfont cs scalefont dup
  /FontMatrix get 0 get /Ts exch def /FontInfo get dup
  /UnderlinePosition get Ts mul /To exch def
  /UnderlineThickness get Ts mul /Tt exch def
  ux uy To add cs 10 mul 26 idiv add moveto Tcx uy To add cs 10 mul 26 idiv add lineto
  Tt setlinewidth stroke
  grestore
} bd
/QT {
/Y22 exch store
/X22 exch store
/Y21 exch store
/X21 exch store
currentpoint
/Y21 load 2 mul add 3 div exch
/X21 load 2 mul add 3 div exch
/X21 load 2 mul /X22 load add 3 div
/Y21 load 2 mul /Y22 load add 3 div
/X22 load /Y22 load curveto
} bd
/SSPD {
dup length /d exch dict def
{
/v exch def
/k exch def
currentpagedevice k known {
/cpdv currentpagedevice k get def
v cpdv ne {
/upd false def
/nullv v type /nulltype eq def
/nullcpdv cpdv type /nulltype eq def
nullv nullcpdv or
{
/upd true def
} {
/sametype v type cpdv type eq def
sametype {
v type /arraytype eq {
/vlen v length def
/cpdvlen cpdv length def
vlen cpdvlen eq {
0 1 vlen 1 sub {
/i exch def
/obj v i get def
/cpdobj cpdv i get def
obj cpdobj ne {
/upd true def
exit
} if
} for
} {
/upd true def
} ifelse
} {
v type /dicttype eq {
v {
/dv exch def
/dk exch def
/cpddv cpdv dk get def
dv cpddv ne {
/upd true def
exit
} if
} forall
} {
/upd true def
} ifelse
} ifelse
} if
} ifelse
upd true eq {
d k v put
} if
} if
} if
} forall
d length 0 gt {
d setpagedevice
} if
} bd
/RE { % /NewFontName [NewEncodingArray] /FontName RE -
  findfont dup length dict begin
  {
    1 index /FID ne
    {def} {pop pop} ifelse
  } forall
  /Encoding exch def
  /FontName 1 index def
  currentdict definefont pop
  end
} bind def
%%EndResource
%%BeginResource: procset (Apache XML Graphics EPS ProcSet) 1.0 0
%%Version: 1.0 0
%%Copyright: (Copyright 2002-2003 The Apache Software Foundation. License terms: http://www.apache.org/licenses/LICENSE-2.0)
/BeginEPSF { %def
/b4_Inc_state save def         % Save state for cleanup
/dict_count countdictstack def % Count objects on dict stack
/op_count count 1 sub def      % Count objects on operand stack
userdict begin                 % Push userdict on dict stack
/showpage { } def              % Redefine showpage, { } = null proc
0 setgray 0 setlinecap         % Prepare graphics state
1 setlinewidth 0 setlinejoin
10 setmiterlimit [ ] 0 setdash newpath
/languagelevel where           % If level not equal to 1 then
{pop languagelevel             % set strokeadjust and
1 ne                           % overprint to their defaults.
{false setstrokeadjust false setoverprint
} if
} if
} bd
/EndEPSF { %def
count op_count sub {pop} repeat            % Clean up stacks
countdictstack dict_count sub {end} repeat
b4_Inc_state restore
} bd
%%EndResource
%FOPBeginFontDict
%%IncludeResource: font Courier-Oblique
%%IncludeResource: font Courier-BoldOblique
%%IncludeResource: font Courier-Bold
%%IncludeResource: font ZapfDingbats
%%IncludeResource: font Symbol
%%IncludeResource: font Helvetica
%%IncludeResource: font Helvetica-Oblique
%%IncludeResource: font Helvetica-Bold
%%IncludeResource: font Helvetica-BoldOblique
%%IncludeResource: font Times-Roman
%%IncludeResource: font Times-Italic
%%IncludeResource: font Times-Bold
%%IncludeResource: font Times-BoldItalic
%%IncludeResource: font Courier
%FOPEndFontDict
%%BeginResource: encoding WinAnsiEncoding
/WinAnsiEncoding [
/.notdef /.notdef /.notdef /.notdef /.notdef
/.notdef /.notdef /.notdef /.notdef /.notdef
/.notdef /.notdef /.notdef /.notdef /.notdef
/.notdef /.notdef /.notdef /.notdef /.notdef
/.notdef /.notdef /.notdef /.notdef /.notdef
/.notdef /.notdef /.notdef /.notdef /.notdef
/.notdef /.notdef /space /exclam /quotedbl
/numbersign /dollar /percent /ampersand /quotesingle
/parenleft /parenright /asterisk /plus /comma
/hyphen /period /slash /zero /one
/two /three /four /five /six
/seven /eight /nine /colon /semicolon
/less /equal /greater /question /at
/A /B /C /D /E
/F /G /H /I /J
/K /L /M /N /O
/P /Q /R /S /T
/U /V /W /X /Y
/Z /bracketleft /backslash /bracketright /asciicircum
/underscore /quoteleft /a /b /c
/d /e /f /g /h
/i /j /k /l /m
/n /o /p /q /r
/s /t /u /v /w
/x /y /z /braceleft /bar
/braceright /asciitilde /bullet /Euro /bullet
/quotesinglbase /florin /quotedblbase /ellipsis /dagger
/daggerdbl /circumflex /perthousand /Scaron /guilsinglleft
/OE /bullet /Zcaron /bullet /bullet
/quoteleft /quoteright /quotedblleft /quotedblright /bullet
/endash /emdash /asciitilde /trademark /scaron
/guilsinglright /oe /bullet /zcaron /Ydieresis
/space /exclamdown /cent /sterling /currency
/yen /brokenbar /section /dieresis /copyright
/ordfeminine /guillemotleft /logicalnot /sfthyphen /registered
/macron /degree /plusminus /twosuperior /threesuperior
/acute /mu /paragraph /middot /cedilla
/onesuperior /ordmasculine /guillemotright /onequarter /onehalf
/threequarters /questiondown /Agrave /Aacute /Acircumflex
/Atilde /Adieresis /Aring /AE /Ccedilla
/Egrave /Eacute /Ecircumflex /Edieresis /Igrave
/Iacute /Icircumflex /Idieresis /Eth /Ntilde
/Ograve /Oacute /Ocircumflex /Otilde /Odieresis
/multiply /Oslash /Ugrave /Uacute /Ucircumflex
/Udieresis /Yacute /Thorn /germandbls /agrave
/aacute /acircumflex /atilde /adieresis /aring
/ae /ccedilla /egrave /eacute /ecircumflex
/edieresis /igrave /iacute /icircumflex /idieresis
/eth /ntilde /ograve /oacute /ocircumflex
/otilde /odieresis /divide /oslash /ugrave
/uacute /ucircumflex /udieresis /yacute /thorn
/ydieresis
] def
%%EndResource
%FOPBeginFontReencode
/Courier-Oblique findfont
dup length dict begin
  {1 index /FID ne {def} {pop pop} ifelse} forall
  /Encoding WinAnsiEncoding def
  currentdict
end
/Courier-Oblique exch definefont pop
/Courier-BoldOblique findfont
dup length dict begin
  {1 index /FID ne {def} {pop pop} ifelse} forall
  /Encoding WinAnsiEncoding def
  currentdict
end
/Courier-BoldOblique exch definefont pop
/Courier-Bold findfont
dup length dict begin
  {1 index /FID ne {def} {pop pop} ifelse} forall
  /Encoding WinAnsiEncoding def
  currentdict
end
/Courier-Bold exch definefont pop
/Helvetica findfont
dup length dict begin
  {1 index /FID ne {def} {pop pop} ifelse} forall
  /Encoding WinAnsiEncoding def
  currentdict
end
/Helvetica exch definefont pop
/Helvetica-Oblique findfont
dup length dict begin
  {1 index /FID ne {def} {pop pop} ifelse} forall
  /Encoding WinAnsiEncoding def
  currentdict
end
/Helvetica-Oblique exch definefont pop
/Helvetica-Bold findfont
dup length dict begin
  {1 index /FID ne {def} {pop pop} ifelse} forall
  /Encoding WinAnsiEncoding def
  currentdict
end
/Helvetica-Bold exch definefont pop
/Helvetica-BoldOblique findfont
dup length dict begin
  {1 index /FID ne {def} {pop pop} ifelse} forall
  /Encoding WinAnsiEncoding def
  currentdict
end
/Helvetica-BoldOblique exch definefont pop
/Times-Roman findfont
dup length dict begin
  {1 index /FID ne {def} {pop pop} ifelse} forall
  /Encoding WinAnsiEncoding def
  currentdict
end
/Times-Roman exch definefont pop
/Times-Italic findfont
dup length dict begin
  {1 index /FID ne {def} {pop pop} ifelse} forall
  /Encoding WinAnsiEncoding def
  currentdict
end
/Times-Italic exch definefont pop
/Times-Bold findfont
dup length dict begin
  {1 index /FID ne {def} {pop pop} ifelse} forall
  /Encoding WinAnsiEncoding def
  currentdict
end
/Times-Bold exch definefont pop
/Times-BoldItalic findfont
dup length dict begin
  {1 index /FID ne {def} {pop pop} ifelse} forall
  /Encoding WinAnsiEncoding def
  currentdict
end
/Times-BoldItalic exch definefont pop
/Courier findfont
dup length dict begin
  {1 index /FID ne {def} {pop pop} ifelse} forall
  /Encoding WinAnsiEncoding def
  currentdict
end
/Courier exch definefont pop
%FOPEndFontReencode
%%EndProlog
%%Page: 1 1
%%PageBoundingBox: 0 0 458 302
%%BeginPageSetup
[1 0 0 -1 0 302] CT
%%EndPageSetup
GS
[0.75 0 0 0.75 0 0.5] CT
N
0 0 M
610 0 L
610 402 L
0 402 L
0 0 L
cp
clip
1 GC
N
0 0 610 402 re
f
GR
GS
[0.75 0 0 0.75 0 0.5] CT
1 GC
N
0 0 610 402 re
f
GR
GS
[0.75 0 0 0.75 0 0.5] CT
1 GC
N
79 358 M
552 358 L
552 30 L
79 30 L
cp
f
GR
GS
[0.75 0 0 0.75 0 0.5] CT
0.873 GC
1 LJ
0.667 LW
N
79 358 M
79 30 L
S
GR
GS
[0.75 0 0 0.75 0 0.5] CT
0.873 GC
1 LJ
0.667 LW
N
173.6 358 M
173.6 30 L
S
GR
GS
[0.75 0 0 0.75 0 0.5] CT
0.873 GC
1 LJ
0.667 LW
N
268.2 358 M
268.2 30 L
S
GR
GS
[0.75 0 0 0.75 0 0.5] CT
0.873 GC
1 LJ
0.667 LW
N
362.8 358 M
362.8 30 L
S
GR
GS
[0.75 0 0 0.75 0 0.5] CT
0.873 GC
1 LJ
0.667 LW
N
457.4 358 M
457.4 30 L
S
GR
GS
[0.75 0 0 0.75 0 0.5] CT
0.873 GC
1 LJ
0.667 LW
N
552 358 M
552 30 L
S
GR
GS
[0.75 0 0 0.75 0 0.5] CT
0.873 GC
1 LJ
0.667 LW
N
552 358 M
79 358 L
S
GR
GS
[0.75 0 0 0.75 0 0.5] CT
0.873 GC
1 LJ
0.667 LW
N
552 292.4 M
79 292.4 L
S
GR
GS
[0.75 0 0 0.75 0 0.5] CT
0.873 GC
1 LJ
0.667 LW
N
552 226.8 M
79 226.8 L
S
GR
GS
[0.75 0 0 0.75 0 0.5] CT
0.873 GC
1 LJ
0.667 LW
N
552 161.2 M
79 161.2 L
S
GR
GS
[0.75 0 0 0.75 0 0.5] CT
0.873 GC
1 LJ
0.667 LW
N
552 95.6 M
79 95.6 L
S
GR
GS
[0.75 0 0 0.75 0 0.5] CT
0.873 GC
1 LJ
0.667 LW
N
552 30 M
79 30 L
S
GR
GS
[0.75 0 0 0.75 0 0.5] CT
0.149 GC
2 setlinecap
1 LJ
0.667 LW
N
79 358 M
552 358 L
S
GR
GS
[0.75 0 0 0.75 0 0.5] CT
0.149 GC
2 setlinecap
1 LJ
0.667 LW
N
79 30 M
552 30 L
S
GR
GS
[0.75 0 0 0.75 0 0.5] CT
0.149 GC
2 setlinecap
1 LJ
0.667 LW
N
79 358 M
79 353.27 L
S
GR
GS
[0.75 0 0 0.75 0 0.5] CT
0.149 GC
2 setlinecap
1 LJ
0.667 LW
N
173.6 358 M
173.6 353.27 L
S
GR
GS
[0.75 0 0 0.75 0 0.5] CT
0.149 GC
2 setlinecap
1 LJ
0.667 LW
N
268.2 358 M
268.2 353.27 L
S
GR
GS
[0.75 0 0 0.75 0 0.5] CT
0.149 GC
2 setlinecap
1 LJ
0.667 LW
N
362.8 358 M
362.8 353.27 L
S
GR
GS
[0.75 0 0 0.75 0 0.5] CT
0.149 GC
2 setlinecap
1 LJ
0.667 LW
N
457.4 358 M
457.4 353.27 L
S
GR
GS
[0.75 0 0 0.75 0 0.5] CT
0.149 GC
2 setlinecap
1 LJ
0.667 LW
N
552 358 M
552 353.27 L
S
GR
GS
[0.75 0 0 0.75 0 0.5] CT
0.149 GC
2 setlinecap
1 LJ
0.667 LW
N
79 30 M
79 34.73 L
S
GR
GS
[0.75 0 0 0.75 0 0.5] CT
0.149 GC
2 setlinecap
1 LJ
0.667 LW
N
173.6 30 M
173.6 34.73 L
S
GR
GS
[0.75 0 0 0.75 0 0.5] CT
0.149 GC
2 setlinecap
1 LJ
0.667 LW
N
268.2 30 M
268.2 34.73 L
S
GR
GS
[0.75 0 0 0.75 0 0.5] CT
0.149 GC
2 setlinecap
1 LJ
0.667 LW
N
362.8 30 M
362.8 34.73 L
S
GR
GS
[0.75 0 0 0.75 0 0.5] CT
0.149 GC
2 setlinecap
1 LJ
0.667 LW
N
457.4 30 M
457.4 34.73 L
S
GR
GS
[0.75 0 0 0.75 0 0.5] CT
0.149 GC
2 setlinecap
1 LJ
0.667 LW
N
552 30 M
552 34.73 L
S
GR
GS
[0.75 0 0 0.75 59.25 273.00001] CT
0.149 GC
/Helvetica 13.333 F
GS
[1 0 0 1 0 0] CT
-4.5 12 moveto 
1 -1 scale
(0) t 
GR
GR
GS
[0.75 0 0 0.75 130.2 273.00001] CT
0.149 GC
/Helvetica 13.333 F
GS
[1 0 0 1 0 0] CT
-4.5 12 moveto 
1 -1 scale
(2) t 
GR
GR
GS
[0.75 0 0 0.75 201.15001 273.00001] CT
0.149 GC
/Helvetica 13.333 F
GS
[1 0 0 1 0 0] CT
-4.5 12 moveto 
1 -1 scale
(4) t 
GR
GR
GS
[0.75 0 0 0.75 272.09999 273.00001] CT
0.149 GC
/Helvetica 13.333 F
GS
[1 0 0 1 0 0] CT
-4.5 12 moveto 
1 -1 scale
(6) t 
GR
GR
GS
[0.75 0 0 0.75 343.05 273.00001] CT
0.149 GC
/Helvetica 13.333 F
GS
[1 0 0 1 0 0] CT
-4.5 12 moveto 
1 -1 scale
(8) t 
GR
GR
GS
[0.75 0 0 0.75 414 273.00001] CT
0.149 GC
/Helvetica 13.333 F
GS
[1 0 0 1 0 0] CT
-8.5 12 moveto 
1 -1 scale
(10) t 
GR
GR
GS
[0.75 0 0 0.75 236.62516 284.49999] CT
0.149 GC
N
-30.034 15.68 M
-30.034 15.008 L
-29.065 15.008 -28.167 14.906 QT
-27.268 14.805 -27.268 14.414 QT
-27.268 3.977 L
-27.268 3.571 -27.495 3.469 QT
-27.721 3.367 -28.237 3.367 QT
-29.034 3.367 L
-30.596 3.367 -31.268 4.055 QT
-31.596 4.399 -31.745 5.156 QT
-31.893 5.914 -32.003 7.055 QT
-32.55 7.055 L
-32.19 2.696 L
-20.581 2.696 L
-20.221 7.055 L
-20.784 7.055 L
-20.893 5.821 -21.026 5.102 QT
-21.159 4.383 -21.503 4.055 QT
-22.175 3.367 -23.737 3.367 QT
-24.534 3.367 L
-24.878 3.367 -25.065 3.399 QT
-25.253 3.43 -25.378 3.563 QT
-25.503 3.696 -25.503 3.977 QT
-25.503 14.414 L
-25.503 14.805 -24.604 14.906 QT
-23.706 15.008 -22.753 15.008 QT
-22.753 15.68 L
-30.034 15.68 L
cp
f
GR
GS
[0.75 0 0 0.75 236.62516 284.49999] CT
0.149 GC
N
-19.177 15.68 M
-19.177 15.008 L
-18.521 15.008 -18.107 14.906 QT
-17.693 14.805 -17.693 14.414 QT
-17.693 9.227 L
-17.693 8.492 -17.974 8.321 QT
-18.256 8.149 -19.084 8.149 QT
-19.084 7.492 L
-16.349 7.289 L
-16.349 14.414 L
-16.349 14.805 -15.99 14.906 QT
-15.631 15.008 -15.021 15.008 QT
-15.021 15.68 L
-19.177 15.68 L
cp
-18.365 4.024 M
-18.365 3.602 -18.052 3.289 QT
-17.74 2.977 -17.318 2.977 QT
-17.052 2.977 -16.802 3.11 QT
-16.552 3.242 -16.412 3.492 QT
-16.271 3.742 -16.271 4.024 QT
-16.271 4.43 -16.592 4.742 QT
-16.912 5.055 -17.318 5.055 QT
-17.74 5.055 -18.052 4.742 QT
-18.365 4.43 -18.365 4.024 QT
cp
f
GR
GS
[0.75 0 0 0.75 236.62516 284.49999] CT
0.149 GC
N
-14.008 15.68 M
-14.008 15.008 L
-13.352 15.008 -12.938 14.906 QT
-12.523 14.805 -12.523 14.414 QT
-12.523 9.227 L
-12.523 8.711 -12.672 8.485 QT
-12.82 8.258 -13.109 8.203 QT
-13.398 8.149 -14.008 8.149 QT
-14.008 7.492 L
-11.242 7.289 L
-11.242 9.133 L
-10.867 8.321 -10.117 7.805 QT
-9.367 7.289 -8.492 7.289 QT
-6.305 7.289 -5.93 9.071 QT
-5.539 8.274 -4.805 7.781 QT
-4.07 7.289 -3.211 7.289 QT
-2.336 7.289 -1.75 7.563 QT
-1.164 7.836 -0.867 8.406 QT
-0.57 8.977 -0.57 9.852 QT
-0.57 14.414 L
-0.57 14.805 -0.148 14.906 QT
0.273 15.008 0.914 15.008 QT
0.914 15.68 L
-3.43 15.68 L
-3.43 15.008 L
-2.789 15.008 -2.367 14.906 QT
-1.945 14.805 -1.945 14.414 QT
-1.945 9.899 L
-1.945 8.946 -2.219 8.36 QT
-2.492 7.774 -3.32 7.774 QT
-4.414 7.774 -5.133 8.656 QT
-5.852 9.539 -5.852 10.664 QT
-5.852 14.414 L
-5.852 14.805 -5.43 14.906 QT
-5.008 15.008 -4.367 15.008 QT
-4.367 15.68 L
-8.711 15.68 L
-8.711 15.008 L
-8.07 15.008 -7.648 14.906 QT
-7.227 14.805 -7.227 14.414 QT
-7.227 9.899 L
-7.227 8.977 -7.5 8.375 QT
-7.773 7.774 -8.602 7.774 QT
-9.711 7.774 -10.422 8.656 QT
-11.133 9.539 -11.133 10.664 QT
-11.133 14.414 L
-11.133 14.805 -10.711 14.906 QT
-10.289 15.008 -9.648 15.008 QT
-9.648 15.68 L
-14.008 15.68 L
cp
f
GR
GS
[0.75 0 0 0.75 236.62516 284.49999] CT
0.149 GC
N
5.72 15.899 M
4.563 15.899 3.595 15.289 QT
2.626 14.68 2.071 13.664 QT
1.516 12.649 1.516 11.508 QT
1.516 10.399 2.024 9.399 QT
2.532 8.399 3.431 7.781 QT
4.329 7.164 5.454 7.164 QT
6.313 7.164 6.962 7.453 QT
7.61 7.742 8.024 8.266 QT
8.438 8.789 8.657 9.492 QT
8.876 10.196 8.876 11.039 QT
8.876 11.289 8.673 11.289 QT
3.173 11.289 L
3.173 11.492 L
3.173 13.071 3.806 14.203 QT
4.438 15.336 5.891 15.336 QT
6.47 15.336 6.962 15.078 QT
7.454 14.821 7.821 14.352 QT
8.188 13.883 8.329 13.367 QT
8.345 13.289 8.391 13.242 QT
8.438 13.196 8.516 13.196 QT
8.673 13.196 L
8.876 13.196 8.876 13.43 QT
8.595 14.508 7.704 15.203 QT
6.813 15.899 5.72 15.899 QT
cp
3.188 10.821 M
7.532 10.821 L
7.532 10.102 7.329 9.367 QT
7.126 8.633 6.665 8.149 QT
6.204 7.664 5.454 7.664 QT
4.376 7.664 3.782 8.672 QT
3.188 9.68 3.188 10.821 QT
cp
f
GR
GS
[0.75 0 0 0.75 236.62516 284.49999] CT
0.149 GC
N
17.754 20.43 M
17.754 1.43 L
20.347 1.43 L
20.347 2.196 L
18.504 2.196 L
18.504 19.664 L
20.347 19.664 L
20.347 20.43 L
17.754 20.43 L
cp
f
GR
GS
[0.75 0 0 0.75 236.62516 284.49999] CT
0.149 GC
N
21.314 15.742 M
21.314 12.633 L
21.314 12.492 21.486 12.492 QT
21.72 12.492 L
21.83 12.492 21.861 12.633 QT
22.392 15.399 24.423 15.399 QT
25.33 15.399 25.939 14.985 QT
26.548 14.571 26.548 13.727 QT
26.548 13.117 26.072 12.68 QT
25.595 12.242 24.955 12.086 QT
23.673 11.836 L
23.033 11.696 22.509 11.406 QT
21.986 11.117 21.65 10.641 QT
21.314 10.164 21.314 9.539 QT
21.314 8.696 21.759 8.164 QT
22.205 7.633 22.908 7.399 QT
23.611 7.164 24.423 7.164 QT
25.408 7.164 26.126 7.68 QT
26.673 7.211 L
26.673 7.164 26.767 7.164 QT
26.908 7.164 L
26.955 7.164 27.001 7.211 QT
27.048 7.258 27.048 7.321 QT
27.048 9.805 L
27.048 9.977 26.908 9.977 QT
26.673 9.977 L
26.501 9.977 26.501 9.805 QT
26.501 8.821 25.955 8.211 QT
25.408 7.602 24.408 7.602 QT
23.548 7.602 22.923 7.922 QT
22.298 8.242 22.298 9.008 QT
22.298 9.539 22.751 9.875 QT
23.205 10.211 23.814 10.367 QT
25.095 10.602 L
25.751 10.758 26.306 11.11 QT
26.861 11.461 27.197 12 QT
27.533 12.539 27.533 13.211 QT
27.533 13.899 27.29 14.406 QT
27.048 14.914 26.626 15.242 QT
26.205 15.571 25.634 15.735 QT
25.064 15.899 24.423 15.899 QT
23.236 15.899 22.392 15.102 QT
21.705 15.852 L
21.705 15.899 21.595 15.899 QT
21.486 15.899 L
21.314 15.899 21.314 15.742 QT
cp
f
GR
GS
[0.75 0 0 0.75 236.62516 284.49999] CT
0.149 GC
N
28.474 20.43 M
28.474 19.664 L
30.318 19.664 L
30.318 2.196 L
28.474 2.196 L
28.474 1.43 L
31.083 1.43 L
31.083 20.43 L
28.474 20.43 L
cp
f
GR
GS
[0.75 0 0 0.75 0 0.5] CT
0.149 GC
2 setlinecap
1 LJ
0.667 LW
N
79 358 M
79 30 L
S
GR
GS
[0.75 0 0 0.75 0 0.5] CT
0.149 GC
2 setlinecap
1 LJ
0.667 LW
N
552 358 M
552 30 L
S
GR
GS
[0.75 0 0 0.75 0 0.5] CT
0.149 GC
2 setlinecap
1 LJ
0.667 LW
N
79 358 M
83.73 358 L
S
GR
GS
[0.75 0 0 0.75 0 0.5] CT
0.149 GC
2 setlinecap
1 LJ
0.667 LW
N
79 292.4 M
83.73 292.4 L
S
GR
GS
[0.75 0 0 0.75 0 0.5] CT
0.149 GC
2 setlinecap
1 LJ
0.667 LW
N
79 226.8 M
83.73 226.8 L
S
GR
GS
[0.75 0 0 0.75 0 0.5] CT
0.149 GC
2 setlinecap
1 LJ
0.667 LW
N
79 161.2 M
83.73 161.2 L
S
GR
GS
[0.75 0 0 0.75 0 0.5] CT
0.149 GC
2 setlinecap
1 LJ
0.667 LW
N
79 95.6 M
83.73 95.6 L
S
GR
GS
[0.75 0 0 0.75 0 0.5] CT
0.149 GC
2 setlinecap
1 LJ
0.667 LW
N
79 30 M
83.73 30 L
S
GR
GS
[0.75 0 0 0.75 0 0.5] CT
0.149 GC
2 setlinecap
1 LJ
0.667 LW
N
552 358 M
547.27 358 L
S
GR
GS
[0.75 0 0 0.75 0 0.5] CT
0.149 GC
2 setlinecap
1 LJ
0.667 LW
N
552 292.4 M
547.27 292.4 L
S
GR
GS
[0.75 0 0 0.75 0 0.5] CT
0.149 GC
2 setlinecap
1 LJ
0.667 LW
N
552 226.8 M
547.27 226.8 L
S
GR
GS
[0.75 0 0 0.75 0 0.5] CT
0.149 GC
2 setlinecap
1 LJ
0.667 LW
N
552 161.2 M
547.27 161.2 L
S
GR
GS
[0.75 0 0 0.75 0 0.5] CT
0.149 GC
2 setlinecap
1 LJ
0.667 LW
N
552 95.6 M
547.27 95.6 L
S
GR
GS
[0.75 0 0 0.75 0 0.5] CT
0.149 GC
2 setlinecap
1 LJ
0.667 LW
N
552 30 M
547.27 30 L
S
GR
GS
[0.75 0 0 0.75 55.25 269] CT
0.149 GC
/Helvetica 13.333 F
GS
[1 0 0 1 0 0] CT
-26 5 moveto 
1 -1 scale
(-0.5) t 
GR
GR
GS
[0.75 0 0 0.75 55.25 219.8] CT
0.149 GC
/Helvetica 13.333 F
GS
[1 0 0 1 0 0] CT
-9 5 moveto 
1 -1 scale
(0) t 
GR
GR
GS
[0.75 0 0 0.75 55.25 170.6] CT
0.149 GC
/Helvetica 13.333 F
GS
[1 0 0 1 0 0] CT
-21 5 moveto 
1 -1 scale
(0.5) t 
GR
GR
GS
[0.75 0 0 0.75 55.25 121.4] CT
0.149 GC
/Helvetica 13.333 F
GS
[1 0 0 1 0 0] CT
-9 5 moveto 
1 -1 scale
(1) t 
GR
GR
GS
[0.75 0 0 0.75 55.25 72.2] CT
0.149 GC
/Helvetica 13.333 F
GS
[1 0 0 1 0 0] CT
-21 5 moveto 
1 -1 scale
(1.5) t 
GR
GR
GS
[0.75 0 0 0.75 55.25 23] CT
0.149 GC
/Helvetica 13.333 F
GS
[1 0 0 1 0 0] CT
-9 5 moveto 
1 -1 scale
(2) t 
GR
GR
GS
[0 -0.75 0.75 0 32.75 145.99989] CT
0.149 GC
N
-105.618 -6.72 M
-105.618 -7.392 L
-103.665 -7.392 -103.665 -7.986 QT
-103.665 -18.423 L
-103.665 -19.033 -105.618 -19.033 QT
-105.618 -19.704 L
-98.634 -19.704 L
-97.681 -19.704 -96.696 -19.329 QT
-95.712 -18.954 -95.064 -18.212 QT
-94.415 -17.47 -94.415 -16.47 QT
-94.415 -15.314 -95.368 -14.525 QT
-96.321 -13.736 -97.587 -13.501 QT
-96.759 -13.501 -95.892 -13.048 QT
-95.024 -12.595 -94.47 -11.829 QT
-93.915 -11.064 -93.915 -10.22 QT
-93.915 -9.173 -94.524 -8.376 QT
-95.134 -7.579 -96.118 -7.15 QT
-97.103 -6.72 -98.103 -6.72 QT
-105.618 -6.72 L
cp
-102.009 -7.986 M
-102.009 -7.579 -101.782 -7.486 QT
-101.556 -7.392 -101.056 -7.392 QT
-98.634 -7.392 L
-97.899 -7.392 -97.259 -7.783 QT
-96.618 -8.173 -96.251 -8.822 QT
-95.884 -9.47 -95.884 -10.22 QT
-95.884 -10.939 -96.189 -11.634 QT
-96.493 -12.329 -97.064 -12.775 QT
-97.634 -13.22 -98.368 -13.22 QT
-102.009 -13.22 L
-102.009 -7.986 L
cp
-102.009 -13.72 M
-99.165 -13.72 L
-98.587 -13.72 -98.087 -13.923 QT
-97.587 -14.126 -97.181 -14.525 QT
-96.774 -14.923 -96.556 -15.415 QT
-96.337 -15.908 -96.337 -16.47 QT
-96.337 -16.97 -96.501 -17.423 QT
-96.665 -17.876 -96.978 -18.244 QT
-97.29 -18.611 -97.72 -18.822 QT
-98.149 -19.033 -98.634 -19.033 QT
-101.056 -19.033 L
-101.399 -19.033 -101.587 -19.001 QT
-101.774 -18.97 -101.892 -18.837 QT
-102.009 -18.704 -102.009 -18.423 QT
-102.009 -13.72 L
cp
f
GR
GS
[0 -0.75 0.75 0 32.75 145.99989] CT
0.149 GC
N
-88.302 -6.501 M
-89.443 -6.501 -90.419 -7.087 QT
-91.396 -7.673 -91.958 -8.642 QT
-92.521 -9.611 -92.521 -10.767 QT
-92.521 -11.642 -92.208 -12.447 QT
-91.896 -13.251 -91.318 -13.884 QT
-90.74 -14.517 -89.974 -14.876 QT
-89.208 -15.236 -88.302 -15.236 QT
-87.13 -15.236 -86.169 -14.619 QT
-85.208 -14.001 -84.654 -12.97 QT
-84.099 -11.939 -84.099 -10.767 QT
-84.099 -9.626 -84.662 -8.65 QT
-85.224 -7.673 -86.201 -7.087 QT
-87.177 -6.501 -88.302 -6.501 QT
cp
-88.302 -7.064 M
-86.787 -7.064 -86.271 -8.165 QT
-85.755 -9.267 -85.755 -10.986 QT
-85.755 -11.939 -85.857 -12.564 QT
-85.958 -13.189 -86.302 -13.704 QT
-86.521 -14.017 -86.849 -14.251 QT
-87.177 -14.486 -87.544 -14.611 QT
-87.912 -14.736 -88.302 -14.736 QT
-88.896 -14.736 -89.427 -14.47 QT
-89.958 -14.204 -90.318 -13.704 QT
-90.662 -13.158 -90.763 -12.517 QT
-90.865 -11.876 -90.865 -10.986 QT
-90.865 -9.908 -90.677 -9.064 QT
-90.49 -8.22 -89.927 -7.642 QT
-89.365 -7.064 -88.302 -7.064 QT
cp
f
GR
GS
[0 -0.75 0.75 0 32.75 145.99989] CT
0.149 GC
N
-78.56 -6.501 M
-79.685 -6.501 -80.614 -7.111 QT
-81.544 -7.72 -82.06 -8.712 QT
-82.575 -9.704 -82.575 -10.814 QT
-82.575 -11.97 -82.013 -12.962 QT
-81.45 -13.954 -80.482 -14.533 QT
-79.513 -15.111 -78.357 -15.111 QT
-77.669 -15.111 -77.044 -14.822 QT
-76.419 -14.533 -75.966 -14.017 QT
-75.966 -17.97 L
-75.966 -18.47 -76.114 -18.697 QT
-76.263 -18.923 -76.552 -18.978 QT
-76.841 -19.033 -77.435 -19.033 QT
-77.435 -19.704 L
-74.622 -19.908 L
-74.622 -8.439 L
-74.622 -7.939 -74.474 -7.712 QT
-74.325 -7.486 -74.044 -7.439 QT
-73.763 -7.392 -73.153 -7.392 QT
-73.153 -6.72 L
-76.013 -6.501 L
-76.013 -7.704 L
-76.513 -7.142 -77.192 -6.822 QT
-77.872 -6.501 -78.56 -6.501 QT
cp
-80.497 -8.376 M
-80.169 -7.751 -79.63 -7.376 QT
-79.091 -7.001 -78.45 -7.001 QT
-77.669 -7.001 -77.005 -7.462 QT
-76.341 -7.923 -76.013 -8.642 QT
-76.013 -13.189 L
-76.247 -13.611 -76.583 -13.939 QT
-76.919 -14.267 -77.341 -14.447 QT
-77.763 -14.626 -78.232 -14.626 QT
-79.232 -14.626 -79.833 -14.064 QT
-80.435 -13.501 -80.677 -12.626 QT
-80.919 -11.751 -80.919 -10.798 QT
-80.919 -10.048 -80.841 -9.478 QT
-80.763 -8.908 -80.497 -8.376 QT
cp
f
GR
GS
[0 -0.75 0.75 0 32.75 145.99989] CT
0.149 GC
N
-71.517 -3.595 M
-71.158 -3.314 -70.721 -3.314 QT
-69.533 -3.314 -68.767 -5.126 QT
-68.111 -6.72 L
-70.971 -13.704 L
-71.142 -14.048 -71.502 -14.15 QT
-71.861 -14.251 -72.471 -14.251 QT
-72.471 -14.908 L
-68.486 -14.908 L
-68.486 -14.251 L
-69.533 -14.251 -69.533 -13.783 QT
-69.533 -13.72 -69.502 -13.673 QT
-67.392 -8.486 L
-65.486 -13.158 L
-65.439 -13.314 -65.439 -13.486 QT
-65.439 -13.72 -65.564 -13.892 QT
-65.689 -14.064 -65.885 -14.158 QT
-66.08 -14.251 -66.33 -14.251 QT
-66.33 -14.908 L
-63.174 -14.908 L
-63.174 -14.251 L
-63.767 -14.251 -64.205 -13.978 QT
-64.642 -13.704 -64.892 -13.173 QT
-68.174 -5.126 L
-68.439 -4.517 -68.783 -4.001 QT
-69.127 -3.486 -69.627 -3.158 QT
-70.127 -2.829 -70.721 -2.829 QT
-71.424 -2.829 -71.947 -3.283 QT
-72.471 -3.736 -72.471 -4.423 QT
-72.471 -4.767 -72.228 -5.009 QT
-71.986 -5.251 -71.627 -5.251 QT
-71.392 -5.251 -71.205 -5.15 QT
-71.017 -5.048 -70.908 -4.861 QT
-70.799 -4.673 -70.799 -4.423 QT
-70.799 -4.111 -71.002 -3.869 QT
-71.205 -3.626 -71.517 -3.595 QT
cp
f
GR
GS
[0 -0.75 0.75 0 32.75 145.99989] CT
0.149 GC
N
-56.146 -6.72 M
-56.146 -7.392 L
-54.443 -7.392 -54.053 -8.517 QT
-50.068 -20.111 L
-50.006 -20.314 -49.756 -20.314 QT
-49.521 -20.314 L
-49.271 -20.314 -49.209 -20.111 QT
-45.053 -7.986 L
-44.865 -7.595 -44.373 -7.494 QT
-43.881 -7.392 -43.131 -7.392 QT
-43.131 -6.72 L
-48.428 -6.72 L
-48.428 -7.392 L
-46.85 -7.392 -46.85 -7.892 QT
-46.85 -7.986 L
-47.881 -10.954 L
-52.49 -10.954 L
-53.35 -8.517 L
-53.365 -8.439 -53.365 -8.314 QT
-53.365 -7.845 -52.92 -7.619 QT
-52.475 -7.392 -51.943 -7.392 QT
-51.943 -6.72 L
-56.146 -6.72 L
cp
-52.271 -11.626 M
-48.115 -11.626 L
-50.193 -17.689 L
-52.271 -11.626 L
cp
f
GR
GS
[0 -0.75 0.75 0 32.75 145.99989] CT
0.149 GC
N
-40.787 -6.72 M
-40.787 -17.97 L
-40.787 -18.47 -40.935 -18.697 QT
-41.084 -18.923 -41.373 -18.978 QT
-41.662 -19.033 -42.271 -19.033 QT
-42.271 -19.704 L
-39.459 -19.908 L
-39.459 -13.954 L
-39.131 -14.314 -38.709 -14.579 QT
-38.287 -14.845 -37.81 -14.978 QT
-37.334 -15.111 -36.834 -15.111 QT
-35.974 -15.111 -35.248 -14.767 QT
-34.521 -14.423 -33.982 -13.822 QT
-33.443 -13.22 -33.139 -12.439 QT
-32.834 -11.658 -32.834 -10.814 QT
-32.834 -9.673 -33.396 -8.681 QT
-33.959 -7.689 -34.928 -7.095 QT
-35.896 -6.501 -37.053 -6.501 QT
-37.787 -6.501 -38.459 -6.876 QT
-39.131 -7.251 -39.584 -7.861 QT
-40.224 -6.72 L
-40.787 -6.72 L
cp
-39.396 -8.579 M
-39.084 -7.892 -38.49 -7.447 QT
-37.896 -7.001 -37.178 -7.001 QT
-36.193 -7.001 -35.584 -7.572 QT
-34.974 -8.142 -34.732 -9.001 QT
-34.49 -9.861 -34.49 -10.814 QT
-34.49 -12.423 -34.912 -13.267 QT
-35.099 -13.626 -35.42 -13.947 QT
-35.74 -14.267 -36.131 -14.447 QT
-36.521 -14.626 -36.959 -14.626 QT
-37.724 -14.626 -38.373 -14.22 QT
-39.021 -13.814 -39.396 -13.142 QT
-39.396 -8.579 L
cp
f
GR
GS
[0 -0.75 0.75 0 32.75 145.99989] CT
0.149 GC
N
-31.854 -5.236 M
-31.854 -5.908 -31.362 -6.415 QT
-30.87 -6.923 -30.198 -7.142 QT
-30.573 -7.423 -30.776 -7.861 QT
-30.979 -8.298 -30.979 -8.783 QT
-30.979 -9.673 -30.417 -10.361 QT
-31.276 -11.22 -31.276 -12.329 QT
-31.276 -12.923 -31.026 -13.439 QT
-30.776 -13.954 -30.315 -14.337 QT
-29.854 -14.72 -29.299 -14.915 QT
-28.745 -15.111 -28.167 -15.111 QT
-27.026 -15.111 -26.135 -14.454 QT
-25.745 -14.876 -25.213 -15.103 QT
-24.682 -15.329 -24.104 -15.329 QT
-23.698 -15.329 -23.432 -15.04 QT
-23.167 -14.751 -23.167 -14.329 QT
-23.167 -14.111 -23.346 -13.931 QT
-23.526 -13.751 -23.76 -13.751 QT
-23.995 -13.751 -24.174 -13.931 QT
-24.354 -14.111 -24.354 -14.329 QT
-24.354 -14.689 -24.12 -14.829 QT
-25.104 -14.829 -25.807 -14.158 QT
-25.463 -13.814 -25.253 -13.314 QT
-25.042 -12.814 -25.042 -12.329 QT
-25.042 -11.517 -25.487 -10.869 QT
-25.932 -10.22 -26.667 -9.869 QT
-27.401 -9.517 -28.167 -9.517 QT
-29.198 -9.517 -30.073 -10.079 QT
-30.338 -9.704 -30.338 -9.251 QT
-30.338 -8.736 -30.01 -8.361 QT
-29.682 -7.986 -29.182 -7.986 QT
-27.62 -7.986 L
-26.479 -7.986 -25.573 -7.783 QT
-24.667 -7.579 -24.049 -6.97 QT
-23.432 -6.361 -23.432 -5.236 QT
-23.432 -4.408 -24.135 -3.853 QT
-24.838 -3.298 -25.823 -3.048 QT
-26.807 -2.798 -27.635 -2.798 QT
-28.479 -2.798 -29.463 -3.048 QT
-30.448 -3.298 -31.151 -3.853 QT
-31.854 -4.408 -31.854 -5.236 QT
cp
-30.792 -5.236 M
-30.792 -4.595 -30.268 -4.165 QT
-29.745 -3.736 -29.018 -3.525 QT
-28.292 -3.314 -27.635 -3.314 QT
-26.995 -3.314 -26.26 -3.525 QT
-25.526 -3.736 -25.01 -4.165 QT
-24.495 -4.595 -24.495 -5.236 QT
-24.495 -6.236 -25.409 -6.525 QT
-26.323 -6.814 -27.62 -6.814 QT
-29.182 -6.814 L
-29.604 -6.814 -29.971 -6.603 QT
-30.338 -6.392 -30.565 -6.017 QT
-30.792 -5.642 -30.792 -5.236 QT
cp
-28.167 -10.017 M
-26.557 -10.017 -26.557 -12.329 QT
-26.557 -13.314 -26.893 -13.962 QT
-27.229 -14.611 -28.167 -14.611 QT
-29.088 -14.611 -29.432 -13.962 QT
-29.776 -13.314 -29.776 -12.329 QT
-29.776 -11.689 -29.651 -11.181 QT
-29.526 -10.673 -29.167 -10.345 QT
-28.807 -10.017 -28.167 -10.017 QT
cp
f
GR
GS
[0 -0.75 0.75 0 32.75 145.99989] CT
0.149 GC
N
-21.005 -8.986 M
-21.005 -13.173 L
-21.005 -13.689 -21.154 -13.915 QT
-21.302 -14.142 -21.591 -14.197 QT
-21.88 -14.251 -22.489 -14.251 QT
-22.489 -14.908 L
-19.614 -15.111 L
-19.614 -8.986 L
-19.614 -8.236 -19.505 -7.829 QT
-19.396 -7.423 -19.052 -7.212 QT
-18.708 -7.001 -17.943 -7.001 QT
-16.927 -7.001 -16.318 -7.861 QT
-15.708 -8.72 -15.708 -9.798 QT
-15.708 -13.173 L
-15.708 -13.689 -15.872 -13.915 QT
-16.036 -14.142 -16.318 -14.197 QT
-16.599 -14.251 -17.193 -14.251 QT
-17.193 -14.908 L
-14.333 -15.111 L
-14.333 -8.439 L
-14.333 -7.939 -14.177 -7.712 QT
-14.021 -7.486 -13.732 -7.439 QT
-13.443 -7.392 -12.849 -7.392 QT
-12.849 -6.72 L
-15.661 -6.501 L
-15.661 -8.111 L
-16.005 -7.392 -16.638 -6.947 QT
-17.271 -6.501 -18.036 -6.501 QT
-19.396 -6.501 -20.2 -7.087 QT
-21.005 -7.673 -21.005 -8.986 QT
cp
f
GR
GS
[0 -0.75 0.75 0 32.75 145.99989] CT
0.149 GC
N
-12.103 -6.72 M
-12.103 -7.392 L
-11.447 -7.392 -11.033 -7.494 QT
-10.619 -7.595 -10.619 -7.986 QT
-10.619 -17.97 L
-10.619 -18.47 -10.768 -18.697 QT
-10.916 -18.923 -11.205 -18.978 QT
-11.494 -19.033 -12.103 -19.033 QT
-12.103 -19.704 L
-9.275 -19.908 L
-9.275 -7.986 L
-9.275 -7.595 -8.861 -7.494 QT
-8.447 -7.392 -7.807 -7.392 QT
-7.807 -6.72 L
-12.103 -6.72 L
cp
f
GR
GS
[0 -0.75 0.75 0 32.75 145.99989] CT
0.149 GC
N
-6.731 -8.579 M
-6.731 -9.72 -5.84 -10.431 QT
-4.949 -11.142 -3.707 -11.431 QT
-2.465 -11.72 -1.34 -11.72 QT
-1.34 -12.501 L
-1.34 -13.048 -1.582 -13.564 QT
-1.824 -14.079 -2.278 -14.408 QT
-2.731 -14.736 -3.278 -14.736 QT
-4.543 -14.736 -5.199 -14.173 QT
-4.84 -14.173 -4.598 -13.9 QT
-4.356 -13.626 -4.356 -13.267 QT
-4.356 -12.876 -4.629 -12.611 QT
-4.903 -12.345 -5.262 -12.345 QT
-5.653 -12.345 -5.918 -12.611 QT
-6.184 -12.876 -6.184 -13.267 QT
-6.184 -14.267 -5.278 -14.751 QT
-4.371 -15.236 -3.278 -15.236 QT
-2.512 -15.236 -1.731 -14.908 QT
-0.949 -14.579 -0.449 -13.97 QT
0.051 -13.361 0.051 -12.533 QT
0.051 -8.267 L
0.051 -7.892 0.207 -7.579 QT
0.363 -7.267 0.691 -7.267 QT
1.004 -7.267 1.16 -7.579 QT
1.316 -7.892 1.316 -8.267 QT
1.316 -9.47 L
1.879 -9.47 L
1.879 -8.267 L
1.879 -7.829 1.652 -7.447 QT
1.426 -7.064 1.051 -6.837 QT
0.676 -6.611 0.238 -6.611 QT
-0.309 -6.611 -0.715 -7.04 QT
-1.121 -7.47 -1.168 -8.064 QT
-1.528 -7.345 -2.207 -6.923 QT
-2.887 -6.501 -3.668 -6.501 QT
-4.403 -6.501 -5.098 -6.72 QT
-5.793 -6.939 -6.262 -7.392 QT
-6.731 -7.845 -6.731 -8.579 QT
cp
-5.199 -8.579 M
-5.199 -7.923 -4.707 -7.462 QT
-4.215 -7.001 -3.543 -7.001 QT
-2.934 -7.001 -2.434 -7.314 QT
-1.934 -7.626 -1.637 -8.15 QT
-1.34 -8.673 -1.34 -9.267 QT
-1.34 -11.236 L
-2.199 -11.236 -3.106 -10.954 QT
-4.012 -10.673 -4.606 -10.072 QT
-5.199 -9.47 -5.199 -8.579 QT
cp
f
GR
GS
[0 -0.75 0.75 0 32.75 145.99989] CT
0.149 GC
N
2.321 -6.72 M
2.321 -7.392 L
2.978 -7.392 3.392 -7.494 QT
3.806 -7.595 3.806 -7.986 QT
3.806 -13.173 L
3.806 -13.689 3.657 -13.915 QT
3.509 -14.142 3.22 -14.197 QT
2.931 -14.251 2.321 -14.251 QT
2.321 -14.908 L
5.04 -15.111 L
5.04 -13.267 L
5.353 -14.079 5.915 -14.595 QT
6.478 -15.111 7.29 -15.111 QT
7.853 -15.111 8.298 -14.783 QT
8.743 -14.454 8.743 -13.908 QT
8.743 -13.564 8.501 -13.306 QT
8.259 -13.048 7.899 -13.048 QT
7.54 -13.048 7.29 -13.298 QT
7.04 -13.548 7.04 -13.908 QT
7.04 -14.408 7.399 -14.626 QT
7.29 -14.626 L
6.524 -14.626 6.04 -14.072 QT
5.556 -13.517 5.345 -12.689 QT
5.134 -11.861 5.134 -11.111 QT
5.134 -7.986 L
5.134 -7.392 6.993 -7.392 QT
6.993 -6.72 L
2.321 -6.72 L
cp
f
GR
GS
[0 -0.75 0.75 0 32.75 145.99989] CT
0.149 GC
N
22.058 -6.501 M
17.573 -18.423 L
17.417 -18.829 16.941 -18.931 QT
16.464 -19.033 15.73 -19.033 QT
15.73 -19.704 L
20.948 -19.704 L
20.948 -19.033 L
19.386 -19.033 19.386 -18.533 QT
19.386 -18.517 19.394 -18.494 QT
19.402 -18.47 19.402 -18.423 QT
23.042 -8.736 L
26.48 -17.908 L
26.527 -17.986 26.527 -18.142 QT
26.527 -18.611 26.097 -18.822 QT
25.667 -19.033 25.136 -19.033 QT
25.136 -19.704 L
29.245 -19.704 L
29.245 -19.033 L
28.527 -19.033 27.98 -18.767 QT
27.433 -18.501 27.214 -17.908 QT
22.917 -6.501 L
22.855 -6.298 22.605 -6.298 QT
22.37 -6.298 L
22.12 -6.298 22.058 -6.501 QT
cp
f
GR
GS
[0 -0.75 0.75 0 32.75 145.99989] CT
0.149 GC
N
32.549 -6.501 M
31.393 -6.501 30.424 -7.111 QT
29.455 -7.72 28.901 -8.736 QT
28.346 -9.751 28.346 -10.892 QT
28.346 -12.001 28.854 -13.001 QT
29.362 -14.001 30.26 -14.619 QT
31.159 -15.236 32.284 -15.236 QT
33.143 -15.236 33.791 -14.947 QT
34.44 -14.658 34.854 -14.134 QT
35.268 -13.611 35.487 -12.908 QT
35.705 -12.204 35.705 -11.361 QT
35.705 -11.111 35.502 -11.111 QT
30.002 -11.111 L
30.002 -10.908 L
30.002 -9.329 30.635 -8.197 QT
31.268 -7.064 32.721 -7.064 QT
33.299 -7.064 33.791 -7.322 QT
34.284 -7.579 34.651 -8.048 QT
35.018 -8.517 35.159 -9.033 QT
35.174 -9.111 35.221 -9.158 QT
35.268 -9.204 35.346 -9.204 QT
35.502 -9.204 L
35.705 -9.204 35.705 -8.97 QT
35.424 -7.892 34.534 -7.197 QT
33.643 -6.501 32.549 -6.501 QT
cp
30.018 -11.579 M
34.362 -11.579 L
34.362 -12.298 34.159 -13.033 QT
33.955 -13.767 33.494 -14.251 QT
33.034 -14.736 32.284 -14.736 QT
31.205 -14.736 30.612 -13.728 QT
30.018 -12.72 30.018 -11.579 QT
cp
f
GR
GS
[0 -0.75 0.75 0 32.75 145.99989] CT
0.149 GC
N
36.689 -6.72 M
36.689 -7.392 L
37.345 -7.392 37.76 -7.494 QT
38.174 -7.595 38.174 -7.986 QT
38.174 -17.97 L
38.174 -18.47 38.025 -18.697 QT
37.877 -18.923 37.588 -18.978 QT
37.299 -19.033 36.689 -19.033 QT
36.689 -19.704 L
39.517 -19.908 L
39.517 -7.986 L
39.517 -7.595 39.931 -7.494 QT
40.345 -7.392 40.986 -7.392 QT
40.986 -6.72 L
36.689 -6.72 L
cp
f
GR
GS
[0 -0.75 0.75 0 32.75 145.99989] CT
0.149 GC
N
46.046 -6.501 M
44.906 -6.501 43.929 -7.087 QT
42.953 -7.673 42.39 -8.642 QT
41.828 -9.611 41.828 -10.767 QT
41.828 -11.642 42.14 -12.447 QT
42.453 -13.251 43.031 -13.884 QT
43.609 -14.517 44.374 -14.876 QT
45.14 -15.236 46.046 -15.236 QT
47.218 -15.236 48.179 -14.619 QT
49.14 -14.001 49.695 -12.97 QT
50.249 -11.939 50.249 -10.767 QT
50.249 -9.626 49.687 -8.65 QT
49.124 -7.673 48.148 -7.087 QT
47.171 -6.501 46.046 -6.501 QT
cp
46.046 -7.064 M
47.562 -7.064 48.078 -8.165 QT
48.593 -9.267 48.593 -10.986 QT
48.593 -11.939 48.492 -12.564 QT
48.39 -13.189 48.046 -13.704 QT
47.828 -14.017 47.499 -14.251 QT
47.171 -14.486 46.804 -14.611 QT
46.437 -14.736 46.046 -14.736 QT
45.453 -14.736 44.921 -14.47 QT
44.39 -14.204 44.031 -13.704 QT
43.687 -13.158 43.585 -12.517 QT
43.484 -11.876 43.484 -10.986 QT
43.484 -9.908 43.671 -9.064 QT
43.859 -8.22 44.421 -7.642 QT
44.984 -7.064 46.046 -7.064 QT
cp
f
GR
GS
[0 -0.75 0.75 0 32.75 145.99989] CT
0.149 GC
N
55.883 -6.501 M
54.726 -6.501 53.789 -7.103 QT
52.851 -7.704 52.312 -8.704 QT
51.773 -9.704 51.773 -10.814 QT
51.773 -11.939 52.312 -12.97 QT
52.851 -14.001 53.789 -14.619 QT
54.726 -15.236 55.883 -15.236 QT
56.992 -15.236 57.906 -14.798 QT
58.82 -14.361 58.82 -13.376 QT
58.82 -13.001 58.554 -12.728 QT
58.289 -12.454 57.914 -12.454 QT
57.539 -12.454 57.273 -12.728 QT
57.008 -13.001 57.008 -13.376 QT
57.008 -13.704 57.218 -13.954 QT
57.429 -14.204 57.742 -14.267 QT
57.086 -14.673 55.898 -14.673 QT
54.992 -14.673 54.437 -14.072 QT
53.883 -13.47 53.656 -12.579 QT
53.429 -11.689 53.429 -10.814 QT
53.429 -9.908 53.703 -9.048 QT
53.976 -8.189 54.586 -7.626 QT
55.195 -7.064 56.117 -7.064 QT
57.008 -7.064 57.64 -7.619 QT
58.273 -8.173 58.508 -9.064 QT
58.508 -9.173 58.648 -9.173 QT
58.883 -9.173 L
58.945 -9.173 58.992 -9.119 QT
59.039 -9.064 59.039 -9.001 QT
59.039 -8.954 L
58.742 -7.829 57.89 -7.165 QT
57.039 -6.501 55.883 -6.501 QT
cp
f
GR
GS
[0 -0.75 0.75 0 32.75 145.99989] CT
0.149 GC
N
60.023 -6.72 M
60.023 -7.392 L
60.679 -7.392 61.093 -7.494 QT
61.507 -7.595 61.507 -7.986 QT
61.507 -13.173 L
61.507 -13.908 61.226 -14.079 QT
60.944 -14.251 60.116 -14.251 QT
60.116 -14.908 L
62.851 -15.111 L
62.851 -7.986 L
62.851 -7.595 63.21 -7.494 QT
63.569 -7.392 64.179 -7.392 QT
64.179 -6.72 L
60.023 -6.72 L
cp
60.835 -18.376 M
60.835 -18.798 61.148 -19.111 QT
61.46 -19.423 61.882 -19.423 QT
62.148 -19.423 62.398 -19.29 QT
62.648 -19.158 62.788 -18.908 QT
62.929 -18.658 62.929 -18.376 QT
62.929 -17.97 62.609 -17.658 QT
62.288 -17.345 61.882 -17.345 QT
61.46 -17.345 61.148 -17.658 QT
60.835 -17.97 60.835 -18.376 QT
cp
f
GR
GS
[0 -0.75 0.75 0 32.75 145.99989] CT
0.149 GC
N
66.567 -9.001 M
66.567 -14.251 L
64.989 -14.251 L
64.989 -14.736 L
66.239 -14.736 66.825 -15.892 QT
67.411 -17.048 67.411 -18.408 QT
67.958 -18.408 L
67.958 -14.908 L
70.63 -14.908 L
70.63 -14.251 L
67.958 -14.251 L
67.958 -9.033 L
67.958 -8.251 68.216 -7.658 QT
68.473 -7.064 69.161 -7.064 QT
69.817 -7.064 70.106 -7.689 QT
70.395 -8.314 70.395 -9.033 QT
70.395 -10.158 L
70.942 -10.158 L
70.942 -9.001 L
70.942 -8.408 70.723 -7.829 QT
70.505 -7.251 70.075 -6.876 QT
69.645 -6.501 69.036 -6.501 QT
67.895 -6.501 67.231 -7.189 QT
66.567 -7.876 66.567 -9.001 QT
cp
f
GR
GS
[0 -0.75 0.75 0 32.75 145.99989] CT
0.149 GC
N
72.683 -3.595 M
73.042 -3.314 73.48 -3.314 QT
74.667 -3.314 75.433 -5.126 QT
76.089 -6.72 L
73.23 -13.704 L
73.058 -14.048 72.699 -14.15 QT
72.339 -14.251 71.73 -14.251 QT
71.73 -14.908 L
75.714 -14.908 L
75.714 -14.251 L
74.667 -14.251 74.667 -13.783 QT
74.667 -13.72 74.699 -13.673 QT
76.808 -8.486 L
78.714 -13.158 L
78.761 -13.314 78.761 -13.486 QT
78.761 -13.72 78.636 -13.892 QT
78.511 -14.064 78.316 -14.158 QT
78.12 -14.251 77.87 -14.251 QT
77.87 -14.908 L
81.027 -14.908 L
81.027 -14.251 L
80.433 -14.251 79.995 -13.978 QT
79.558 -13.704 79.308 -13.173 QT
76.027 -5.126 L
75.761 -4.517 75.417 -4.001 QT
75.074 -3.486 74.574 -3.158 QT
74.074 -2.829 73.48 -2.829 QT
72.777 -2.829 72.253 -3.283 QT
71.73 -3.736 71.73 -4.423 QT
71.73 -4.767 71.972 -5.009 QT
72.214 -5.251 72.574 -5.251 QT
72.808 -5.251 72.995 -5.15 QT
73.183 -5.048 73.292 -4.861 QT
73.402 -4.673 73.402 -4.423 QT
73.402 -4.111 73.199 -3.869 QT
72.995 -3.626 72.683 -3.595 QT
cp
f
GR
GS
[0 -0.75 0.75 0 32.75 145.99989] CT
0.149 GC
N
89.741 -6.501 M
88.663 -6.501 88.187 -7.29 QT
87.71 -8.079 87.71 -9.22 QT
87.71 -9.97 87.843 -10.689 QT
87.976 -11.408 88.249 -12.15 QT
88.523 -12.892 88.882 -13.533 QT
89.241 -14.173 89.679 -14.798 QT
89.757 -14.908 89.898 -14.908 QT
90.007 -14.908 90.085 -14.837 QT
90.163 -14.767 90.163 -14.658 QT
90.163 -14.564 90.101 -14.47 QT
88.366 -12.095 88.366 -10.079 QT
88.366 -9.204 88.773 -8.579 QT
89.179 -7.954 90.007 -7.954 QT
90.726 -7.954 91.327 -8.369 QT
91.929 -8.783 92.382 -9.439 QT
92.382 -9.767 92.499 -10.478 QT
92.616 -11.189 92.859 -11.736 QT
93.101 -12.283 93.445 -12.283 QT
93.882 -12.283 93.882 -11.783 QT
93.882 -11.486 93.757 -11.033 QT
93.632 -10.579 93.476 -10.189 QT
93.32 -9.798 93.101 -9.314 QT
93.32 -7.954 94.46 -7.954 QT
95.116 -7.954 95.78 -8.337 QT
96.445 -8.72 96.952 -9.337 QT
97.46 -9.954 97.757 -10.665 QT
98.054 -11.376 98.054 -12.017 QT
98.054 -12.595 97.874 -12.915 QT
97.695 -13.236 97.398 -13.587 QT
97.101 -13.939 97.101 -14.158 QT
97.101 -14.517 97.413 -14.829 QT
97.726 -15.142 98.085 -15.142 QT
98.554 -15.142 98.749 -14.72 QT
98.945 -14.298 98.945 -13.751 QT
98.945 -12.876 98.593 -11.548 QT
98.241 -10.22 97.804 -9.345 QT
97.179 -8.142 96.257 -7.322 QT
95.335 -6.501 94.195 -6.501 QT
93.46 -6.501 93.007 -6.947 QT
92.554 -7.392 92.429 -8.142 QT
91.898 -7.392 91.218 -6.947 QT
90.538 -6.501 89.741 -6.501 QT
cp
f
GR
GS
[0 -0.75 0.75 0 32.75 145.99989] CT
0.149 GC
N
101.983 -14.287 M
101.186 -14.287 100.749 -14.896 QT
100.311 -15.506 100.311 -16.334 QT
100.311 -16.459 100.374 -16.81 QT
100.436 -17.162 100.436 -17.24 QT
101.702 -22.287 L
101.749 -22.521 101.765 -22.646 QT
101.765 -22.849 100.921 -22.849 QT
100.78 -22.849 100.78 -23.021 QT
100.796 -23.052 100.819 -23.138 QT
100.843 -23.224 100.874 -23.263 QT
100.905 -23.302 100.968 -23.302 QT
102.718 -23.443 L
102.89 -23.443 102.89 -23.287 QT
101.921 -19.443 L
102.655 -20.177 103.405 -20.177 QT
103.952 -20.177 104.351 -19.881 QT
104.749 -19.584 104.944 -19.107 QT
105.14 -18.631 105.14 -18.099 QT
105.14 -17.474 104.897 -16.802 QT
104.655 -16.131 104.226 -15.552 QT
103.796 -14.974 103.218 -14.631 QT
102.64 -14.287 101.983 -14.287 QT
cp
101.999 -14.631 M
102.452 -14.631 102.835 -14.998 QT
103.218 -15.365 103.468 -15.834 QT
103.733 -16.349 103.952 -17.24 QT
104.171 -18.131 104.171 -18.662 QT
104.171 -19.131 103.983 -19.482 QT
103.796 -19.834 103.374 -19.834 QT
102.905 -19.834 102.476 -19.49 QT
102.046 -19.146 101.718 -18.662 QT
101.358 -17.193 L
101.155 -16.381 101.14 -15.881 QT
101.14 -15.396 101.351 -15.013 QT
101.561 -14.631 101.999 -14.631 QT
cp
f
GR
GS
[0.75 0 0 0.75 0 0.5] CT
0 0.447 0.741 RC
1 LJ
2.667 LW
N
79 292.4 M
83.73 215.897 L
88.46 159.686 L
93.19 124.314 L
97.92 102.778 L
102.65 91.107 L
107.38 86.81 L
112.11 87.99 L
116.84 93.351 L
121.57 101.577 L
126.3 111.801 L
131.03 122.94 L
135.76 134.901 L
140.49 147.172 L
145.22 159.365 L
149.95 171.224 L
154.68 182.566 L
159.41 193.271 L
164.14 203.267 L
168.87 212.517 L
173.6 221.015 L
178.33 228.772 L
183.06 235.814 L
187.79 242.179 L
192.52 247.909 L
197.25 253.048 L
201.98 257.644 L
206.71 261.743 L
211.44 265.39 L
216.17 268.629 L
220.9 271.499 L
225.63 274.038 L
230.36 276.281 L
235.09 278.261 L
239.82 280.005 L
244.55 281.54 L
249.28 282.89 L
254.01 284.076 L
258.74 285.118 L
263.47 286.031 L
268.2 286.832 L
272.93 287.534 L
277.66 288.148 L
282.39 288.686 L
287.12 289.157 L
291.85 289.569 L
296.58 289.93 L
301.31 290.245 L
306.04 290.52 L
310.77 290.761 L
315.5 290.971 L
320.23 291.154 L
324.96 291.314 L
329.69 291.453 L
334.42 291.574 L
339.15 291.68 L
343.88 291.772 L
348.61 291.853 L
353.34 291.923 L
358.07 291.984 L
362.8 292.037 L
367.53 292.083 L
372.26 292.123 L
376.99 292.159 L
381.72 292.189 L
386.45 292.216 L
391.18 292.24 L
395.91 292.26 L
400.64 292.278 L
405.37 292.293 L
410.1 292.307 L
414.83 292.319 L
419.56 292.329 L
424.29 292.338 L
429.02 292.346 L
433.75 292.353 L
438.48 292.359 L
443.21 292.364 L
447.94 292.369 L
452.67 292.373 L
457.4 292.376 L
462.13 292.379 L
466.86 292.382 L
471.59 292.384 L
476.32 292.386 L
481.05 292.388 L
485.78 292.389 L
490.51 292.391 L
495.24 292.392 L
499.97 292.393 L
504.7 292.394 L
509.43 292.395 L
514.16 292.395 L
518.89 292.396 L
523.62 292.396 L
528.35 292.397 L
533.08 292.397 L
537.81 292.398 L
542.54 292.398 L
547.27 292.398 L
552 292.398 L
S
GR
GS
[0.75 0 0 0.75 0 0.5] CT
0.851 0.325 0.098 RC
1 LJ
2.667 LW
N
79 292.4 M
83.73 260.712 L
88.46 237.428 L
93.19 222.777 L
97.92 213.856 L
102.65 209.022 L
107.38 207.242 L
112.11 207.731 L
116.84 209.951 L
121.57 213.359 L
126.3 217.593 L
131.03 222.208 L
135.76 227.162 L
140.49 232.244 L
145.22 237.295 L
149.95 242.207 L
154.68 246.905 L
159.41 251.34 L
164.14 255.48 L
168.87 259.312 L
173.6 262.831 L
178.33 266.044 L
183.06 268.961 L
187.79 271.598 L
192.52 273.971 L
197.25 276.1 L
201.98 278.004 L
206.71 279.702 L
211.44 281.212 L
216.17 282.554 L
220.9 283.742 L
225.63 284.794 L
230.36 285.723 L
235.09 286.543 L
239.82 287.266 L
244.55 287.902 L
249.28 288.461 L
254.01 288.952 L
258.74 289.384 L
263.47 289.762 L
268.2 290.094 L
272.93 290.384 L
277.66 290.639 L
282.39 290.862 L
287.12 291.057 L
291.85 291.227 L
296.58 291.377 L
301.31 291.507 L
306.04 291.621 L
310.77 291.721 L
315.5 291.808 L
320.23 291.884 L
324.96 291.95 L
329.69 292.008 L
334.42 292.058 L
339.15 292.102 L
343.88 292.14 L
348.61 292.173 L
353.34 292.202 L
358.07 292.227 L
362.8 292.25 L
367.53 292.269 L
372.26 292.285 L
376.99 292.3 L
381.72 292.313 L
386.45 292.324 L
391.18 292.334 L
395.91 292.342 L
400.64 292.349 L
405.37 292.356 L
410.1 292.361 L
414.83 292.366 L
419.56 292.371 L
424.29 292.374 L
429.02 292.378 L
433.75 292.38 L
438.48 292.383 L
443.21 292.385 L
447.94 292.387 L
452.67 292.389 L
457.4 292.39 L
462.13 292.391 L
466.86 292.392 L
471.59 292.393 L
476.32 292.394 L
481.05 292.395 L
485.78 292.396 L
490.51 292.396 L
495.24 292.397 L
499.97 292.397 L
504.7 292.397 L
509.43 292.398 L
514.16 292.398 L
518.89 292.398 L
523.62 292.399 L
528.35 292.399 L
533.08 292.399 L
537.81 292.399 L
542.54 292.399 L
547.27 292.399 L
552 292.399 L
S
GR
GS
[0.75 0 0 0.75 0 0.5] CT
0.929 0.694 0.125 RC
1 LJ
2.667 LW
N
79 292.4 M
83.73 312.899 L
88.46 327.961 L
93.19 337.438 L
97.92 343.209 L
102.65 346.336 L
107.38 347.488 L
112.11 347.172 L
116.84 345.735 L
121.57 343.531 L
126.3 340.791 L
131.03 337.807 L
135.76 334.602 L
140.49 331.314 L
145.22 328.046 L
149.95 324.869 L
154.68 321.83 L
159.41 318.961 L
164.14 316.283 L
168.87 313.804 L
173.6 311.528 L
178.33 309.449 L
183.06 307.562 L
187.79 305.857 L
192.52 304.321 L
197.25 302.944 L
201.98 301.713 L
206.71 300.615 L
211.44 299.637 L
216.17 298.769 L
220.9 298 L
225.63 297.32 L
230.36 296.719 L
235.09 296.189 L
239.82 295.721 L
244.55 295.31 L
249.28 294.948 L
254.01 294.63 L
258.74 294.351 L
263.47 294.107 L
268.2 293.892 L
272.93 293.704 L
277.66 293.539 L
282.39 293.395 L
287.12 293.269 L
291.85 293.159 L
296.58 293.062 L
301.31 292.977 L
306.04 292.904 L
310.77 292.839 L
315.5 292.783 L
320.23 292.734 L
324.96 292.691 L
329.69 292.654 L
334.42 292.621 L
339.15 292.593 L
343.88 292.568 L
348.61 292.547 L
353.34 292.528 L
358.07 292.512 L
362.8 292.497 L
367.53 292.485 L
372.26 292.474 L
376.99 292.465 L
381.72 292.456 L
386.45 292.449 L
391.18 292.443 L
395.91 292.438 L
400.64 292.433 L
405.37 292.429 L
410.1 292.425 L
414.83 292.422 L
419.56 292.419 L
424.29 292.417 L
429.02 292.414 L
433.75 292.413 L
438.48 292.411 L
443.21 292.41 L
447.94 292.408 L
452.67 292.407 L
457.4 292.406 L
462.13 292.406 L
466.86 292.405 L
471.59 292.404 L
476.32 292.404 L
481.05 292.403 L
485.78 292.403 L
490.51 292.402 L
495.24 292.402 L
499.97 292.402 L
504.7 292.402 L
509.43 292.401 L
514.16 292.401 L
518.89 292.401 L
523.62 292.401 L
528.35 292.401 L
533.08 292.401 L
537.81 292.401 L
542.54 292.401 L
547.27 292.4 L
552 292.4 L
S
GR
GS
[0.75 0 0 0.75 0 0.5] CT
1 GC
N
541 111 M
541 41 L
473 41 L
473 111 L
cp
f
GR
GS
[0.75 0 0 0.75 389.62939 40.86919] CT
N
2.063 4.859 M
1.094 4.859 0.664 4.156 QT
0.234 3.453 0.234 2.437 QT
0.234 1.765 0.359 1.117 QT
0.484 0.468 0.727 -0.188 QT
0.969 -0.844 1.289 -1.422 QT
1.609 -2.001 2 -2.547 QT
2.063 -2.657 2.188 -2.657 QT
2.297 -2.657 2.367 -2.594 QT
2.438 -2.532 2.438 -2.438 QT
2.438 -2.344 2.375 -2.266 QT
0.828 -0.141 0.828 1.671 QT
0.828 2.453 1.188 3.007 QT
1.547 3.562 2.297 3.562 QT
2.938 3.562 3.477 3.195 QT
4.016 2.828 4.422 2.234 QT
4.422 1.937 4.523 1.304 QT
4.625 0.671 4.844 0.179 QT
5.063 -0.313 5.375 -0.313 QT
5.766 -0.313 5.766 0.14 QT
5.766 0.406 5.648 0.812 QT
5.531 1.218 5.398 1.57 QT
5.266 1.921 5.063 2.359 QT
5.266 3.562 6.281 3.562 QT
6.859 3.562 7.453 3.226 QT
8.047 2.89 8.508 2.335 QT
8.969 1.781 9.227 1.14 QT
9.484 0.499 9.484 -0.063 QT
9.484 -0.579 9.328 -0.868 QT
9.172 -1.157 8.906 -1.469 QT
8.641 -1.782 8.641 -1.985 QT
8.641 -2.313 8.922 -2.586 QT
9.203 -2.86 9.516 -2.86 QT
9.938 -2.86 10.109 -2.485 QT
10.281 -2.11 10.281 -1.626 QT
10.281 -0.844 9.969 0.343 QT
9.656 1.531 9.266 2.328 QT
8.719 3.39 7.891 4.124 QT
7.063 4.859 6.031 4.859 QT
5.375 4.859 4.977 4.468 QT
4.578 4.078 4.453 3.39 QT
3.984 4.062 3.375 4.46 QT
2.766 4.859 2.063 4.859 QT
cp
f
GR
GS
[0.75 0 0 0.75 389.62939 40.86919] CT
N
13.489 -2.345 M
12.755 -2.345 12.356 -2.915 QT
11.958 -3.485 11.958 -4.251 QT
11.958 -4.36 12.013 -4.689 QT
12.067 -5.017 12.067 -5.095 QT
13.224 -9.751 L
13.27 -9.954 13.286 -10.064 QT
13.286 -10.267 12.505 -10.267 QT
12.38 -10.267 12.38 -10.423 QT
12.395 -10.454 12.411 -10.525 QT
12.427 -10.595 12.458 -10.642 QT
12.489 -10.689 12.552 -10.689 QT
14.177 -10.814 L
14.317 -10.814 14.317 -10.657 QT
13.427 -7.126 L
14.114 -7.782 14.802 -7.782 QT
15.302 -7.782 15.669 -7.517 QT
16.036 -7.251 16.224 -6.814 QT
16.411 -6.376 16.411 -5.876 QT
16.411 -5.298 16.185 -4.681 QT
15.958 -4.064 15.56 -3.532 QT
15.161 -3.001 14.622 -2.673 QT
14.083 -2.345 13.489 -2.345 QT
cp
13.505 -2.673 M
13.927 -2.673 14.278 -3.017 QT
14.63 -3.36 14.864 -3.782 QT
15.099 -4.267 15.31 -5.087 QT
15.52 -5.907 15.52 -6.407 QT
15.52 -6.829 15.341 -7.157 QT
15.161 -7.485 14.77 -7.485 QT
14.333 -7.485 13.942 -7.165 QT
13.552 -6.845 13.239 -6.407 QT
12.911 -5.048 L
12.724 -4.282 12.708 -3.829 QT
12.708 -3.376 12.903 -3.025 QT
13.099 -2.673 13.505 -2.673 QT
cp
f
GR
GS
[0.75 0 0 0.75 389.62939 40.86919] CT
N
11.899 8.956 M
11.899 8.535 L
13.399 8.535 13.399 8.16 QT
13.399 1.847 L
12.789 2.16 11.836 2.16 QT
11.836 1.738 L
13.305 1.738 14.055 0.956 QT
14.227 0.956 L
14.258 0.956 14.297 0.995 QT
14.336 1.035 14.336 1.066 QT
14.336 8.16 L
14.336 8.535 15.836 8.535 QT
15.836 8.956 L
11.899 8.956 L
cp
f
GR
GS
[0.75 0 0 0.75 0 0.5] CT
0 0.447 0.741 RC
1 LJ
2.667 LW
N
476.958 53.826 M
516.537 53.826 L
S
GR
GS
[0.75 0 0 0.75 389.62939 57.5] CT
N
/f-1716600277{2.063 4.859 M
1.094 4.859 0.664 4.156 QT
0.234 3.453 0.234 2.437 QT
0.234 1.765 0.359 1.117 QT
0.484 0.468 0.727 -0.188 QT
0.969 -0.844 1.289 -1.422 QT
1.609 -2.001 2 -2.547 QT
2.063 -2.657 2.188 -2.657 QT
2.297 -2.657 2.367 -2.594 QT
2.438 -2.532 2.438 -2.438 QT
2.438 -2.344 2.375 -2.266 QT
0.828 -0.141 0.828 1.671 QT
0.828 2.453 1.188 3.007 QT
1.547 3.562 2.297 3.562 QT
2.938 3.562 3.477 3.195 QT
4.016 2.828 4.422 2.234 QT
4.422 1.937 4.523 1.304 QT
4.625 0.671 4.844 0.179 QT
5.063 -0.313 5.375 -0.313 QT
5.766 -0.313 5.766 0.14 QT
5.766 0.406 5.648 0.812 QT
5.531 1.218 5.398 1.57 QT
5.266 1.921 5.063 2.359 QT
5.266 3.562 6.281 3.562 QT
6.859 3.562 7.453 3.226 QT
8.047 2.89 8.508 2.335 QT
8.969 1.781 9.227 1.14 QT
9.484 0.499 9.484 -0.063 QT
9.484 -0.579 9.328 -0.868 QT
9.172 -1.157 8.906 -1.469 QT
8.641 -1.782 8.641 -1.985 QT
8.641 -2.313 8.922 -2.586 QT
9.203 -2.86 9.516 -2.86 QT
9.938 -2.86 10.109 -2.485 QT
10.281 -2.11 10.281 -1.626 QT
10.281 -0.844 9.969 0.343 QT
9.656 1.531 9.266 2.328 QT
8.719 3.39 7.891 4.124 QT
7.063 4.859 6.031 4.859 QT
5.375 4.859 4.977 4.468 QT
4.578 4.078 4.453 3.39 QT
3.984 4.062 3.375 4.46 QT
2.766 4.859 2.063 4.859 QT
cp}def
f-1716600277
f
GR
GS
[0.75 0 0 0.75 389.62939 57.5] CT
N
/f1506853755{13.489 -2.345 M
12.755 -2.345 12.356 -2.915 QT
11.958 -3.485 11.958 -4.251 QT
11.958 -4.36 12.013 -4.689 QT
12.067 -5.017 12.067 -5.095 QT
13.224 -9.751 L
13.27 -9.954 13.286 -10.064 QT
13.286 -10.267 12.505 -10.267 QT
12.38 -10.267 12.38 -10.423 QT
12.395 -10.454 12.411 -10.525 QT
12.427 -10.595 12.458 -10.642 QT
12.489 -10.689 12.552 -10.689 QT
14.177 -10.814 L
14.317 -10.814 14.317 -10.657 QT
13.427 -7.126 L
14.114 -7.782 14.802 -7.782 QT
15.302 -7.782 15.669 -7.517 QT
16.036 -7.251 16.224 -6.814 QT
16.411 -6.376 16.411 -5.876 QT
16.411 -5.298 16.185 -4.681 QT
15.958 -4.064 15.56 -3.532 QT
15.161 -3.001 14.622 -2.673 QT
14.083 -2.345 13.489 -2.345 QT
cp
13.505 -2.673 M
13.927 -2.673 14.278 -3.017 QT
14.63 -3.36 14.864 -3.782 QT
15.099 -4.267 15.31 -5.087 QT
15.52 -5.907 15.52 -6.407 QT
15.52 -6.829 15.341 -7.157 QT
15.161 -7.485 14.77 -7.485 QT
14.333 -7.485 13.942 -7.165 QT
13.552 -6.845 13.239 -6.407 QT
12.911 -5.048 L
12.724 -4.282 12.708 -3.829 QT
12.708 -3.376 12.903 -3.025 QT
13.099 -2.673 13.505 -2.673 QT
cp}def
f1506853755
f
GR
GS
[0.75 0 0 0.75 389.62939 57.5] CT
N
/f-1467253483{11.383 8.956 M
11.383 8.628 L
11.383 8.597 11.414 8.566 QT
13.274 6.503 L
13.695 6.05 13.961 5.738 QT
14.227 5.425 14.485 5.019 QT
14.742 4.613 14.891 4.199 QT
15.039 3.785 15.039 3.316 QT
15.039 2.816 14.86 2.37 QT
14.68 1.925 14.32 1.652 QT
13.961 1.378 13.445 1.378 QT
12.93 1.378 12.508 1.699 QT
12.086 2.019 11.914 2.503 QT
11.961 2.503 12.055 2.503 QT
12.32 2.503 12.508 2.683 QT
12.695 2.863 12.695 3.144 QT
12.695 3.425 12.508 3.613 QT
12.32 3.8 12.055 3.8 QT
11.774 3.8 11.578 3.605 QT
11.383 3.41 11.383 3.144 QT
11.383 2.691 11.555 2.3 QT
11.727 1.91 12.047 1.597 QT
12.367 1.285 12.766 1.12 QT
13.164 0.956 13.617 0.956 QT
14.305 0.956 14.899 1.253 QT
15.492 1.55 15.836 2.074 QT
16.18 2.597 16.18 3.316 QT
16.18 3.831 15.953 4.3 QT
15.727 4.769 15.367 5.152 QT
15.008 5.535 14.453 6.027 QT
13.899 6.519 13.727 6.675 QT
12.367 7.988 L
13.508 7.988 L
14.367 7.988 14.938 7.972 QT
15.508 7.956 15.539 7.925 QT
15.68 7.769 15.836 6.816 QT
16.18 6.816 L
15.836 8.956 L
11.383 8.956 L
cp}def
f-1467253483
f
GR
GS
[0.75 0 0 0.75 0 0.5] CT
0.851 0.325 0.098 RC
1 LJ
2.667 LW
N
476.958 76 M
516.537 76 L
S
GR
GS
[0.75 0 0 0.75 389.62939 74.13082] CT
N
f-1716600277
f
GR
GS
[0.75 0 0 0.75 389.62939 74.13082] CT
N
f1506853755
f
GR
GS
[0.75 0 0 0.75 389.62939 74.13082] CT
N
/f2099544382{11.93 8.035 M
12.211 8.441 12.688 8.636 QT
13.164 8.831 13.711 8.831 QT
14.399 8.831 14.695 8.238 QT
14.992 7.644 14.992 6.894 QT
14.992 6.55 14.93 6.214 QT
14.867 5.878 14.719 5.581 QT
14.57 5.285 14.32 5.113 QT
14.07 4.941 13.695 4.941 QT
12.899 4.941 L
12.789 4.941 12.789 4.831 QT
12.789 4.722 L
12.789 4.628 12.899 4.628 QT
13.555 4.566 L
13.977 4.566 14.258 4.253 QT
14.539 3.941 14.672 3.488 QT
14.805 3.035 14.805 2.628 QT
14.805 2.05 14.531 1.683 QT
14.258 1.316 13.711 1.316 QT
13.258 1.316 12.836 1.488 QT
12.414 1.66 12.18 2.003 QT
12.195 2.003 12.211 1.995 QT
12.227 1.988 12.258 1.988 QT
12.524 1.988 12.703 2.175 QT
12.883 2.363 12.883 2.628 QT
12.883 2.894 12.703 3.081 QT
12.524 3.269 12.258 3.269 QT
11.992 3.269 11.805 3.081 QT
11.617 2.894 11.617 2.628 QT
11.617 2.113 11.93 1.738 QT
12.242 1.363 12.727 1.16 QT
13.211 0.956 13.711 0.956 QT
14.07 0.956 14.477 1.066 QT
14.883 1.175 15.211 1.378 QT
15.539 1.581 15.742 1.902 QT
15.945 2.222 15.945 2.628 QT
15.945 3.128 15.727 3.558 QT
15.508 3.988 15.11 4.292 QT
14.711 4.597 14.242 4.753 QT
14.774 4.847 15.242 5.144 QT
15.711 5.441 15.992 5.894 QT
16.274 6.347 16.274 6.878 QT
16.274 7.55 15.914 8.081 QT
15.555 8.613 14.961 8.917 QT
14.367 9.222 13.711 9.222 QT
13.149 9.222 12.578 9.003 QT
12.008 8.785 11.649 8.363 QT
11.289 7.941 11.289 7.331 QT
11.289 7.035 11.492 6.839 QT
11.695 6.644 11.992 6.644 QT
12.18 6.644 12.344 6.73 QT
12.508 6.816 12.602 6.98 QT
12.695 7.144 12.695 7.331 QT
12.695 7.628 12.485 7.831 QT
12.274 8.035 11.992 8.035 QT
11.93 8.035 L
cp}def
f2099544382
f
GR
GS
[0.75 0 0 0.75 0 0.5] CT
0.929 0.694 0.125 RC
1 LJ
2.667 LW
N
476.958 98.174 M
516.537 98.174 L
S
GR
GS
[0.75 0 0 0.75 0 0.5] CT
0.149 GC
10.0 ML
0.667 LW
N
473 111 M
473 41 L
541 41 L
541 111 L
cp
S
GR
%%Trailer
%%Pages: 1
%%EOF
