%!PS-Adobe-3.0 EPSF-3.0
%%Creator: (MATLAB, The Mathworks, Inc. Version 9.6.0.1072779 \(R2019a\). Operating System: Linux)
%%Title: ./plot/ContSystem_zeroth/plot_q.eps
%%CreationDate: 2019-05-01T16:16:26
%%Pages: (atend)
%%BoundingBox:    16     2   413   281
%%LanguageLevel: 3
%%EndComments
%%BeginProlog
%%BeginResource: procset (Apache XML Graphics Std ProcSet) 1.2 0
%%Version: 1.2 0
%%Copyright: (Copyright 2001-2003,2010 The Apache Software Foundation. License terms: http://www.apache.org/licenses/LICENSE-2.0)
/bd{bind def}bind def
/ld{load def}bd
/GR/grestore ld
/GS/gsave ld
/RM/rmoveto ld
/C/curveto ld
/t/show ld
/L/lineto ld
/ML/setmiterlimit ld
/CT/concat ld
/f/fill ld
/N/newpath ld
/S/stroke ld
/CC/setcmykcolor ld
/A/ashow ld
/cp/closepath ld
/RC/setrgbcolor ld
/LJ/setlinejoin ld
/GC/setgray ld
/LW/setlinewidth ld
/M/moveto ld
/re {4 2 roll M
1 index 0 rlineto
0 exch rlineto
neg 0 rlineto
cp } bd
/_ctm matrix def
/_tm matrix def
/BT { _ctm currentmatrix pop matrix _tm copy pop 0 0 moveto } bd
/ET { _ctm setmatrix } bd
/iTm { _ctm setmatrix _tm concat } bd
/Tm { _tm astore pop iTm 0 0 moveto } bd
/ux 0.0 def
/uy 0.0 def
/F {
  /Tp exch def
  /Tf exch def
  Tf findfont Tp scalefont setfont
  /cf Tf def  /cs Tp def
} bd
/ULS {currentpoint /uy exch def /ux exch def} bd
/ULE {
  /Tcx currentpoint pop def
  gsave
  newpath
  cf findfont cs scalefont dup
  /FontMatrix get 0 get /Ts exch def /FontInfo get dup
  /UnderlinePosition get Ts mul /To exch def
  /UnderlineThickness get Ts mul /Tt exch def
  ux uy To add moveto  Tcx uy To add lineto
  Tt setlinewidth stroke
  grestore
} bd
/OLE {
  /Tcx currentpoint pop def
  gsave
  newpath
  cf findfont cs scalefont dup
  /FontMatrix get 0 get /Ts exch def /FontInfo get dup
  /UnderlinePosition get Ts mul /To exch def
  /UnderlineThickness get Ts mul /Tt exch def
  ux uy To add cs add moveto Tcx uy To add cs add lineto
  Tt setlinewidth stroke
  grestore
} bd
/SOE {
  /Tcx currentpoint pop def
  gsave
  newpath
  cf findfont cs scalefont dup
  /FontMatrix get 0 get /Ts exch def /FontInfo get dup
  /UnderlinePosition get Ts mul /To exch def
  /UnderlineThickness get Ts mul /Tt exch def
  ux uy To add cs 10 mul 26 idiv add moveto Tcx uy To add cs 10 mul 26 idiv add lineto
  Tt setlinewidth stroke
  grestore
} bd
/QT {
/Y22 exch store
/X22 exch store
/Y21 exch store
/X21 exch store
currentpoint
/Y21 load 2 mul add 3 div exch
/X21 load 2 mul add 3 div exch
/X21 load 2 mul /X22 load add 3 div
/Y21 load 2 mul /Y22 load add 3 div
/X22 load /Y22 load curveto
} bd
/SSPD {
dup length /d exch dict def
{
/v exch def
/k exch def
currentpagedevice k known {
/cpdv currentpagedevice k get def
v cpdv ne {
/upd false def
/nullv v type /nulltype eq def
/nullcpdv cpdv type /nulltype eq def
nullv nullcpdv or
{
/upd true def
} {
/sametype v type cpdv type eq def
sametype {
v type /arraytype eq {
/vlen v length def
/cpdvlen cpdv length def
vlen cpdvlen eq {
0 1 vlen 1 sub {
/i exch def
/obj v i get def
/cpdobj cpdv i get def
obj cpdobj ne {
/upd true def
exit
} if
} for
} {
/upd true def
} ifelse
} {
v type /dicttype eq {
v {
/dv exch def
/dk exch def
/cpddv cpdv dk get def
dv cpddv ne {
/upd true def
exit
} if
} forall
} {
/upd true def
} ifelse
} ifelse
} if
} ifelse
upd true eq {
d k v put
} if
} if
} if
} forall
d length 0 gt {
d setpagedevice
} if
} bd
/RE { % /NewFontName [NewEncodingArray] /FontName RE -
  findfont dup length dict begin
  {
    1 index /FID ne
    {def} {pop pop} ifelse
  } forall
  /Encoding exch def
  /FontName 1 index def
  currentdict definefont pop
  end
} bind def
%%EndResource
%%BeginResource: procset (Apache XML Graphics EPS ProcSet) 1.0 0
%%Version: 1.0 0
%%Copyright: (Copyright 2002-2003 The Apache Software Foundation. License terms: http://www.apache.org/licenses/LICENSE-2.0)
/BeginEPSF { %def
/b4_Inc_state save def         % Save state for cleanup
/dict_count countdictstack def % Count objects on dict stack
/op_count count 1 sub def      % Count objects on operand stack
userdict begin                 % Push userdict on dict stack
/showpage { } def              % Redefine showpage, { } = null proc
0 setgray 0 setlinecap         % Prepare graphics state
1 setlinewidth 0 setlinejoin
10 setmiterlimit [ ] 0 setdash newpath
/languagelevel where           % If level not equal to 1 then
{pop languagelevel             % set strokeadjust and
1 ne                           % overprint to their defaults.
{false setstrokeadjust false setoverprint
} if
} if
} bd
/EndEPSF { %def
count op_count sub {pop} repeat            % Clean up stacks
countdictstack dict_count sub {end} repeat
b4_Inc_state restore
} bd
%%EndResource
%FOPBeginFontDict
%%IncludeResource: font Courier-Oblique
%%IncludeResource: font Courier-BoldOblique
%%IncludeResource: font Courier-Bold
%%IncludeResource: font ZapfDingbats
%%IncludeResource: font Symbol
%%IncludeResource: font Helvetica
%%IncludeResource: font Helvetica-Oblique
%%IncludeResource: font Helvetica-Bold
%%IncludeResource: font Helvetica-BoldOblique
%%IncludeResource: font Times-Roman
%%IncludeResource: font Times-Italic
%%IncludeResource: font Times-Bold
%%IncludeResource: font Times-BoldItalic
%%IncludeResource: font Courier
%FOPEndFontDict
%%BeginResource: encoding WinAnsiEncoding
/WinAnsiEncoding [
/.notdef /.notdef /.notdef /.notdef /.notdef
/.notdef /.notdef /.notdef /.notdef /.notdef
/.notdef /.notdef /.notdef /.notdef /.notdef
/.notdef /.notdef /.notdef /.notdef /.notdef
/.notdef /.notdef /.notdef /.notdef /.notdef
/.notdef /.notdef /.notdef /.notdef /.notdef
/.notdef /.notdef /space /exclam /quotedbl
/numbersign /dollar /percent /ampersand /quotesingle
/parenleft /parenright /asterisk /plus /comma
/hyphen /period /slash /zero /one
/two /three /four /five /six
/seven /eight /nine /colon /semicolon
/less /equal /greater /question /at
/A /B /C /D /E
/F /G /H /I /J
/K /L /M /N /O
/P /Q /R /S /T
/U /V /W /X /Y
/Z /bracketleft /backslash /bracketright /asciicircum
/underscore /quoteleft /a /b /c
/d /e /f /g /h
/i /j /k /l /m
/n /o /p /q /r
/s /t /u /v /w
/x /y /z /braceleft /bar
/braceright /asciitilde /bullet /Euro /bullet
/quotesinglbase /florin /quotedblbase /ellipsis /dagger
/daggerdbl /circumflex /perthousand /Scaron /guilsinglleft
/OE /bullet /Zcaron /bullet /bullet
/quoteleft /quoteright /quotedblleft /quotedblright /bullet
/endash /emdash /asciitilde /trademark /scaron
/guilsinglright /oe /bullet /zcaron /Ydieresis
/space /exclamdown /cent /sterling /currency
/yen /brokenbar /section /dieresis /copyright
/ordfeminine /guillemotleft /logicalnot /sfthyphen /registered
/macron /degree /plusminus /twosuperior /threesuperior
/acute /mu /paragraph /middot /cedilla
/onesuperior /ordmasculine /guillemotright /onequarter /onehalf
/threequarters /questiondown /Agrave /Aacute /Acircumflex
/Atilde /Adieresis /Aring /AE /Ccedilla
/Egrave /Eacute /Ecircumflex /Edieresis /Igrave
/Iacute /Icircumflex /Idieresis /Eth /Ntilde
/Ograve /Oacute /Ocircumflex /Otilde /Odieresis
/multiply /Oslash /Ugrave /Uacute /Ucircumflex
/Udieresis /Yacute /Thorn /germandbls /agrave
/aacute /acircumflex /atilde /adieresis /aring
/ae /ccedilla /egrave /eacute /ecircumflex
/edieresis /igrave /iacute /icircumflex /idieresis
/eth /ntilde /ograve /oacute /ocircumflex
/otilde /odieresis /divide /oslash /ugrave
/uacute /ucircumflex /udieresis /yacute /thorn
/ydieresis
] def
%%EndResource
%FOPBeginFontReencode
/Courier-Oblique findfont
dup length dict begin
  {1 index /FID ne {def} {pop pop} ifelse} forall
  /Encoding WinAnsiEncoding def
  currentdict
end
/Courier-Oblique exch definefont pop
/Courier-BoldOblique findfont
dup length dict begin
  {1 index /FID ne {def} {pop pop} ifelse} forall
  /Encoding WinAnsiEncoding def
  currentdict
end
/Courier-BoldOblique exch definefont pop
/Courier-Bold findfont
dup length dict begin
  {1 index /FID ne {def} {pop pop} ifelse} forall
  /Encoding WinAnsiEncoding def
  currentdict
end
/Courier-Bold exch definefont pop
/Helvetica findfont
dup length dict begin
  {1 index /FID ne {def} {pop pop} ifelse} forall
  /Encoding WinAnsiEncoding def
  currentdict
end
/Helvetica exch definefont pop
/Helvetica-Oblique findfont
dup length dict begin
  {1 index /FID ne {def} {pop pop} ifelse} forall
  /Encoding WinAnsiEncoding def
  currentdict
end
/Helvetica-Oblique exch definefont pop
/Helvetica-Bold findfont
dup length dict begin
  {1 index /FID ne {def} {pop pop} ifelse} forall
  /Encoding WinAnsiEncoding def
  currentdict
end
/Helvetica-Bold exch definefont pop
/Helvetica-BoldOblique findfont
dup length dict begin
  {1 index /FID ne {def} {pop pop} ifelse} forall
  /Encoding WinAnsiEncoding def
  currentdict
end
/Helvetica-BoldOblique exch definefont pop
/Times-Roman findfont
dup length dict begin
  {1 index /FID ne {def} {pop pop} ifelse} forall
  /Encoding WinAnsiEncoding def
  currentdict
end
/Times-Roman exch definefont pop
/Times-Italic findfont
dup length dict begin
  {1 index /FID ne {def} {pop pop} ifelse} forall
  /Encoding WinAnsiEncoding def
  currentdict
end
/Times-Italic exch definefont pop
/Times-Bold findfont
dup length dict begin
  {1 index /FID ne {def} {pop pop} ifelse} forall
  /Encoding WinAnsiEncoding def
  currentdict
end
/Times-Bold exch definefont pop
/Times-BoldItalic findfont
dup length dict begin
  {1 index /FID ne {def} {pop pop} ifelse} forall
  /Encoding WinAnsiEncoding def
  currentdict
end
/Times-BoldItalic exch definefont pop
/Courier findfont
dup length dict begin
  {1 index /FID ne {def} {pop pop} ifelse} forall
  /Encoding WinAnsiEncoding def
  currentdict
end
/Courier exch definefont pop
%FOPEndFontReencode
%%EndProlog
%%Page: 1 1
%%PageBoundingBox: 0 0 450 300
%%BeginPageSetup
[1 0 0 -1 0 300] CT
%%EndPageSetup
GS
[0.75 0 0 0.75 0 0] CT
1 GC
N
0 0 600 400 re
f
GR
GS
[0.75 0 0 0.75 0 0] CT
1 GC
N
0 0 600 400 re
f
GR
GS
[0.75 0 0 0.75 0 0] CT
1 GC
N
78 356 M
543 356 L
543 30 L
78 30 L
cp
f
GR
GS
[0.75 0 0 0.75 0 0] CT
0.873 GC
1 LJ
0.667 LW
N
78 356 M
78 30 L
S
GR
GS
[0.75 0 0 0.75 0 0] CT
0.873 GC
1 LJ
0.667 LW
N
171 356 M
171 30 L
S
GR
GS
[0.75 0 0 0.75 0 0] CT
0.873 GC
1 LJ
0.667 LW
N
264 356 M
264 30 L
S
GR
GS
[0.75 0 0 0.75 0 0] CT
0.873 GC
1 LJ
0.667 LW
N
357 356 M
357 30 L
S
GR
GS
[0.75 0 0 0.75 0 0] CT
0.873 GC
1 LJ
0.667 LW
N
450 356 M
450 30 L
S
GR
GS
[0.75 0 0 0.75 0 0] CT
0.873 GC
1 LJ
0.667 LW
N
543 356 M
543 30 L
S
GR
GS
[0.75 0 0 0.75 0 0] CT
0.873 GC
1 LJ
0.667 LW
N
543 356 M
78 356 L
S
GR
GS
[0.75 0 0 0.75 0 0] CT
0.873 GC
1 LJ
0.667 LW
N
543 323.4 M
78 323.4 L
S
GR
GS
[0.75 0 0 0.75 0 0] CT
0.873 GC
1 LJ
0.667 LW
N
543 290.8 M
78 290.8 L
S
GR
GS
[0.75 0 0 0.75 0 0] CT
0.873 GC
1 LJ
0.667 LW
N
543 258.2 M
78 258.2 L
S
GR
GS
[0.75 0 0 0.75 0 0] CT
0.873 GC
1 LJ
0.667 LW
N
543 225.6 M
78 225.6 L
S
GR
GS
[0.75 0 0 0.75 0 0] CT
0.873 GC
1 LJ
0.667 LW
N
543 193 M
78 193 L
S
GR
GS
[0.75 0 0 0.75 0 0] CT
0.873 GC
1 LJ
0.667 LW
N
543 160.4 M
78 160.4 L
S
GR
GS
[0.75 0 0 0.75 0 0] CT
0.873 GC
1 LJ
0.667 LW
N
543 127.8 M
78 127.8 L
S
GR
GS
[0.75 0 0 0.75 0 0] CT
0.873 GC
1 LJ
0.667 LW
N
543 95.2 M
78 95.2 L
S
GR
GS
[0.75 0 0 0.75 0 0] CT
0.873 GC
1 LJ
0.667 LW
N
543 62.6 M
78 62.6 L
S
GR
GS
[0.75 0 0 0.75 0 0] CT
0.873 GC
1 LJ
0.667 LW
N
543 30 M
78 30 L
S
GR
GS
[0.75 0 0 0.75 0 0] CT
0.149 GC
2 setlinecap
1 LJ
0.667 LW
N
78 356 M
543 356 L
S
GR
GS
[0.75 0 0 0.75 0 0] CT
0.149 GC
2 setlinecap
1 LJ
0.667 LW
N
78 30 M
543 30 L
S
GR
GS
[0.75 0 0 0.75 0 0] CT
0.149 GC
2 setlinecap
1 LJ
0.667 LW
N
78 356 M
78 351.35 L
S
GR
GS
[0.75 0 0 0.75 0 0] CT
0.149 GC
2 setlinecap
1 LJ
0.667 LW
N
171 356 M
171 351.35 L
S
GR
GS
[0.75 0 0 0.75 0 0] CT
0.149 GC
2 setlinecap
1 LJ
0.667 LW
N
264 356 M
264 351.35 L
S
GR
GS
[0.75 0 0 0.75 0 0] CT
0.149 GC
2 setlinecap
1 LJ
0.667 LW
N
357 356 M
357 351.35 L
S
GR
GS
[0.75 0 0 0.75 0 0] CT
0.149 GC
2 setlinecap
1 LJ
0.667 LW
N
450 356 M
450 351.35 L
S
GR
GS
[0.75 0 0 0.75 0 0] CT
0.149 GC
2 setlinecap
1 LJ
0.667 LW
N
543 356 M
543 351.35 L
S
GR
GS
[0.75 0 0 0.75 0 0] CT
0.149 GC
2 setlinecap
1 LJ
0.667 LW
N
78 30 M
78 34.65 L
S
GR
GS
[0.75 0 0 0.75 0 0] CT
0.149 GC
2 setlinecap
1 LJ
0.667 LW
N
171 30 M
171 34.65 L
S
GR
GS
[0.75 0 0 0.75 0 0] CT
0.149 GC
2 setlinecap
1 LJ
0.667 LW
N
264 30 M
264 34.65 L
S
GR
GS
[0.75 0 0 0.75 0 0] CT
0.149 GC
2 setlinecap
1 LJ
0.667 LW
N
357 30 M
357 34.65 L
S
GR
GS
[0.75 0 0 0.75 0 0] CT
0.149 GC
2 setlinecap
1 LJ
0.667 LW
N
450 30 M
450 34.65 L
S
GR
GS
[0.75 0 0 0.75 0 0] CT
0.149 GC
2 setlinecap
1 LJ
0.667 LW
N
543 30 M
543 34.65 L
S
GR
GS
[0.75 0 0 0.75 58.5 271.00001] CT
0.149 GC
/Helvetica 13.333 F
GS
[1 0 0 1 0 0] CT
-4.5 12 moveto 
1 -1 scale
(0) t 
GR
GR
GS
[0.75 0 0 0.75 128.25 271.00001] CT
0.149 GC
/Helvetica 13.333 F
GS
[1 0 0 1 0 0] CT
-4.5 12 moveto 
1 -1 scale
(2) t 
GR
GR
GS
[0.75 0 0 0.75 198 271.00001] CT
0.149 GC
/Helvetica 13.333 F
GS
[1 0 0 1 0 0] CT
-4.5 12 moveto 
1 -1 scale
(4) t 
GR
GR
GS
[0.75 0 0 0.75 267.75 271.00001] CT
0.149 GC
/Helvetica 13.333 F
GS
[1 0 0 1 0 0] CT
-4.5 12 moveto 
1 -1 scale
(6) t 
GR
GR
GS
[0.75 0 0 0.75 337.5 271.00001] CT
0.149 GC
/Helvetica 13.333 F
GS
[1 0 0 1 0 0] CT
-4.5 12 moveto 
1 -1 scale
(8) t 
GR
GR
GS
[0.75 0 0 0.75 407.25 271.00001] CT
0.149 GC
/Helvetica 13.333 F
GS
[1 0 0 1 0 0] CT
-8.5 12 moveto 
1 -1 scale
(10) t 
GR
GR
GS
[0.75 0 0 0.75 232.87516 282.49999] CT
0.149 GC
N
-30.034 15.68 M
-30.034 15.008 L
-29.065 15.008 -28.167 14.906 QT
-27.268 14.805 -27.268 14.414 QT
-27.268 3.977 L
-27.268 3.571 -27.495 3.469 QT
-27.721 3.367 -28.237 3.367 QT
-29.034 3.367 L
-30.596 3.367 -31.268 4.055 QT
-31.596 4.399 -31.745 5.156 QT
-31.893 5.914 -32.003 7.055 QT
-32.55 7.055 L
-32.19 2.696 L
-20.581 2.696 L
-20.221 7.055 L
-20.784 7.055 L
-20.893 5.821 -21.026 5.102 QT
-21.159 4.383 -21.503 4.055 QT
-22.175 3.367 -23.737 3.367 QT
-24.534 3.367 L
-24.878 3.367 -25.065 3.399 QT
-25.253 3.43 -25.378 3.563 QT
-25.503 3.696 -25.503 3.977 QT
-25.503 14.414 L
-25.503 14.805 -24.604 14.906 QT
-23.706 15.008 -22.753 15.008 QT
-22.753 15.68 L
-30.034 15.68 L
cp
f
GR
GS
[0.75 0 0 0.75 232.87516 282.49999] CT
0.149 GC
N
-19.177 15.68 M
-19.177 15.008 L
-18.521 15.008 -18.107 14.906 QT
-17.693 14.805 -17.693 14.414 QT
-17.693 9.227 L
-17.693 8.492 -17.974 8.321 QT
-18.256 8.149 -19.084 8.149 QT
-19.084 7.492 L
-16.349 7.289 L
-16.349 14.414 L
-16.349 14.805 -15.99 14.906 QT
-15.631 15.008 -15.021 15.008 QT
-15.021 15.68 L
-19.177 15.68 L
cp
-18.365 4.024 M
-18.365 3.602 -18.052 3.289 QT
-17.74 2.977 -17.318 2.977 QT
-17.052 2.977 -16.802 3.11 QT
-16.552 3.242 -16.412 3.492 QT
-16.271 3.742 -16.271 4.024 QT
-16.271 4.43 -16.592 4.742 QT
-16.912 5.055 -17.318 5.055 QT
-17.74 5.055 -18.052 4.742 QT
-18.365 4.43 -18.365 4.024 QT
cp
f
GR
GS
[0.75 0 0 0.75 232.87516 282.49999] CT
0.149 GC
N
-14.008 15.68 M
-14.008 15.008 L
-13.352 15.008 -12.938 14.906 QT
-12.523 14.805 -12.523 14.414 QT
-12.523 9.227 L
-12.523 8.711 -12.672 8.485 QT
-12.82 8.258 -13.109 8.203 QT
-13.398 8.149 -14.008 8.149 QT
-14.008 7.492 L
-11.242 7.289 L
-11.242 9.133 L
-10.867 8.321 -10.117 7.805 QT
-9.367 7.289 -8.492 7.289 QT
-6.305 7.289 -5.93 9.071 QT
-5.539 8.274 -4.805 7.781 QT
-4.07 7.289 -3.211 7.289 QT
-2.336 7.289 -1.75 7.563 QT
-1.164 7.836 -0.867 8.406 QT
-0.57 8.977 -0.57 9.852 QT
-0.57 14.414 L
-0.57 14.805 -0.148 14.906 QT
0.273 15.008 0.914 15.008 QT
0.914 15.68 L
-3.43 15.68 L
-3.43 15.008 L
-2.789 15.008 -2.367 14.906 QT
-1.945 14.805 -1.945 14.414 QT
-1.945 9.899 L
-1.945 8.946 -2.219 8.36 QT
-2.492 7.774 -3.32 7.774 QT
-4.414 7.774 -5.133 8.656 QT
-5.852 9.539 -5.852 10.664 QT
-5.852 14.414 L
-5.852 14.805 -5.43 14.906 QT
-5.008 15.008 -4.367 15.008 QT
-4.367 15.68 L
-8.711 15.68 L
-8.711 15.008 L
-8.07 15.008 -7.648 14.906 QT
-7.227 14.805 -7.227 14.414 QT
-7.227 9.899 L
-7.227 8.977 -7.5 8.375 QT
-7.773 7.774 -8.602 7.774 QT
-9.711 7.774 -10.422 8.656 QT
-11.133 9.539 -11.133 10.664 QT
-11.133 14.414 L
-11.133 14.805 -10.711 14.906 QT
-10.289 15.008 -9.648 15.008 QT
-9.648 15.68 L
-14.008 15.68 L
cp
f
GR
GS
[0.75 0 0 0.75 232.87516 282.49999] CT
0.149 GC
N
5.72 15.899 M
4.563 15.899 3.595 15.289 QT
2.626 14.68 2.071 13.664 QT
1.516 12.649 1.516 11.508 QT
1.516 10.399 2.024 9.399 QT
2.532 8.399 3.431 7.781 QT
4.329 7.164 5.454 7.164 QT
6.313 7.164 6.962 7.453 QT
7.61 7.742 8.024 8.266 QT
8.438 8.789 8.657 9.492 QT
8.876 10.196 8.876 11.039 QT
8.876 11.289 8.673 11.289 QT
3.173 11.289 L
3.173 11.492 L
3.173 13.071 3.806 14.203 QT
4.438 15.336 5.891 15.336 QT
6.47 15.336 6.962 15.078 QT
7.454 14.821 7.821 14.352 QT
8.188 13.883 8.329 13.367 QT
8.345 13.289 8.391 13.242 QT
8.438 13.196 8.516 13.196 QT
8.673 13.196 L
8.876 13.196 8.876 13.43 QT
8.595 14.508 7.704 15.203 QT
6.813 15.899 5.72 15.899 QT
cp
3.188 10.821 M
7.532 10.821 L
7.532 10.102 7.329 9.367 QT
7.126 8.633 6.665 8.149 QT
6.204 7.664 5.454 7.664 QT
4.376 7.664 3.782 8.672 QT
3.188 9.68 3.188 10.821 QT
cp
f
GR
GS
[0.75 0 0 0.75 232.87516 282.49999] CT
0.149 GC
N
17.754 20.43 M
17.754 1.43 L
20.347 1.43 L
20.347 2.196 L
18.504 2.196 L
18.504 19.664 L
20.347 19.664 L
20.347 20.43 L
17.754 20.43 L
cp
f
GR
GS
[0.75 0 0 0.75 232.87516 282.49999] CT
0.149 GC
N
21.314 15.742 M
21.314 12.633 L
21.314 12.492 21.486 12.492 QT
21.72 12.492 L
21.83 12.492 21.861 12.633 QT
22.392 15.399 24.423 15.399 QT
25.33 15.399 25.939 14.985 QT
26.548 14.571 26.548 13.727 QT
26.548 13.117 26.072 12.68 QT
25.595 12.242 24.955 12.086 QT
23.673 11.836 L
23.033 11.696 22.509 11.406 QT
21.986 11.117 21.65 10.641 QT
21.314 10.164 21.314 9.539 QT
21.314 8.696 21.759 8.164 QT
22.205 7.633 22.908 7.399 QT
23.611 7.164 24.423 7.164 QT
25.408 7.164 26.126 7.68 QT
26.673 7.211 L
26.673 7.164 26.767 7.164 QT
26.908 7.164 L
26.955 7.164 27.001 7.211 QT
27.048 7.258 27.048 7.321 QT
27.048 9.805 L
27.048 9.977 26.908 9.977 QT
26.673 9.977 L
26.501 9.977 26.501 9.805 QT
26.501 8.821 25.955 8.211 QT
25.408 7.602 24.408 7.602 QT
23.548 7.602 22.923 7.922 QT
22.298 8.242 22.298 9.008 QT
22.298 9.539 22.751 9.875 QT
23.205 10.211 23.814 10.367 QT
25.095 10.602 L
25.751 10.758 26.306 11.11 QT
26.861 11.461 27.197 12 QT
27.533 12.539 27.533 13.211 QT
27.533 13.899 27.29 14.406 QT
27.048 14.914 26.626 15.242 QT
26.205 15.571 25.634 15.735 QT
25.064 15.899 24.423 15.899 QT
23.236 15.899 22.392 15.102 QT
21.705 15.852 L
21.705 15.899 21.595 15.899 QT
21.486 15.899 L
21.314 15.899 21.314 15.742 QT
cp
f
GR
GS
[0.75 0 0 0.75 232.87516 282.49999] CT
0.149 GC
N
28.474 20.43 M
28.474 19.664 L
30.318 19.664 L
30.318 2.196 L
28.474 2.196 L
28.474 1.43 L
31.083 1.43 L
31.083 20.43 L
28.474 20.43 L
cp
f
GR
GS
[0.75 0 0 0.75 0 0] CT
0.149 GC
2 setlinecap
1 LJ
0.667 LW
N
78 356 M
78 30 L
S
GR
GS
[0.75 0 0 0.75 0 0] CT
0.149 GC
2 setlinecap
1 LJ
0.667 LW
N
543 356 M
543 30 L
S
GR
GS
[0.75 0 0 0.75 0 0] CT
0.149 GC
2 setlinecap
1 LJ
0.667 LW
N
78 356 M
82.65 356 L
S
GR
GS
[0.75 0 0 0.75 0 0] CT
0.149 GC
2 setlinecap
1 LJ
0.667 LW
N
78 323.4 M
82.65 323.4 L
S
GR
GS
[0.75 0 0 0.75 0 0] CT
0.149 GC
2 setlinecap
1 LJ
0.667 LW
N
78 290.8 M
82.65 290.8 L
S
GR
GS
[0.75 0 0 0.75 0 0] CT
0.149 GC
2 setlinecap
1 LJ
0.667 LW
N
78 258.2 M
82.65 258.2 L
S
GR
GS
[0.75 0 0 0.75 0 0] CT
0.149 GC
2 setlinecap
1 LJ
0.667 LW
N
78 225.6 M
82.65 225.6 L
S
GR
GS
[0.75 0 0 0.75 0 0] CT
0.149 GC
2 setlinecap
1 LJ
0.667 LW
N
78 193 M
82.65 193 L
S
GR
GS
[0.75 0 0 0.75 0 0] CT
0.149 GC
2 setlinecap
1 LJ
0.667 LW
N
78 160.4 M
82.65 160.4 L
S
GR
GS
[0.75 0 0 0.75 0 0] CT
0.149 GC
2 setlinecap
1 LJ
0.667 LW
N
78 127.8 M
82.65 127.8 L
S
GR
GS
[0.75 0 0 0.75 0 0] CT
0.149 GC
2 setlinecap
1 LJ
0.667 LW
N
78 95.2 M
82.65 95.2 L
S
GR
GS
[0.75 0 0 0.75 0 0] CT
0.149 GC
2 setlinecap
1 LJ
0.667 LW
N
78 62.6 M
82.65 62.6 L
S
GR
GS
[0.75 0 0 0.75 0 0] CT
0.149 GC
2 setlinecap
1 LJ
0.667 LW
N
78 30 M
82.65 30 L
S
GR
GS
[0.75 0 0 0.75 0 0] CT
0.149 GC
2 setlinecap
1 LJ
0.667 LW
N
543 356 M
538.35 356 L
S
GR
GS
[0.75 0 0 0.75 0 0] CT
0.149 GC
2 setlinecap
1 LJ
0.667 LW
N
543 323.4 M
538.35 323.4 L
S
GR
GS
[0.75 0 0 0.75 0 0] CT
0.149 GC
2 setlinecap
1 LJ
0.667 LW
N
543 290.8 M
538.35 290.8 L
S
GR
GS
[0.75 0 0 0.75 0 0] CT
0.149 GC
2 setlinecap
1 LJ
0.667 LW
N
543 258.2 M
538.35 258.2 L
S
GR
GS
[0.75 0 0 0.75 0 0] CT
0.149 GC
2 setlinecap
1 LJ
0.667 LW
N
543 225.6 M
538.35 225.6 L
S
GR
GS
[0.75 0 0 0.75 0 0] CT
0.149 GC
2 setlinecap
1 LJ
0.667 LW
N
543 193 M
538.35 193 L
S
GR
GS
[0.75 0 0 0.75 0 0] CT
0.149 GC
2 setlinecap
1 LJ
0.667 LW
N
543 160.4 M
538.35 160.4 L
S
GR
GS
[0.75 0 0 0.75 0 0] CT
0.149 GC
2 setlinecap
1 LJ
0.667 LW
N
543 127.8 M
538.35 127.8 L
S
GR
GS
[0.75 0 0 0.75 0 0] CT
0.149 GC
2 setlinecap
1 LJ
0.667 LW
N
543 95.2 M
538.35 95.2 L
S
GR
GS
[0.75 0 0 0.75 0 0] CT
0.149 GC
2 setlinecap
1 LJ
0.667 LW
N
543 62.6 M
538.35 62.6 L
S
GR
GS
[0.75 0 0 0.75 0 0] CT
0.149 GC
2 setlinecap
1 LJ
0.667 LW
N
543 30 M
538.35 30 L
S
GR
GS
[0.75 0 0 0.75 54.5 267] CT
0.149 GC
/Helvetica 13.333 F
GS
[1 0 0 1 0 0] CT
-14 5 moveto 
1 -1 scale
(-1) t 
GR
GR
GS
[0.75 0 0 0.75 54.5 242.55] CT
0.149 GC
/Helvetica 13.333 F
GS
[1 0 0 1 0 0] CT
-26 5 moveto 
1 -1 scale
(-0.8) t 
GR
GR
GS
[0.75 0 0 0.75 54.5 218.10001] CT
0.149 GC
/Helvetica 13.333 F
GS
[1 0 0 1 0 0] CT
-26 5 moveto 
1 -1 scale
(-0.6) t 
GR
GR
GS
[0.75 0 0 0.75 54.5 193.65001] CT
0.149 GC
/Helvetica 13.333 F
GS
[1 0 0 1 0 0] CT
-26 5 moveto 
1 -1 scale
(-0.4) t 
GR
GR
GS
[0.75 0 0 0.75 54.5 169.2] CT
0.149 GC
/Helvetica 13.333 F
GS
[1 0 0 1 0 0] CT
-26 5 moveto 
1 -1 scale
(-0.2) t 
GR
GR
GS
[0.75 0 0 0.75 54.5 144.75] CT
0.149 GC
/Helvetica 13.333 F
GS
[1 0 0 1 0 0] CT
-9 5 moveto 
1 -1 scale
(0) t 
GR
GR
GS
[0.75 0 0 0.75 54.5 120.3] CT
0.149 GC
/Helvetica 13.333 F
GS
[1 0 0 1 0 0] CT
-21 5 moveto 
1 -1 scale
(0.2) t 
GR
GR
GS
[0.75 0 0 0.75 54.5 95.85] CT
0.149 GC
/Helvetica 13.333 F
GS
[1 0 0 1 0 0] CT
-21 5 moveto 
1 -1 scale
(0.4) t 
GR
GR
GS
[0.75 0 0 0.75 54.5 71.4] CT
0.149 GC
/Helvetica 13.333 F
GS
[1 0 0 1 0 0] CT
-21 5 moveto 
1 -1 scale
(0.6) t 
GR
GR
GS
[0.75 0 0 0.75 54.5 46.95] CT
0.149 GC
/Helvetica 13.333 F
GS
[1 0 0 1 0 0] CT
-21 5 moveto 
1 -1 scale
(0.8) t 
GR
GR
GS
[0.75 0 0 0.75 54.5 22.5] CT
0.149 GC
/Helvetica 13.333 F
GS
[1 0 0 1 0 0] CT
-9 5 moveto 
1 -1 scale
(1) t 
GR
GR
GS
[0 -0.75 0.75 0 32 144.74989] CT
0.149 GC
N
-47.174 -6.298 M
-48.986 -6.298 -50.424 -7.259 QT
-51.861 -8.22 -52.682 -9.814 QT
-53.502 -11.408 -53.502 -13.158 QT
-53.502 -14.454 -53.033 -15.728 QT
-52.564 -17.001 -51.721 -17.986 QT
-50.877 -18.97 -49.697 -19.54 QT
-48.518 -20.111 -47.174 -20.111 QT
-45.83 -20.111 -44.643 -19.533 QT
-43.455 -18.954 -42.611 -17.962 QT
-41.768 -16.97 -41.314 -15.736 QT
-40.861 -14.501 -40.861 -13.158 QT
-40.861 -11.408 -41.682 -9.814 QT
-42.502 -8.22 -43.947 -7.259 QT
-45.393 -6.298 -47.174 -6.298 QT
cp
-50.33 -8.767 M
-49.768 -7.892 -48.955 -7.384 QT
-48.143 -6.876 -47.174 -6.876 QT
-46.549 -6.876 -45.947 -7.126 QT
-45.346 -7.376 -44.861 -7.806 QT
-44.377 -8.236 -44.033 -8.767 QT
-42.908 -10.47 -42.908 -13.47 QT
-42.908 -16.204 -44.033 -17.798 QT
-44.596 -18.595 -45.424 -19.079 QT
-46.252 -19.564 -47.174 -19.564 QT
-48.096 -19.564 -48.932 -19.079 QT
-49.768 -18.595 -50.33 -17.798 QT
-50.768 -17.173 -51.018 -16.478 QT
-51.268 -15.783 -51.369 -15.025 QT
-51.471 -14.267 -51.471 -13.47 QT
-51.471 -12.595 -51.369 -11.775 QT
-51.268 -10.954 -51.002 -10.165 QT
-50.736 -9.376 -50.33 -8.767 QT
cp
f
GR
GS
[0 -0.75 0.75 0 32 144.74989] CT
0.149 GC
N
-39.562 -6.72 M
-39.562 -7.392 L
-38.905 -7.392 -38.491 -7.494 QT
-38.077 -7.595 -38.077 -7.986 QT
-38.077 -13.173 L
-38.077 -13.689 -38.226 -13.915 QT
-38.374 -14.142 -38.663 -14.197 QT
-38.952 -14.251 -39.562 -14.251 QT
-39.562 -14.908 L
-36.843 -15.111 L
-36.843 -13.267 L
-36.53 -14.079 -35.968 -14.595 QT
-35.405 -15.111 -34.593 -15.111 QT
-34.03 -15.111 -33.585 -14.783 QT
-33.14 -14.454 -33.14 -13.908 QT
-33.14 -13.564 -33.382 -13.306 QT
-33.624 -13.048 -33.983 -13.048 QT
-34.343 -13.048 -34.593 -13.298 QT
-34.843 -13.548 -34.843 -13.908 QT
-34.843 -14.408 -34.483 -14.626 QT
-34.593 -14.626 L
-35.358 -14.626 -35.843 -14.072 QT
-36.327 -13.517 -36.538 -12.689 QT
-36.749 -11.861 -36.749 -11.111 QT
-36.749 -7.986 L
-36.749 -7.392 -34.89 -7.392 QT
-34.89 -6.72 L
-39.562 -6.72 L
cp
f
GR
GS
[0 -0.75 0.75 0 32 144.74989] CT
0.149 GC
N
-32.157 -6.72 M
-32.157 -7.392 L
-31.5 -7.392 -31.086 -7.494 QT
-30.672 -7.595 -30.672 -7.986 QT
-30.672 -13.173 L
-30.672 -13.908 -30.954 -14.079 QT
-31.235 -14.251 -32.063 -14.251 QT
-32.063 -14.908 L
-29.329 -15.111 L
-29.329 -7.986 L
-29.329 -7.595 -28.969 -7.494 QT
-28.61 -7.392 -28 -7.392 QT
-28 -6.72 L
-32.157 -6.72 L
cp
-31.344 -18.376 M
-31.344 -18.798 -31.032 -19.111 QT
-30.719 -19.423 -30.297 -19.423 QT
-30.032 -19.423 -29.782 -19.29 QT
-29.532 -19.158 -29.391 -18.908 QT
-29.25 -18.658 -29.25 -18.376 QT
-29.25 -17.97 -29.571 -17.658 QT
-29.891 -17.345 -30.297 -17.345 QT
-30.719 -17.345 -31.032 -17.658 QT
-31.344 -17.97 -31.344 -18.376 QT
cp
f
GR
GS
[0 -0.75 0.75 0 32 144.74989] CT
0.149 GC
N
-22.815 -6.501 M
-23.971 -6.501 -24.94 -7.111 QT
-25.909 -7.72 -26.464 -8.736 QT
-27.018 -9.751 -27.018 -10.892 QT
-27.018 -12.001 -26.511 -13.001 QT
-26.003 -14.001 -25.104 -14.619 QT
-24.206 -15.236 -23.081 -15.236 QT
-22.221 -15.236 -21.573 -14.947 QT
-20.925 -14.658 -20.511 -14.134 QT
-20.096 -13.611 -19.878 -12.908 QT
-19.659 -12.204 -19.659 -11.361 QT
-19.659 -11.111 -19.862 -11.111 QT
-25.362 -11.111 L
-25.362 -10.908 L
-25.362 -9.329 -24.729 -8.197 QT
-24.096 -7.064 -22.643 -7.064 QT
-22.065 -7.064 -21.573 -7.322 QT
-21.081 -7.579 -20.714 -8.048 QT
-20.346 -8.517 -20.206 -9.033 QT
-20.19 -9.111 -20.143 -9.158 QT
-20.096 -9.204 -20.018 -9.204 QT
-19.862 -9.204 L
-19.659 -9.204 -19.659 -8.97 QT
-19.94 -7.892 -20.831 -7.197 QT
-21.721 -6.501 -22.815 -6.501 QT
cp
-25.346 -11.579 M
-21.003 -11.579 L
-21.003 -12.298 -21.206 -13.033 QT
-21.409 -13.767 -21.87 -14.251 QT
-22.331 -14.736 -23.081 -14.736 QT
-24.159 -14.736 -24.753 -13.728 QT
-25.346 -12.72 -25.346 -11.579 QT
cp
f
GR
GS
[0 -0.75 0.75 0 32 144.74989] CT
0.149 GC
N
-18.691 -6.72 M
-18.691 -7.392 L
-18.035 -7.392 -17.62 -7.494 QT
-17.206 -7.595 -17.206 -7.986 QT
-17.206 -13.173 L
-17.206 -13.689 -17.355 -13.915 QT
-17.503 -14.142 -17.792 -14.197 QT
-18.081 -14.251 -18.691 -14.251 QT
-18.691 -14.908 L
-15.925 -15.111 L
-15.925 -13.267 L
-15.55 -14.079 -14.8 -14.595 QT
-14.05 -15.111 -13.175 -15.111 QT
-11.863 -15.111 -11.199 -14.486 QT
-10.535 -13.861 -10.535 -12.548 QT
-10.535 -7.986 L
-10.535 -7.595 -10.113 -7.494 QT
-9.691 -7.392 -9.05 -7.392 QT
-9.05 -6.72 L
-13.394 -6.72 L
-13.394 -7.392 L
-12.753 -7.392 -12.331 -7.494 QT
-11.91 -7.595 -11.91 -7.986 QT
-11.91 -12.501 L
-11.91 -13.423 -12.183 -14.025 QT
-12.456 -14.626 -13.285 -14.626 QT
-14.394 -14.626 -15.105 -13.744 QT
-15.816 -12.861 -15.816 -11.736 QT
-15.816 -7.986 L
-15.816 -7.595 -15.394 -7.494 QT
-14.972 -7.392 -14.331 -7.392 QT
-14.331 -6.72 L
-18.691 -6.72 L
cp
f
GR
GS
[0 -0.75 0.75 0 32 144.74989] CT
0.149 GC
N
-7.464 -9.001 M
-7.464 -14.251 L
-9.042 -14.251 L
-9.042 -14.736 L
-7.792 -14.736 -7.206 -15.892 QT
-6.62 -17.048 -6.62 -18.408 QT
-6.073 -18.408 L
-6.073 -14.908 L
-3.401 -14.908 L
-3.401 -14.251 L
-6.073 -14.251 L
-6.073 -9.033 L
-6.073 -8.251 -5.815 -7.658 QT
-5.558 -7.064 -4.87 -7.064 QT
-4.214 -7.064 -3.925 -7.689 QT
-3.636 -8.314 -3.636 -9.033 QT
-3.636 -10.158 L
-3.089 -10.158 L
-3.089 -9.001 L
-3.089 -8.408 -3.308 -7.829 QT
-3.526 -7.251 -3.956 -6.876 QT
-4.386 -6.501 -4.995 -6.501 QT
-6.136 -6.501 -6.8 -7.189 QT
-7.464 -7.876 -7.464 -9.001 QT
cp
f
GR
GS
[0 -0.75 0.75 0 32 144.74989] CT
0.149 GC
N
-1.377 -8.579 M
-1.377 -9.72 -0.486 -10.431 QT
0.405 -11.142 1.647 -11.431 QT
2.889 -11.72 4.014 -11.72 QT
4.014 -12.501 L
4.014 -13.048 3.772 -13.564 QT
3.53 -14.079 3.077 -14.408 QT
2.623 -14.736 2.077 -14.736 QT
0.811 -14.736 0.155 -14.173 QT
0.514 -14.173 0.756 -13.9 QT
0.998 -13.626 0.998 -13.267 QT
0.998 -12.876 0.725 -12.611 QT
0.452 -12.345 0.092 -12.345 QT
-0.298 -12.345 -0.564 -12.611 QT
-0.83 -12.876 -0.83 -13.267 QT
-0.83 -14.267 0.077 -14.751 QT
0.983 -15.236 2.077 -15.236 QT
2.842 -15.236 3.623 -14.908 QT
4.405 -14.579 4.905 -13.97 QT
5.405 -13.361 5.405 -12.533 QT
5.405 -8.267 L
5.405 -7.892 5.561 -7.579 QT
5.717 -7.267 6.045 -7.267 QT
6.358 -7.267 6.514 -7.579 QT
6.67 -7.892 6.67 -8.267 QT
6.67 -9.47 L
7.233 -9.47 L
7.233 -8.267 L
7.233 -7.829 7.006 -7.447 QT
6.78 -7.064 6.405 -6.837 QT
6.03 -6.611 5.592 -6.611 QT
5.045 -6.611 4.639 -7.04 QT
4.233 -7.47 4.186 -8.064 QT
3.827 -7.345 3.147 -6.923 QT
2.467 -6.501 1.686 -6.501 QT
0.952 -6.501 0.256 -6.72 QT
-0.439 -6.939 -0.908 -7.392 QT
-1.377 -7.845 -1.377 -8.579 QT
cp
0.155 -8.579 M
0.155 -7.923 0.647 -7.462 QT
1.139 -7.001 1.811 -7.001 QT
2.42 -7.001 2.92 -7.314 QT
3.42 -7.626 3.717 -8.15 QT
4.014 -8.673 4.014 -9.267 QT
4.014 -11.236 L
3.155 -11.236 2.248 -10.954 QT
1.342 -10.673 0.748 -10.072 QT
0.155 -9.47 0.155 -8.579 QT
cp
f
GR
GS
[0 -0.75 0.75 0 32 144.74989] CT
0.149 GC
N
9.129 -9.001 M
9.129 -14.251 L
7.551 -14.251 L
7.551 -14.736 L
8.801 -14.736 9.387 -15.892 QT
9.972 -17.048 9.972 -18.408 QT
10.519 -18.408 L
10.519 -14.908 L
13.191 -14.908 L
13.191 -14.251 L
10.519 -14.251 L
10.519 -9.033 L
10.519 -8.251 10.777 -7.658 QT
11.035 -7.064 11.722 -7.064 QT
12.379 -7.064 12.668 -7.689 QT
12.957 -8.314 12.957 -9.033 QT
12.957 -10.158 L
13.504 -10.158 L
13.504 -9.001 L
13.504 -8.408 13.285 -7.829 QT
13.066 -7.251 12.637 -6.876 QT
12.207 -6.501 11.597 -6.501 QT
10.457 -6.501 9.793 -7.189 QT
9.129 -7.876 9.129 -9.001 QT
cp
f
GR
GS
[0 -0.75 0.75 0 32 144.74989] CT
0.149 GC
N
15.029 -6.72 M
15.029 -7.392 L
15.685 -7.392 16.099 -7.494 QT
16.513 -7.595 16.513 -7.986 QT
16.513 -13.173 L
16.513 -13.908 16.232 -14.079 QT
15.951 -14.251 15.122 -14.251 QT
15.122 -14.908 L
17.857 -15.111 L
17.857 -7.986 L
17.857 -7.595 18.216 -7.494 QT
18.576 -7.392 19.185 -7.392 QT
19.185 -6.72 L
15.029 -6.72 L
cp
15.841 -18.376 M
15.841 -18.798 16.154 -19.111 QT
16.466 -19.423 16.888 -19.423 QT
17.154 -19.423 17.404 -19.29 QT
17.654 -19.158 17.794 -18.908 QT
17.935 -18.658 17.935 -18.376 QT
17.935 -17.97 17.615 -17.658 QT
17.294 -17.345 16.888 -17.345 QT
16.466 -17.345 16.154 -17.658 QT
15.841 -17.97 15.841 -18.376 QT
cp
f
GR
GS
[0 -0.75 0.75 0 32 144.74989] CT
0.149 GC
N
24.386 -6.501 M
23.245 -6.501 22.269 -7.087 QT
21.292 -7.673 20.729 -8.642 QT
20.167 -9.611 20.167 -10.767 QT
20.167 -11.642 20.479 -12.447 QT
20.792 -13.251 21.37 -13.884 QT
21.948 -14.517 22.714 -14.876 QT
23.479 -15.236 24.386 -15.236 QT
25.558 -15.236 26.519 -14.619 QT
27.479 -14.001 28.034 -12.97 QT
28.589 -11.939 28.589 -10.767 QT
28.589 -9.626 28.026 -8.65 QT
27.464 -7.673 26.487 -7.087 QT
25.511 -6.501 24.386 -6.501 QT
cp
24.386 -7.064 M
25.901 -7.064 26.417 -8.165 QT
26.933 -9.267 26.933 -10.986 QT
26.933 -11.939 26.831 -12.564 QT
26.729 -13.189 26.386 -13.704 QT
26.167 -14.017 25.839 -14.251 QT
25.511 -14.486 25.144 -14.611 QT
24.776 -14.736 24.386 -14.736 QT
23.792 -14.736 23.261 -14.47 QT
22.729 -14.204 22.37 -13.704 QT
22.026 -13.158 21.925 -12.517 QT
21.823 -11.876 21.823 -10.986 QT
21.823 -9.908 22.011 -9.064 QT
22.198 -8.22 22.761 -7.642 QT
23.323 -7.064 24.386 -7.064 QT
cp
f
GR
GS
[0 -0.75 0.75 0 32 144.74989] CT
0.149 GC
N
29.532 -6.72 M
29.532 -7.392 L
30.188 -7.392 30.602 -7.494 QT
31.016 -7.595 31.016 -7.986 QT
31.016 -13.173 L
31.016 -13.689 30.868 -13.915 QT
30.719 -14.142 30.43 -14.197 QT
30.141 -14.251 29.532 -14.251 QT
29.532 -14.908 L
32.297 -15.111 L
32.297 -13.267 L
32.672 -14.079 33.422 -14.595 QT
34.172 -15.111 35.047 -15.111 QT
36.36 -15.111 37.024 -14.486 QT
37.688 -13.861 37.688 -12.548 QT
37.688 -7.986 L
37.688 -7.595 38.11 -7.494 QT
38.532 -7.392 39.172 -7.392 QT
39.172 -6.72 L
34.828 -6.72 L
34.828 -7.392 L
35.469 -7.392 35.891 -7.494 QT
36.313 -7.595 36.313 -7.986 QT
36.313 -12.501 L
36.313 -13.423 36.039 -14.025 QT
35.766 -14.626 34.938 -14.626 QT
33.828 -14.626 33.118 -13.744 QT
32.407 -12.861 32.407 -11.736 QT
32.407 -7.986 L
32.407 -7.595 32.828 -7.494 QT
33.25 -7.392 33.891 -7.392 QT
33.891 -6.72 L
29.532 -6.72 L
cp
f
GR
GS
[0 -0.75 0.75 0 32 144.74989] CT
0.149 GC
N
48.359 -3.283 M
48.421 -3.689 48.609 -3.689 QT
49.296 -3.689 49.687 -3.806 QT
50.077 -3.923 50.202 -4.345 QT
51.015 -7.579 L
49.937 -6.501 48.843 -6.501 QT
47.655 -6.501 46.968 -7.408 QT
46.28 -8.314 46.28 -9.548 QT
46.28 -10.767 46.905 -12.072 QT
47.53 -13.376 48.609 -14.244 QT
49.687 -15.111 50.921 -15.111 QT
51.499 -15.111 51.96 -14.767 QT
52.421 -14.423 52.671 -13.861 QT
52.78 -14.079 53.288 -14.595 QT
53.796 -15.111 53.999 -15.111 QT
54.202 -15.111 54.202 -14.876 QT
51.546 -4.267 L
51.499 -3.986 51.484 -3.939 QT
51.484 -3.689 52.749 -3.689 QT
52.843 -3.689 52.89 -3.619 QT
52.937 -3.548 52.937 -3.454 QT
52.874 -3.204 52.835 -3.119 QT
52.796 -3.033 52.609 -3.033 QT
48.546 -3.033 L
48.359 -3.033 48.359 -3.283 QT
cp
48.89 -7.001 M
49.546 -7.001 50.187 -7.509 QT
50.827 -8.017 51.296 -8.72 QT
52.359 -12.986 L
52.249 -13.658 51.874 -14.142 QT
51.499 -14.626 50.874 -14.626 QT
50.234 -14.626 49.687 -14.103 QT
49.14 -13.579 48.749 -12.861 QT
48.39 -12.095 48.046 -10.775 QT
47.702 -9.454 47.702 -8.72 QT
47.702 -8.064 47.984 -7.533 QT
48.265 -7.001 48.89 -7.001 QT
cp
f
GR
GS
[0.75 0 0 0.75 0 0] CT
0 0.447 0.741 RC
1 LJ
2.667 LW
N
78 176.856 M
82.65 174.221 L
87.3 167.045 L
91.95 156.82 L
96.6 144.856 L
101.25 132.103 L
105.9 119.275 L
110.55 106.906 L
115.2 95.372 L
119.85 84.906 L
124.5 75.625 L
129.15 67.545 L
133.8 60.623 L
138.45 54.784 L
143.1 49.92 L
147.75 45.913 L
152.4 42.644 L
157.05 39.998 L
161.7 37.873 L
166.35 36.176 L
171 34.829 L
175.65 33.764 L
180.3 32.927 L
184.95 32.27 L
189.6 31.757 L
194.25 31.358 L
198.9 31.047 L
203.55 30.806 L
208.2 30.62 L
212.85 30.476 L
217.5 30.365 L
222.15 30.28 L
226.8 30.214 L
231.45 30.164 L
236.1 30.125 L
240.75 30.096 L
245.4 30.073 L
250.05 30.056 L
254.7 30.043 L
259.35 30.032 L
264 30.025 L
268.65 30.019 L
273.3 30.014 L
277.95 30.011 L
282.6 30.008 L
287.25 30.006 L
291.9 30.005 L
296.55 30.004 L
301.2 30.003 L
305.85 30.002 L
310.5 30.002 L
315.15 30.001 L
319.8 30.001 L
324.45 30.001 L
329.1 30.001 L
333.75 30 L
338.4 30 L
343.05 30 L
347.7 30 L
352.35 30 L
357 30 L
361.65 30 L
366.3 30 L
370.95 30 L
375.6 30 L
380.25 30 L
384.9 30 L
389.55 30 L
394.2 30 L
398.85 30 L
403.5 30 L
408.15 30 L
412.8 30 L
417.45 30 L
422.1 30 L
426.75 30 L
431.4 30 L
436.05 30 L
440.7 30 L
445.35 30 L
450 30 L
454.65 30 L
459.3 30 L
463.95 30 L
468.6 30 L
473.25 30 L
477.9 30 L
482.55 30 L
487.2 30 L
491.85 30 L
496.5 30 L
501.15 30 L
505.8 30 L
510.45 30 L
515.1 30 L
519.75 30 L
524.4 30 L
529.05 30 L
533.7 30 L
538.35 30 L
543 30 L
S
GR
GS
[0.75 0 0 0.75 0 0] CT
0.851 0.325 0.098 RC
1 LJ
2.667 LW
N
78 338.461 M
82.65 338.207 L
87.3 337.315 L
91.95 335.533 L
96.6 332.658 L
101.25 328.595 L
105.9 323.373 L
110.55 317.126 L
115.2 310.059 L
119.85 302.413 L
124.5 294.431 L
129.15 286.328 L
133.8 278.293 L
138.45 270.486 L
143.1 263.026 L
147.75 255.997 L
152.4 249.449 L
157.05 243.409 L
161.7 237.881 L
166.35 232.857 L
171 228.317 L
175.65 224.234 L
180.3 220.577 L
184.95 217.312 L
189.6 214.406 L
194.25 211.827 L
198.9 209.542 L
203.55 207.522 L
208.2 205.739 L
212.85 204.167 L
217.5 202.783 L
222.15 201.566 L
226.8 200.497 L
231.45 199.558 L
236.1 198.734 L
240.75 198.013 L
245.4 197.38 L
250.05 196.827 L
254.7 196.342 L
259.35 195.918 L
264 195.548 L
268.65 195.223 L
273.3 194.94 L
277.95 194.693 L
282.6 194.477 L
287.25 194.288 L
291.9 194.124 L
296.55 193.98 L
301.2 193.855 L
305.85 193.745 L
310.5 193.65 L
315.15 193.567 L
319.8 193.494 L
324.45 193.431 L
329.1 193.376 L
333.75 193.328 L
338.4 193.286 L
343.05 193.25 L
347.7 193.218 L
352.35 193.19 L
357 193.166 L
361.65 193.145 L
366.3 193.127 L
370.95 193.11 L
375.6 193.096 L
380.25 193.084 L
384.9 193.073 L
389.55 193.064 L
394.2 193.056 L
398.85 193.049 L
403.5 193.043 L
408.15 193.037 L
412.8 193.033 L
417.45 193.028 L
422.1 193.025 L
426.75 193.022 L
431.4 193.019 L
436.05 193.016 L
440.7 193.014 L
445.35 193.013 L
450 193.011 L
454.65 193.01 L
459.3 193.008 L
463.95 193.007 L
468.6 193.006 L
473.25 193.006 L
477.9 193.005 L
482.55 193.004 L
487.2 193.004 L
491.85 193.003 L
496.5 193.003 L
501.15 193.002 L
505.8 193.002 L
510.45 193.002 L
515.1 193.002 L
519.75 193.001 L
524.4 193.001 L
529.05 193.001 L
533.7 193.001 L
538.35 193.001 L
543 193.001 L
S
GR
GS
[0.75 0 0 0.75 0 0] CT
0.929 0.694 0.125 RC
1 LJ
2.667 LW
N
78 253.252 M
82.65 253.146 L
87.3 252.777 L
91.95 252.039 L
96.6 250.848 L
101.25 249.165 L
105.9 247.002 L
110.55 244.415 L
115.2 241.488 L
119.85 238.321 L
124.5 235.014 L
129.15 231.658 L
133.8 228.33 L
138.45 225.096 L
143.1 222.006 L
147.75 219.094 L
152.4 216.382 L
157.05 213.88 L
161.7 211.59 L
166.35 209.509 L
171 207.629 L
175.65 205.938 L
180.3 204.423 L
184.95 203.07 L
189.6 201.867 L
194.25 200.798 L
198.9 199.852 L
203.55 199.015 L
208.2 198.277 L
212.85 197.626 L
217.5 197.052 L
222.15 196.548 L
226.8 196.105 L
231.45 195.716 L
236.1 195.375 L
240.75 195.076 L
245.4 194.814 L
250.05 194.585 L
254.7 194.384 L
259.35 194.209 L
264 194.055 L
268.65 193.921 L
273.3 193.804 L
277.95 193.701 L
282.6 193.612 L
287.25 193.534 L
291.9 193.465 L
296.55 193.406 L
301.2 193.354 L
305.85 193.309 L
310.5 193.269 L
315.15 193.235 L
319.8 193.205 L
324.45 193.179 L
329.1 193.156 L
333.75 193.136 L
338.4 193.119 L
343.05 193.104 L
347.7 193.09 L
352.35 193.079 L
357 193.069 L
361.65 193.06 L
366.3 193.052 L
370.95 193.046 L
375.6 193.04 L
380.25 193.035 L
384.9 193.03 L
389.55 193.027 L
394.2 193.023 L
398.85 193.02 L
403.5 193.018 L
408.15 193.015 L
412.8 193.013 L
417.45 193.012 L
422.1 193.01 L
426.75 193.009 L
431.4 193.008 L
436.05 193.007 L
440.7 193.006 L
445.35 193.005 L
450 193.005 L
454.65 193.004 L
459.3 193.003 L
463.95 193.003 L
468.6 193.003 L
473.25 193.002 L
477.9 193.002 L
482.55 193.002 L
487.2 193.002 L
491.85 193.001 L
496.5 193.001 L
501.15 193.001 L
505.8 193.001 L
510.45 193.001 L
515.1 193.001 L
519.75 193.001 L
524.4 193.001 L
529.05 193 L
533.7 193 L
538.35 193 L
543 193 L
S
GR
GS
[0.75 0 0 0.75 0 0] CT
0.494 0.184 0.557 RC
1 LJ
2.667 LW
N
78 154.024 M
82.65 154.092 L
87.3 154.331 L
91.95 154.808 L
96.6 155.579 L
101.25 156.668 L
105.9 158.067 L
110.55 159.741 L
115.2 161.634 L
119.85 163.683 L
124.5 165.822 L
129.15 167.993 L
133.8 170.146 L
138.45 172.238 L
143.1 174.236 L
147.75 176.12 L
152.4 177.875 L
157.05 179.493 L
161.7 180.974 L
166.35 182.32 L
171 183.537 L
175.65 184.631 L
180.3 185.611 L
184.95 186.486 L
189.6 187.264 L
194.25 187.955 L
198.9 188.567 L
203.55 189.109 L
208.2 189.587 L
212.85 190.008 L
217.5 190.379 L
222.15 190.705 L
226.8 190.991 L
231.45 191.243 L
236.1 191.463 L
240.75 191.657 L
245.4 191.826 L
250.05 191.975 L
254.7 192.104 L
259.35 192.218 L
264 192.317 L
268.65 192.404 L
273.3 192.48 L
277.95 192.546 L
282.6 192.604 L
287.25 192.655 L
291.9 192.699 L
296.55 192.737 L
301.2 192.771 L
305.85 192.8 L
310.5 192.826 L
315.15 192.848 L
319.8 192.867 L
324.45 192.884 L
329.1 192.899 L
333.75 192.912 L
338.4 192.923 L
343.05 192.933 L
347.7 192.942 L
352.35 192.949 L
357 192.955 L
361.65 192.961 L
366.3 192.966 L
370.95 192.97 L
375.6 192.974 L
380.25 192.977 L
384.9 192.98 L
389.55 192.983 L
394.2 192.985 L
398.85 192.987 L
403.5 192.989 L
408.15 192.99 L
412.8 192.991 L
417.45 192.992 L
422.1 192.993 L
426.75 192.994 L
431.4 192.995 L
436.05 192.996 L
440.7 192.996 L
445.35 192.997 L
450 192.997 L
454.65 192.997 L
459.3 192.998 L
463.95 192.998 L
468.6 192.998 L
473.25 192.999 L
477.9 192.999 L
482.55 192.999 L
487.2 192.999 L
491.85 192.999 L
496.5 192.999 L
501.15 192.999 L
505.8 192.999 L
510.45 192.999 L
515.1 193 L
519.75 193 L
524.4 193 L
529.05 193 L
533.7 193 L
538.35 193 L
543 193 L
S
GR
GS
[0.75 0 0 0.75 0 0] CT
1 GC
N
532 129 M
532 41 L
460 41 L
460 129 L
cp
f
GR
GS
[0.75 0 0 0.75 380.25597 39.97661] CT
N
2.5 7.238 M
2.563 6.863 2.719 6.863 QT
3.344 6.863 3.695 6.761 QT
4.047 6.66 4.156 6.285 QT
4.875 3.394 L
3.906 4.347 2.938 4.347 QT
1.875 4.347 1.258 3.543 QT
0.641 2.738 0.641 1.629 QT
0.641 0.535 1.203 -0.629 QT
1.766 -1.793 2.727 -2.574 QT
3.688 -3.356 4.797 -3.356 QT
5.313 -3.356 5.727 -3.043 QT
6.141 -2.731 6.359 -2.231 QT
6.453 -2.434 6.906 -2.895 QT
7.359 -3.356 7.547 -3.356 QT
7.734 -3.356 7.734 -3.137 QT
5.359 6.347 L
5.313 6.597 5.297 6.644 QT
5.297 6.863 6.422 6.863 QT
6.516 6.863 6.555 6.933 QT
6.594 7.004 6.594 7.082 QT
6.547 7.301 6.508 7.379 QT
6.469 7.457 6.313 7.457 QT
2.672 7.457 L
2.5 7.457 2.5 7.238 QT
cp
2.969 3.91 M
3.563 3.91 4.133 3.457 QT
4.703 3.004 5.125 2.379 QT
6.078 -1.449 L
5.984 -2.043 5.648 -2.481 QT
5.313 -2.918 4.75 -2.918 QT
4.188 -2.918 3.695 -2.449 QT
3.203 -1.981 2.859 -1.34 QT
2.531 -0.653 2.227 0.535 QT
1.922 1.722 1.922 2.379 QT
1.922 2.957 2.172 3.433 QT
2.422 3.91 2.969 3.91 QT
cp
f
GR
GS
[0.75 0 0 0.75 380.25597 39.97661] CT
N
8.332 6.901 M
8.238 6.901 8.238 6.791 QT
8.238 6.729 8.253 6.697 QT
8.582 6.151 9.035 5.643 QT
9.488 5.135 10.066 4.611 QT
10.644 4.088 11.222 3.572 QT
11.8 3.057 12.175 2.651 QT
12.128 2.651 L
11.863 2.651 11.347 2.479 QT
10.832 2.307 10.55 2.307 QT
10.222 2.307 9.925 2.447 QT
9.628 2.588 9.55 2.869 QT
9.535 2.963 9.457 2.963 QT
9.316 2.963 L
9.222 2.963 9.222 2.838 QT
9.222 2.791 L
9.316 2.447 9.527 2.143 QT
9.738 1.838 10.05 1.651 QT
10.363 1.463 10.707 1.463 QT
10.941 1.463 11.097 1.565 QT
11.253 1.666 11.464 1.901 QT
11.675 2.135 11.808 2.229 QT
11.941 2.322 12.144 2.322 QT
12.41 2.322 12.621 2.088 QT
12.832 1.854 13.035 1.494 QT
13.066 1.463 13.113 1.463 QT
13.253 1.463 L
13.3 1.463 13.324 1.486 QT
13.347 1.51 13.347 1.557 QT
13.347 1.604 13.332 1.635 QT
13.003 2.197 12.574 2.682 QT
12.144 3.166 11.449 3.791 QT
10.753 4.416 10.277 4.846 QT
9.8 5.276 9.378 5.729 QT
9.472 5.697 9.644 5.697 QT
9.925 5.697 10.433 5.869 QT
10.941 6.041 11.222 6.041 QT
11.519 6.041 11.824 5.908 QT
12.128 5.776 12.347 5.541 QT
12.566 5.307 12.644 5.01 QT
12.675 4.932 12.738 4.932 QT
12.894 4.932 L
12.941 4.932 12.964 4.963 QT
12.988 4.994 12.988 5.041 QT
12.988 5.057 12.988 5.072 QT
12.878 5.541 12.597 5.947 QT
12.316 6.354 11.918 6.627 QT
11.519 6.901 11.066 6.901 QT
10.832 6.901 10.675 6.791 QT
10.519 6.682 10.3 6.447 QT
10.082 6.213 9.949 6.111 QT
9.816 6.01 9.628 6.01 QT
9.035 6.01 8.55 6.854 QT
8.519 6.901 8.472 6.901 QT
8.332 6.901 L
cp
f
GR
GS
[0.75 0 0 0.75 0 0] CT
0 0.447 0.741 RC
1 LJ
2.667 LW
N
464.001 53.302 M
504.007 53.302 L
S
GR
GS
[0.75 0 0 0.75 380.25597 55.82553] CT
N
/f1497605115{2.5 7.238 M
2.563 6.863 2.719 6.863 QT
3.344 6.863 3.695 6.761 QT
4.047 6.66 4.156 6.285 QT
4.875 3.394 L
3.906 4.347 2.938 4.347 QT
1.875 4.347 1.258 3.543 QT
0.641 2.738 0.641 1.629 QT
0.641 0.535 1.203 -0.629 QT
1.766 -1.793 2.727 -2.574 QT
3.688 -3.356 4.797 -3.356 QT
5.313 -3.356 5.727 -3.043 QT
6.141 -2.731 6.359 -2.231 QT
6.453 -2.434 6.906 -2.895 QT
7.359 -3.356 7.547 -3.356 QT
7.734 -3.356 7.734 -3.137 QT
5.359 6.347 L
5.313 6.597 5.297 6.644 QT
5.297 6.863 6.422 6.863 QT
6.516 6.863 6.555 6.933 QT
6.594 7.004 6.594 7.082 QT
6.547 7.301 6.508 7.379 QT
6.469 7.457 6.313 7.457 QT
2.672 7.457 L
2.5 7.457 2.5 7.238 QT
cp
2.969 3.91 M
3.563 3.91 4.133 3.457 QT
4.703 3.004 5.125 2.379 QT
6.078 -1.449 L
5.984 -2.043 5.648 -2.481 QT
5.313 -2.918 4.75 -2.918 QT
4.188 -2.918 3.695 -2.449 QT
3.203 -1.981 2.859 -1.34 QT
2.531 -0.653 2.227 0.535 QT
1.922 1.722 1.922 2.379 QT
1.922 2.957 2.172 3.433 QT
2.422 3.91 2.969 3.91 QT
cp}def
f1497605115
f
GR
GS
[0.75 0 0 0.75 380.25597 55.82553] CT
N
/f-1488198628{9.019 5.401 M
9.019 5.135 9.082 4.815 QT
9.144 4.494 9.214 4.283 QT
9.285 4.072 9.511 3.471 QT
9.738 2.869 9.738 2.838 QT
9.894 2.401 9.894 2.119 QT
9.894 1.76 9.644 1.76 QT
9.16 1.76 8.855 2.252 QT
8.55 2.744 8.394 3.354 QT
8.378 3.432 8.3 3.432 QT
8.16 3.432 L
8.066 3.432 8.066 3.307 QT
8.066 3.276 L
8.253 2.557 8.652 2.01 QT
9.05 1.463 9.66 1.463 QT
10.082 1.463 10.378 1.744 QT
10.675 2.026 10.675 2.447 QT
10.675 2.682 10.582 2.916 QT
10.347 3.526 10.214 3.893 QT
10.082 4.26 9.964 4.713 QT
9.847 5.166 9.847 5.557 QT
9.847 6.01 10.058 6.291 QT
10.269 6.572 10.707 6.572 QT
11.535 6.572 12.207 5.291 QT
12.41 4.885 12.597 4.322 QT
12.785 3.76 12.785 3.401 QT
12.785 3.041 12.668 2.838 QT
12.55 2.635 12.363 2.416 QT
12.175 2.197 12.175 2.072 QT
12.175 1.838 12.371 1.643 QT
12.566 1.447 12.8 1.447 QT
13.082 1.447 13.214 1.713 QT
13.347 1.979 13.347 2.307 QT
13.347 2.697 13.23 3.252 QT
13.113 3.807 12.91 4.401 QT
12.707 4.994 12.535 5.322 QT
11.753 6.901 10.691 6.901 QT
9.941 6.901 9.48 6.518 QT
9.019 6.135 9.019 5.401 QT
cp}def
f-1488198628
f
GR
GS
[0.75 0 0 0.75 380.25597 55.82553] CT
N
/f-1342631729{15.164 6.76 M
15.164 6.338 L
16.664 6.338 16.664 5.963 QT
16.664 -0.349 L
16.054 -0.037 15.101 -0.037 QT
15.101 -0.459 L
16.57 -0.459 17.32 -1.24 QT
17.492 -1.24 L
17.523 -1.24 17.562 -1.201 QT
17.601 -1.162 17.601 -1.131 QT
17.601 5.963 L
17.601 6.338 19.101 6.338 QT
19.101 6.76 L
15.164 6.76 L
cp}def
f-1342631729
f
GR
GS
[0.75 0 0 0.75 0 0] CT
0.851 0.325 0.098 RC
1 LJ
2.667 LW
N
464.001 74.434 M
504.007 74.434 L
S
GR
GS
[0.75 0 0 0.75 380.25597 71.67447] CT
N
f1497605115
f
GR
GS
[0.75 0 0 0.75 380.25597 71.67447] CT
N
f-1488198628
f
GR
GS
[0.75 0 0 0.75 380.25597 71.67447] CT
N
/f-1123445722{14.648 6.76 M
14.648 6.432 L
14.648 6.401 14.679 6.369 QT
16.539 4.307 L
16.961 3.854 17.226 3.541 QT
17.492 3.229 17.75 2.822 QT
18.008 2.416 18.156 2.002 QT
18.304 1.588 18.304 1.119 QT
18.304 0.619 18.125 0.174 QT
17.945 -0.271 17.586 -0.545 QT
17.226 -0.818 16.711 -0.818 QT
16.195 -0.818 15.773 -0.498 QT
15.351 -0.178 15.179 0.307 QT
15.226 0.307 15.32 0.307 QT
15.586 0.307 15.773 0.486 QT
15.961 0.666 15.961 0.947 QT
15.961 1.229 15.773 1.416 QT
15.586 1.604 15.32 1.604 QT
15.039 1.604 14.844 1.408 QT
14.648 1.213 14.648 0.947 QT
14.648 0.494 14.82 0.104 QT
14.992 -0.287 15.312 -0.599 QT
15.633 -0.912 16.031 -1.076 QT
16.429 -1.24 16.883 -1.24 QT
17.57 -1.24 18.164 -0.943 QT
18.758 -0.646 19.101 -0.123 QT
19.445 0.401 19.445 1.119 QT
19.445 1.635 19.219 2.104 QT
18.992 2.572 18.633 2.955 QT
18.273 3.338 17.719 3.83 QT
17.164 4.322 16.992 4.479 QT
15.633 5.791 L
16.773 5.791 L
17.633 5.791 18.203 5.776 QT
18.773 5.76 18.804 5.729 QT
18.945 5.572 19.101 4.619 QT
19.445 4.619 L
19.101 6.76 L
14.648 6.76 L
cp}def
f-1123445722
f
GR
GS
[0.75 0 0 0.75 0 0] CT
0.929 0.694 0.125 RC
1 LJ
2.667 LW
N
464.001 95.566 M
504.007 95.566 L
S
GR
GS
[0.75 0 0 0.75 380.25597 87.5234] CT
N
f1497605115
f
GR
GS
[0.75 0 0 0.75 380.25597 87.5234] CT
N
f-1488198628
f
GR
GS
[0.75 0 0 0.75 380.25597 87.5234] CT
N
/f1812423837{15.195 5.838 M
15.476 6.244 15.953 6.44 QT
16.429 6.635 16.976 6.635 QT
17.664 6.635 17.961 6.041 QT
18.258 5.447 18.258 4.697 QT
18.258 4.354 18.195 4.018 QT
18.133 3.682 17.984 3.385 QT
17.836 3.088 17.586 2.916 QT
17.336 2.744 16.961 2.744 QT
16.164 2.744 L
16.054 2.744 16.054 2.635 QT
16.054 2.526 L
16.054 2.432 16.164 2.432 QT
16.82 2.369 L
17.242 2.369 17.523 2.057 QT
17.804 1.744 17.937 1.291 QT
18.07 0.838 18.07 0.432 QT
18.07 -0.146 17.797 -0.514 QT
17.523 -0.881 16.976 -0.881 QT
16.523 -0.881 16.101 -0.709 QT
15.679 -0.537 15.445 -0.193 QT
15.461 -0.193 15.476 -0.201 QT
15.492 -0.209 15.523 -0.209 QT
15.789 -0.209 15.969 -0.021 QT
16.148 0.166 16.148 0.432 QT
16.148 0.697 15.969 0.885 QT
15.789 1.072 15.523 1.072 QT
15.258 1.072 15.07 0.885 QT
14.883 0.697 14.883 0.432 QT
14.883 -0.084 15.195 -0.459 QT
15.508 -0.834 15.992 -1.037 QT
16.476 -1.24 16.976 -1.24 QT
17.336 -1.24 17.742 -1.131 QT
18.148 -1.021 18.476 -0.818 QT
18.804 -0.615 19.008 -0.295 QT
19.211 0.026 19.211 0.432 QT
19.211 0.932 18.992 1.361 QT
18.773 1.791 18.375 2.096 QT
17.976 2.401 17.508 2.557 QT
18.039 2.651 18.508 2.947 QT
18.976 3.244 19.258 3.697 QT
19.539 4.151 19.539 4.682 QT
19.539 5.354 19.179 5.885 QT
18.82 6.416 18.226 6.721 QT
17.633 7.026 16.976 7.026 QT
16.414 7.026 15.844 6.807 QT
15.273 6.588 14.914 6.166 QT
14.554 5.744 14.554 5.135 QT
14.554 4.838 14.758 4.643 QT
14.961 4.447 15.258 4.447 QT
15.445 4.447 15.609 4.533 QT
15.773 4.619 15.867 4.783 QT
15.961 4.947 15.961 5.135 QT
15.961 5.432 15.75 5.635 QT
15.539 5.838 15.258 5.838 QT
15.195 5.838 L
cp}def
f1812423837
f
GR
GS
[0.75 0 0 0.75 0 0] CT
0.494 0.184 0.557 RC
1 LJ
2.667 LW
N
464.001 116.698 M
504.007 116.698 L
S
GR
GS
[0.75 0 0 0.75 0 0] CT
0.149 GC
10.0 ML
0.667 LW
N
460 129 M
460 41 L
532 41 L
532 129 L
cp
S
GR
%%Trailer
%%Pages: 1
%%EOF
