%!PS-Adobe-3.0 EPSF-3.0
%%Creator: (MATLAB, The Mathworks, Inc. Version 9.4.0.813654 \(R2018a\). Operating System: Linux)
%%Title: ./plot/DiscSystem/plot_u.eps
%%CreationDate: 2019-03-01T17:47:25
%%Pages: (atend)
%%BoundingBox:    26     2   415   284
%%LanguageLevel: 3
%%EndComments
%%BeginProlog
%%BeginResource: procset (Apache XML Graphics Std ProcSet) 1.2 0
%%Version: 1.2 0
%%Copyright: (Copyright 2001-2003,2010 The Apache Software Foundation. License terms: http://www.apache.org/licenses/LICENSE-2.0)
/bd{bind def}bind def
/ld{load def}bd
/GR/grestore ld
/GS/gsave ld
/RM/rmoveto ld
/C/curveto ld
/t/show ld
/L/lineto ld
/ML/setmiterlimit ld
/CT/concat ld
/f/fill ld
/N/newpath ld
/S/stroke ld
/CC/setcmykcolor ld
/A/ashow ld
/cp/closepath ld
/RC/setrgbcolor ld
/LJ/setlinejoin ld
/GC/setgray ld
/LW/setlinewidth ld
/M/moveto ld
/re {4 2 roll M
1 index 0 rlineto
0 exch rlineto
neg 0 rlineto
cp } bd
/_ctm matrix def
/_tm matrix def
/BT { _ctm currentmatrix pop matrix _tm copy pop 0 0 moveto } bd
/ET { _ctm setmatrix } bd
/iTm { _ctm setmatrix _tm concat } bd
/Tm { _tm astore pop iTm 0 0 moveto } bd
/ux 0.0 def
/uy 0.0 def
/F {
  /Tp exch def
  /Tf exch def
  Tf findfont Tp scalefont setfont
  /cf Tf def  /cs Tp def
} bd
/ULS {currentpoint /uy exch def /ux exch def} bd
/ULE {
  /Tcx currentpoint pop def
  gsave
  newpath
  cf findfont cs scalefont dup
  /FontMatrix get 0 get /Ts exch def /FontInfo get dup
  /UnderlinePosition get Ts mul /To exch def
  /UnderlineThickness get Ts mul /Tt exch def
  ux uy To add moveto  Tcx uy To add lineto
  Tt setlinewidth stroke
  grestore
} bd
/OLE {
  /Tcx currentpoint pop def
  gsave
  newpath
  cf findfont cs scalefont dup
  /FontMatrix get 0 get /Ts exch def /FontInfo get dup
  /UnderlinePosition get Ts mul /To exch def
  /UnderlineThickness get Ts mul /Tt exch def
  ux uy To add cs add moveto Tcx uy To add cs add lineto
  Tt setlinewidth stroke
  grestore
} bd
/SOE {
  /Tcx currentpoint pop def
  gsave
  newpath
  cf findfont cs scalefont dup
  /FontMatrix get 0 get /Ts exch def /FontInfo get dup
  /UnderlinePosition get Ts mul /To exch def
  /UnderlineThickness get Ts mul /Tt exch def
  ux uy To add cs 10 mul 26 idiv add moveto Tcx uy To add cs 10 mul 26 idiv add lineto
  Tt setlinewidth stroke
  grestore
} bd
/QT {
/Y22 exch store
/X22 exch store
/Y21 exch store
/X21 exch store
currentpoint
/Y21 load 2 mul add 3 div exch
/X21 load 2 mul add 3 div exch
/X21 load 2 mul /X22 load add 3 div
/Y21 load 2 mul /Y22 load add 3 div
/X22 load /Y22 load curveto
} bd
/SSPD {
dup length /d exch dict def
{
/v exch def
/k exch def
currentpagedevice k known {
/cpdv currentpagedevice k get def
v cpdv ne {
/upd false def
/nullv v type /nulltype eq def
/nullcpdv cpdv type /nulltype eq def
nullv nullcpdv or
{
/upd true def
} {
/sametype v type cpdv type eq def
sametype {
v type /arraytype eq {
/vlen v length def
/cpdvlen cpdv length def
vlen cpdvlen eq {
0 1 vlen 1 sub {
/i exch def
/obj v i get def
/cpdobj cpdv i get def
obj cpdobj ne {
/upd true def
exit
} if
} for
} {
/upd true def
} ifelse
} {
v type /dicttype eq {
v {
/dv exch def
/dk exch def
/cpddv cpdv dk get def
dv cpddv ne {
/upd true def
exit
} if
} forall
} {
/upd true def
} ifelse
} ifelse
} if
} ifelse
upd true eq {
d k v put
} if
} if
} if
} forall
d length 0 gt {
d setpagedevice
} if
} bd
/RE { % /NewFontName [NewEncodingArray] /FontName RE -
  findfont dup length dict begin
  {
    1 index /FID ne
    {def} {pop pop} ifelse
  } forall
  /Encoding exch def
  /FontName 1 index def
  currentdict definefont pop
  end
} bind def
%%EndResource
%%BeginResource: procset (Apache XML Graphics EPS ProcSet) 1.0 0
%%Version: 1.0 0
%%Copyright: (Copyright 2002-2003 The Apache Software Foundation. License terms: http://www.apache.org/licenses/LICENSE-2.0)
/BeginEPSF { %def
/b4_Inc_state save def         % Save state for cleanup
/dict_count countdictstack def % Count objects on dict stack
/op_count count 1 sub def      % Count objects on operand stack
userdict begin                 % Push userdict on dict stack
/showpage { } def              % Redefine showpage, { } = null proc
0 setgray 0 setlinecap         % Prepare graphics state
1 setlinewidth 0 setlinejoin
10 setmiterlimit [ ] 0 setdash newpath
/languagelevel where           % If level not equal to 1 then
{pop languagelevel             % set strokeadjust and
1 ne                           % overprint to their defaults.
{false setstrokeadjust false setoverprint
} if
} if
} bd
/EndEPSF { %def
count op_count sub {pop} repeat            % Clean up stacks
countdictstack dict_count sub {end} repeat
b4_Inc_state restore
} bd
%%EndResource
%FOPBeginFontDict
%%IncludeResource: font Courier-Oblique
%%IncludeResource: font Courier-BoldOblique
%%IncludeResource: font Courier-Bold
%%IncludeResource: font ZapfDingbats
%%IncludeResource: font Symbol
%%IncludeResource: font Helvetica
%%IncludeResource: font Helvetica-Oblique
%%IncludeResource: font Helvetica-Bold
%%IncludeResource: font Helvetica-BoldOblique
%%IncludeResource: font Times-Roman
%%IncludeResource: font Times-Italic
%%IncludeResource: font Times-Bold
%%IncludeResource: font Times-BoldItalic
%%IncludeResource: font Courier
%FOPEndFontDict
%%BeginResource: encoding WinAnsiEncoding
/WinAnsiEncoding [
/.notdef /.notdef /.notdef /.notdef /.notdef
/.notdef /.notdef /.notdef /.notdef /.notdef
/.notdef /.notdef /.notdef /.notdef /.notdef
/.notdef /.notdef /.notdef /.notdef /.notdef
/.notdef /.notdef /.notdef /.notdef /.notdef
/.notdef /.notdef /.notdef /.notdef /.notdef
/.notdef /.notdef /space /exclam /quotedbl
/numbersign /dollar /percent /ampersand /quotesingle
/parenleft /parenright /asterisk /plus /comma
/hyphen /period /slash /zero /one
/two /three /four /five /six
/seven /eight /nine /colon /semicolon
/less /equal /greater /question /at
/A /B /C /D /E
/F /G /H /I /J
/K /L /M /N /O
/P /Q /R /S /T
/U /V /W /X /Y
/Z /bracketleft /backslash /bracketright /asciicircum
/underscore /quoteleft /a /b /c
/d /e /f /g /h
/i /j /k /l /m
/n /o /p /q /r
/s /t /u /v /w
/x /y /z /braceleft /bar
/braceright /asciitilde /bullet /Euro /bullet
/quotesinglbase /florin /quotedblbase /ellipsis /dagger
/daggerdbl /circumflex /perthousand /Scaron /guilsinglleft
/OE /bullet /Zcaron /bullet /bullet
/quoteleft /quoteright /quotedblleft /quotedblright /bullet
/endash /emdash /asciitilde /trademark /scaron
/guilsinglright /oe /bullet /zcaron /Ydieresis
/space /exclamdown /cent /sterling /currency
/yen /brokenbar /section /dieresis /copyright
/ordfeminine /guillemotleft /logicalnot /sfthyphen /registered
/macron /degree /plusminus /twosuperior /threesuperior
/acute /mu /paragraph /middot /cedilla
/onesuperior /ordmasculine /guillemotright /onequarter /onehalf
/threequarters /questiondown /Agrave /Aacute /Acircumflex
/Atilde /Adieresis /Aring /AE /Ccedilla
/Egrave /Eacute /Ecircumflex /Edieresis /Igrave
/Iacute /Icircumflex /Idieresis /Eth /Ntilde
/Ograve /Oacute /Ocircumflex /Otilde /Odieresis
/multiply /Oslash /Ugrave /Uacute /Ucircumflex
/Udieresis /Yacute /Thorn /germandbls /agrave
/aacute /acircumflex /atilde /adieresis /aring
/ae /ccedilla /egrave /eacute /ecircumflex
/edieresis /igrave /iacute /icircumflex /idieresis
/eth /ntilde /ograve /oacute /ocircumflex
/otilde /odieresis /divide /oslash /ugrave
/uacute /ucircumflex /udieresis /yacute /thorn
/ydieresis
] def
%%EndResource
%FOPBeginFontReencode
/Courier-Oblique findfont
dup length dict begin
  {1 index /FID ne {def} {pop pop} ifelse} forall
  /Encoding WinAnsiEncoding def
  currentdict
end
/Courier-Oblique exch definefont pop
/Courier-BoldOblique findfont
dup length dict begin
  {1 index /FID ne {def} {pop pop} ifelse} forall
  /Encoding WinAnsiEncoding def
  currentdict
end
/Courier-BoldOblique exch definefont pop
/Courier-Bold findfont
dup length dict begin
  {1 index /FID ne {def} {pop pop} ifelse} forall
  /Encoding WinAnsiEncoding def
  currentdict
end
/Courier-Bold exch definefont pop
/Helvetica findfont
dup length dict begin
  {1 index /FID ne {def} {pop pop} ifelse} forall
  /Encoding WinAnsiEncoding def
  currentdict
end
/Helvetica exch definefont pop
/Helvetica-Oblique findfont
dup length dict begin
  {1 index /FID ne {def} {pop pop} ifelse} forall
  /Encoding WinAnsiEncoding def
  currentdict
end
/Helvetica-Oblique exch definefont pop
/Helvetica-Bold findfont
dup length dict begin
  {1 index /FID ne {def} {pop pop} ifelse} forall
  /Encoding WinAnsiEncoding def
  currentdict
end
/Helvetica-Bold exch definefont pop
/Helvetica-BoldOblique findfont
dup length dict begin
  {1 index /FID ne {def} {pop pop} ifelse} forall
  /Encoding WinAnsiEncoding def
  currentdict
end
/Helvetica-BoldOblique exch definefont pop
/Times-Roman findfont
dup length dict begin
  {1 index /FID ne {def} {pop pop} ifelse} forall
  /Encoding WinAnsiEncoding def
  currentdict
end
/Times-Roman exch definefont pop
/Times-Italic findfont
dup length dict begin
  {1 index /FID ne {def} {pop pop} ifelse} forall
  /Encoding WinAnsiEncoding def
  currentdict
end
/Times-Italic exch definefont pop
/Times-Bold findfont
dup length dict begin
  {1 index /FID ne {def} {pop pop} ifelse} forall
  /Encoding WinAnsiEncoding def
  currentdict
end
/Times-Bold exch definefont pop
/Times-BoldItalic findfont
dup length dict begin
  {1 index /FID ne {def} {pop pop} ifelse} forall
  /Encoding WinAnsiEncoding def
  currentdict
end
/Times-BoldItalic exch definefont pop
/Courier findfont
dup length dict begin
  {1 index /FID ne {def} {pop pop} ifelse} forall
  /Encoding WinAnsiEncoding def
  currentdict
end
/Courier exch definefont pop
%FOPEndFontReencode
%%EndProlog
%%Page: 1 1
%%PageBoundingBox: 0 0 456 303
%%BeginPageSetup
[1 0 0 -1 0 303] CT
%%EndPageSetup
GS
[0.75 0 0 0.75 0 0] CT
1 GC
N
0 0 608 404 re
f
GR
GS
[0.75 0 0 0.75 0 0] CT
1 GC
N
0 0 608 404 re
f
GR
GS
[0.75 0 0 0.75 0 0] CT
1 GC
N
79 360 M
550 360 L
550 30 L
79 30 L
cp
f
GR
GS
[0.75 0 0 0.75 0 0] CT
0.873 GC
1 LJ
0.667 LW
N
79 360 M
79 30 L
S
GR
GS
[0.75 0 0 0.75 0 0] CT
0.873 GC
1 LJ
0.667 LW
N
173.2 360 M
173.2 30 L
S
GR
GS
[0.75 0 0 0.75 0 0] CT
0.873 GC
1 LJ
0.667 LW
N
267.4 360 M
267.4 30 L
S
GR
GS
[0.75 0 0 0.75 0 0] CT
0.873 GC
1 LJ
0.667 LW
N
361.6 360 M
361.6 30 L
S
GR
GS
[0.75 0 0 0.75 0 0] CT
0.873 GC
1 LJ
0.667 LW
N
455.8 360 M
455.8 30 L
S
GR
GS
[0.75 0 0 0.75 0 0] CT
0.873 GC
1 LJ
0.667 LW
N
550 360 M
550 30 L
S
GR
GS
[0.75 0 0 0.75 0 0] CT
0.873 GC
1 LJ
0.667 LW
N
550 360 M
79 360 L
S
GR
GS
[0.75 0 0 0.75 0 0] CT
0.873 GC
1 LJ
0.667 LW
N
550 327 M
79 327 L
S
GR
GS
[0.75 0 0 0.75 0 0] CT
0.873 GC
1 LJ
0.667 LW
N
550 294 M
79 294 L
S
GR
GS
[0.75 0 0 0.75 0 0] CT
0.873 GC
1 LJ
0.667 LW
N
550 261 M
79 261 L
S
GR
GS
[0.75 0 0 0.75 0 0] CT
0.873 GC
1 LJ
0.667 LW
N
550 228 M
79 228 L
S
GR
GS
[0.75 0 0 0.75 0 0] CT
0.873 GC
1 LJ
0.667 LW
N
550 195 M
79 195 L
S
GR
GS
[0.75 0 0 0.75 0 0] CT
0.873 GC
1 LJ
0.667 LW
N
550 162 M
79 162 L
S
GR
GS
[0.75 0 0 0.75 0 0] CT
0.873 GC
1 LJ
0.667 LW
N
550 129 M
79 129 L
S
GR
GS
[0.75 0 0 0.75 0 0] CT
0.873 GC
1 LJ
0.667 LW
N
550 96 M
79 96 L
S
GR
GS
[0.75 0 0 0.75 0 0] CT
0.873 GC
1 LJ
0.667 LW
N
550 63 M
79 63 L
S
GR
GS
[0.75 0 0 0.75 0 0] CT
0.873 GC
1 LJ
0.667 LW
N
550 30 M
79 30 L
S
GR
GS
[0.75 0 0 0.75 0 0] CT
0.149 GC
2 setlinecap
1 LJ
0.667 LW
N
79 360 M
550 360 L
S
GR
GS
[0.75 0 0 0.75 0 0] CT
0.149 GC
2 setlinecap
1 LJ
0.667 LW
N
79 30 M
550 30 L
S
GR
GS
[0.75 0 0 0.75 0 0] CT
0.149 GC
2 setlinecap
1 LJ
0.667 LW
N
79 360 M
79 355.29 L
S
GR
GS
[0.75 0 0 0.75 0 0] CT
0.149 GC
2 setlinecap
1 LJ
0.667 LW
N
173.2 360 M
173.2 355.29 L
S
GR
GS
[0.75 0 0 0.75 0 0] CT
0.149 GC
2 setlinecap
1 LJ
0.667 LW
N
267.4 360 M
267.4 355.29 L
S
GR
GS
[0.75 0 0 0.75 0 0] CT
0.149 GC
2 setlinecap
1 LJ
0.667 LW
N
361.6 360 M
361.6 355.29 L
S
GR
GS
[0.75 0 0 0.75 0 0] CT
0.149 GC
2 setlinecap
1 LJ
0.667 LW
N
455.8 360 M
455.8 355.29 L
S
GR
GS
[0.75 0 0 0.75 0 0] CT
0.149 GC
2 setlinecap
1 LJ
0.667 LW
N
550 360 M
550 355.29 L
S
GR
GS
[0.75 0 0 0.75 0 0] CT
0.149 GC
2 setlinecap
1 LJ
0.667 LW
N
79 30 M
79 34.71 L
S
GR
GS
[0.75 0 0 0.75 0 0] CT
0.149 GC
2 setlinecap
1 LJ
0.667 LW
N
173.2 30 M
173.2 34.71 L
S
GR
GS
[0.75 0 0 0.75 0 0] CT
0.149 GC
2 setlinecap
1 LJ
0.667 LW
N
267.4 30 M
267.4 34.71 L
S
GR
GS
[0.75 0 0 0.75 0 0] CT
0.149 GC
2 setlinecap
1 LJ
0.667 LW
N
361.6 30 M
361.6 34.71 L
S
GR
GS
[0.75 0 0 0.75 0 0] CT
0.149 GC
2 setlinecap
1 LJ
0.667 LW
N
455.8 30 M
455.8 34.71 L
S
GR
GS
[0.75 0 0 0.75 0 0] CT
0.149 GC
2 setlinecap
1 LJ
0.667 LW
N
550 30 M
550 34.71 L
S
GR
GS
[0.75 0 0 0.75 59.25 274.00001] CT
0.149 GC
/Helvetica 13.333 F
GS
[1 0 0 1 0 0] CT
-4.5 12 moveto 
1 -1 scale
(0) t 
GR
GR
GS
[0.75 0 0 0.75 129.9 274.00001] CT
0.149 GC
/Helvetica 13.333 F
GS
[1 0 0 1 0 0] CT
-4.5 12 moveto 
1 -1 scale
(1) t 
GR
GR
GS
[0.75 0 0 0.75 200.55 274.00001] CT
0.149 GC
/Helvetica 13.333 F
GS
[1 0 0 1 0 0] CT
-4.5 12 moveto 
1 -1 scale
(2) t 
GR
GR
GS
[0.75 0 0 0.75 271.2 274.00001] CT
0.149 GC
/Helvetica 13.333 F
GS
[1 0 0 1 0 0] CT
-4.5 12 moveto 
1 -1 scale
(3) t 
GR
GR
GS
[0.75 0 0 0.75 341.84999 274.00001] CT
0.149 GC
/Helvetica 13.333 F
GS
[1 0 0 1 0 0] CT
-4.5 12 moveto 
1 -1 scale
(4) t 
GR
GR
GS
[0.75 0 0 0.75 412.5 274.00001] CT
0.149 GC
/Helvetica 13.333 F
GS
[1 0 0 1 0 0] CT
-4.5 12 moveto 
1 -1 scale
(5) t 
GR
GR
GS
[0.75 0 0 0.75 235.87516 285.49999] CT
0.149 GC
N
-30.034 15.68 M
-30.034 15.008 L
-29.065 15.008 -28.167 14.906 QT
-27.268 14.805 -27.268 14.414 QT
-27.268 3.977 L
-27.268 3.571 -27.495 3.469 QT
-27.721 3.367 -28.237 3.367 QT
-29.034 3.367 L
-30.596 3.367 -31.268 4.055 QT
-31.596 4.399 -31.745 5.156 QT
-31.893 5.914 -32.003 7.055 QT
-32.55 7.055 L
-32.19 2.696 L
-20.581 2.696 L
-20.221 7.055 L
-20.784 7.055 L
-20.893 5.821 -21.026 5.102 QT
-21.159 4.383 -21.503 4.055 QT
-22.175 3.367 -23.737 3.367 QT
-24.534 3.367 L
-24.878 3.367 -25.065 3.399 QT
-25.253 3.43 -25.378 3.563 QT
-25.503 3.696 -25.503 3.977 QT
-25.503 14.414 L
-25.503 14.805 -24.604 14.906 QT
-23.706 15.008 -22.753 15.008 QT
-22.753 15.68 L
-30.034 15.68 L
cp
f
GR
GS
[0.75 0 0 0.75 235.87516 285.49999] CT
0.149 GC
N
-19.177 15.68 M
-19.177 15.008 L
-18.521 15.008 -18.107 14.906 QT
-17.693 14.805 -17.693 14.414 QT
-17.693 9.227 L
-17.693 8.492 -17.974 8.321 QT
-18.256 8.149 -19.084 8.149 QT
-19.084 7.492 L
-16.349 7.289 L
-16.349 14.414 L
-16.349 14.805 -15.99 14.906 QT
-15.631 15.008 -15.021 15.008 QT
-15.021 15.68 L
-19.177 15.68 L
cp
-18.365 4.024 M
-18.365 3.602 -18.052 3.289 QT
-17.74 2.977 -17.318 2.977 QT
-17.052 2.977 -16.802 3.11 QT
-16.552 3.242 -16.412 3.492 QT
-16.271 3.742 -16.271 4.024 QT
-16.271 4.43 -16.592 4.742 QT
-16.912 5.055 -17.318 5.055 QT
-17.74 5.055 -18.052 4.742 QT
-18.365 4.43 -18.365 4.024 QT
cp
f
GR
GS
[0.75 0 0 0.75 235.87516 285.49999] CT
0.149 GC
N
-14.008 15.68 M
-14.008 15.008 L
-13.352 15.008 -12.938 14.906 QT
-12.523 14.805 -12.523 14.414 QT
-12.523 9.227 L
-12.523 8.711 -12.672 8.485 QT
-12.82 8.258 -13.109 8.203 QT
-13.398 8.149 -14.008 8.149 QT
-14.008 7.492 L
-11.242 7.289 L
-11.242 9.133 L
-10.867 8.321 -10.117 7.805 QT
-9.367 7.289 -8.492 7.289 QT
-6.305 7.289 -5.93 9.071 QT
-5.539 8.274 -4.805 7.781 QT
-4.07 7.289 -3.211 7.289 QT
-2.336 7.289 -1.75 7.563 QT
-1.164 7.836 -0.867 8.406 QT
-0.57 8.977 -0.57 9.852 QT
-0.57 14.414 L
-0.57 14.805 -0.148 14.906 QT
0.273 15.008 0.914 15.008 QT
0.914 15.68 L
-3.43 15.68 L
-3.43 15.008 L
-2.789 15.008 -2.367 14.906 QT
-1.945 14.805 -1.945 14.414 QT
-1.945 9.899 L
-1.945 8.946 -2.219 8.36 QT
-2.492 7.774 -3.32 7.774 QT
-4.414 7.774 -5.133 8.656 QT
-5.852 9.539 -5.852 10.664 QT
-5.852 14.414 L
-5.852 14.805 -5.43 14.906 QT
-5.008 15.008 -4.367 15.008 QT
-4.367 15.68 L
-8.711 15.68 L
-8.711 15.008 L
-8.07 15.008 -7.648 14.906 QT
-7.227 14.805 -7.227 14.414 QT
-7.227 9.899 L
-7.227 8.977 -7.5 8.375 QT
-7.773 7.774 -8.602 7.774 QT
-9.711 7.774 -10.422 8.656 QT
-11.133 9.539 -11.133 10.664 QT
-11.133 14.414 L
-11.133 14.805 -10.711 14.906 QT
-10.289 15.008 -9.648 15.008 QT
-9.648 15.68 L
-14.008 15.68 L
cp
f
GR
GS
[0.75 0 0 0.75 235.87516 285.49999] CT
0.149 GC
N
5.72 15.899 M
4.563 15.899 3.595 15.289 QT
2.626 14.68 2.071 13.664 QT
1.516 12.649 1.516 11.508 QT
1.516 10.399 2.024 9.399 QT
2.532 8.399 3.431 7.781 QT
4.329 7.164 5.454 7.164 QT
6.313 7.164 6.962 7.453 QT
7.61 7.742 8.024 8.266 QT
8.438 8.789 8.657 9.492 QT
8.876 10.196 8.876 11.039 QT
8.876 11.289 8.673 11.289 QT
3.173 11.289 L
3.173 11.492 L
3.173 13.071 3.806 14.203 QT
4.438 15.336 5.891 15.336 QT
6.47 15.336 6.962 15.078 QT
7.454 14.821 7.821 14.352 QT
8.188 13.883 8.329 13.367 QT
8.345 13.289 8.391 13.242 QT
8.438 13.196 8.516 13.196 QT
8.673 13.196 L
8.876 13.196 8.876 13.43 QT
8.595 14.508 7.704 15.203 QT
6.813 15.899 5.72 15.899 QT
cp
3.188 10.821 M
7.532 10.821 L
7.532 10.102 7.329 9.367 QT
7.126 8.633 6.665 8.149 QT
6.204 7.664 5.454 7.664 QT
4.376 7.664 3.782 8.672 QT
3.188 9.68 3.188 10.821 QT
cp
f
GR
GS
[0.75 0 0 0.75 235.87516 285.49999] CT
0.149 GC
N
17.754 20.43 M
17.754 1.43 L
20.347 1.43 L
20.347 2.196 L
18.504 2.196 L
18.504 19.664 L
20.347 19.664 L
20.347 20.43 L
17.754 20.43 L
cp
f
GR
GS
[0.75 0 0 0.75 235.87516 285.49999] CT
0.149 GC
N
21.314 15.742 M
21.314 12.633 L
21.314 12.492 21.486 12.492 QT
21.72 12.492 L
21.83 12.492 21.861 12.633 QT
22.392 15.399 24.423 15.399 QT
25.33 15.399 25.939 14.985 QT
26.548 14.571 26.548 13.727 QT
26.548 13.117 26.072 12.68 QT
25.595 12.242 24.955 12.086 QT
23.673 11.836 L
23.033 11.696 22.509 11.406 QT
21.986 11.117 21.65 10.641 QT
21.314 10.164 21.314 9.539 QT
21.314 8.696 21.759 8.164 QT
22.205 7.633 22.908 7.399 QT
23.611 7.164 24.423 7.164 QT
25.408 7.164 26.126 7.68 QT
26.673 7.211 L
26.673 7.164 26.767 7.164 QT
26.908 7.164 L
26.955 7.164 27.001 7.211 QT
27.048 7.258 27.048 7.321 QT
27.048 9.805 L
27.048 9.977 26.908 9.977 QT
26.673 9.977 L
26.501 9.977 26.501 9.805 QT
26.501 8.821 25.955 8.211 QT
25.408 7.602 24.408 7.602 QT
23.548 7.602 22.923 7.922 QT
22.298 8.242 22.298 9.008 QT
22.298 9.539 22.751 9.875 QT
23.205 10.211 23.814 10.367 QT
25.095 10.602 L
25.751 10.758 26.306 11.11 QT
26.861 11.461 27.197 12 QT
27.533 12.539 27.533 13.211 QT
27.533 13.899 27.29 14.406 QT
27.048 14.914 26.626 15.242 QT
26.205 15.571 25.634 15.735 QT
25.064 15.899 24.423 15.899 QT
23.236 15.899 22.392 15.102 QT
21.705 15.852 L
21.705 15.899 21.595 15.899 QT
21.486 15.899 L
21.314 15.899 21.314 15.742 QT
cp
f
GR
GS
[0.75 0 0 0.75 235.87516 285.49999] CT
0.149 GC
N
28.474 20.43 M
28.474 19.664 L
30.318 19.664 L
30.318 2.196 L
28.474 2.196 L
28.474 1.43 L
31.083 1.43 L
31.083 20.43 L
28.474 20.43 L
cp
f
GR
GS
[0.75 0 0 0.75 0 0] CT
0.149 GC
2 setlinecap
1 LJ
0.667 LW
N
79 360 M
79 30 L
S
GR
GS
[0.75 0 0 0.75 0 0] CT
0.149 GC
2 setlinecap
1 LJ
0.667 LW
N
550 360 M
550 30 L
S
GR
GS
[0.75 0 0 0.75 0 0] CT
0.149 GC
2 setlinecap
1 LJ
0.667 LW
N
79 360 M
83.71 360 L
S
GR
GS
[0.75 0 0 0.75 0 0] CT
0.149 GC
2 setlinecap
1 LJ
0.667 LW
N
79 327 M
83.71 327 L
S
GR
GS
[0.75 0 0 0.75 0 0] CT
0.149 GC
2 setlinecap
1 LJ
0.667 LW
N
79 294 M
83.71 294 L
S
GR
GS
[0.75 0 0 0.75 0 0] CT
0.149 GC
2 setlinecap
1 LJ
0.667 LW
N
79 261 M
83.71 261 L
S
GR
GS
[0.75 0 0 0.75 0 0] CT
0.149 GC
2 setlinecap
1 LJ
0.667 LW
N
79 228 M
83.71 228 L
S
GR
GS
[0.75 0 0 0.75 0 0] CT
0.149 GC
2 setlinecap
1 LJ
0.667 LW
N
79 195 M
83.71 195 L
S
GR
GS
[0.75 0 0 0.75 0 0] CT
0.149 GC
2 setlinecap
1 LJ
0.667 LW
N
79 162 M
83.71 162 L
S
GR
GS
[0.75 0 0 0.75 0 0] CT
0.149 GC
2 setlinecap
1 LJ
0.667 LW
N
79 129 M
83.71 129 L
S
GR
GS
[0.75 0 0 0.75 0 0] CT
0.149 GC
2 setlinecap
1 LJ
0.667 LW
N
79 96 M
83.71 96 L
S
GR
GS
[0.75 0 0 0.75 0 0] CT
0.149 GC
2 setlinecap
1 LJ
0.667 LW
N
79 63 M
83.71 63 L
S
GR
GS
[0.75 0 0 0.75 0 0] CT
0.149 GC
2 setlinecap
1 LJ
0.667 LW
N
79 30 M
83.71 30 L
S
GR
GS
[0.75 0 0 0.75 0 0] CT
0.149 GC
2 setlinecap
1 LJ
0.667 LW
N
550 360 M
545.29 360 L
S
GR
GS
[0.75 0 0 0.75 0 0] CT
0.149 GC
2 setlinecap
1 LJ
0.667 LW
N
550 327 M
545.29 327 L
S
GR
GS
[0.75 0 0 0.75 0 0] CT
0.149 GC
2 setlinecap
1 LJ
0.667 LW
N
550 294 M
545.29 294 L
S
GR
GS
[0.75 0 0 0.75 0 0] CT
0.149 GC
2 setlinecap
1 LJ
0.667 LW
N
550 261 M
545.29 261 L
S
GR
GS
[0.75 0 0 0.75 0 0] CT
0.149 GC
2 setlinecap
1 LJ
0.667 LW
N
550 228 M
545.29 228 L
S
GR
GS
[0.75 0 0 0.75 0 0] CT
0.149 GC
2 setlinecap
1 LJ
0.667 LW
N
550 195 M
545.29 195 L
S
GR
GS
[0.75 0 0 0.75 0 0] CT
0.149 GC
2 setlinecap
1 LJ
0.667 LW
N
550 162 M
545.29 162 L
S
GR
GS
[0.75 0 0 0.75 0 0] CT
0.149 GC
2 setlinecap
1 LJ
0.667 LW
N
550 129 M
545.29 129 L
S
GR
GS
[0.75 0 0 0.75 0 0] CT
0.149 GC
2 setlinecap
1 LJ
0.667 LW
N
550 96 M
545.29 96 L
S
GR
GS
[0.75 0 0 0.75 0 0] CT
0.149 GC
2 setlinecap
1 LJ
0.667 LW
N
550 63 M
545.29 63 L
S
GR
GS
[0.75 0 0 0.75 0 0] CT
0.149 GC
2 setlinecap
1 LJ
0.667 LW
N
550 30 M
545.29 30 L
S
GR
GS
[0.75 0 0 0.75 55.25 270] CT
0.149 GC
/Helvetica 13.333 F
GS
[1 0 0 1 0 0] CT
-14 5 moveto 
1 -1 scale
(-4) t 
GR
GR
GS
[0.75 0 0 0.75 55.25 245.25] CT
0.149 GC
/Helvetica 13.333 F
GS
[1 0 0 1 0 0] CT
-14 5 moveto 
1 -1 scale
(-3) t 
GR
GR
GS
[0.75 0 0 0.75 55.25 220.5] CT
0.149 GC
/Helvetica 13.333 F
GS
[1 0 0 1 0 0] CT
-14 5 moveto 
1 -1 scale
(-2) t 
GR
GR
GS
[0.75 0 0 0.75 55.25 195.75] CT
0.149 GC
/Helvetica 13.333 F
GS
[1 0 0 1 0 0] CT
-14 5 moveto 
1 -1 scale
(-1) t 
GR
GR
GS
[0.75 0 0 0.75 55.25 171] CT
0.149 GC
/Helvetica 13.333 F
GS
[1 0 0 1 0 0] CT
-9 5 moveto 
1 -1 scale
(0) t 
GR
GR
GS
[0.75 0 0 0.75 55.25 146.25] CT
0.149 GC
/Helvetica 13.333 F
GS
[1 0 0 1 0 0] CT
-9 5 moveto 
1 -1 scale
(1) t 
GR
GR
GS
[0.75 0 0 0.75 55.25 121.5] CT
0.149 GC
/Helvetica 13.333 F
GS
[1 0 0 1 0 0] CT
-9 5 moveto 
1 -1 scale
(2) t 
GR
GR
GS
[0.75 0 0 0.75 55.25 96.75] CT
0.149 GC
/Helvetica 13.333 F
GS
[1 0 0 1 0 0] CT
-9 5 moveto 
1 -1 scale
(3) t 
GR
GR
GS
[0.75 0 0 0.75 55.25 72] CT
0.149 GC
/Helvetica 13.333 F
GS
[1 0 0 1 0 0] CT
-9 5 moveto 
1 -1 scale
(4) t 
GR
GR
GS
[0.75 0 0 0.75 55.25 47.25] CT
0.149 GC
/Helvetica 13.333 F
GS
[1 0 0 1 0 0] CT
-9 5 moveto 
1 -1 scale
(5) t 
GR
GR
GS
[0.75 0 0 0.75 55.25 22.5] CT
0.149 GC
/Helvetica 13.333 F
GS
[1 0 0 1 0 0] CT
-9 5 moveto 
1 -1 scale
(6) t 
GR
GR
GS
[0 -0.75 0.75 0 41.75 146.24989] CT
0.149 GC
N
-84.218 -6.72 M
-84.218 -7.392 L
-82.155 -7.392 -82.155 -7.986 QT
-82.155 -18.423 L
-82.155 -19.033 -84.218 -19.033 QT
-84.218 -19.704 L
-78.343 -19.704 L
-78.343 -19.033 L
-80.39 -19.033 -80.39 -18.423 QT
-80.39 -7.986 L
-80.39 -7.392 -78.343 -7.392 QT
-78.343 -6.72 L
-84.218 -6.72 L
cp
f
GR
GS
[0 -0.75 0.75 0 41.75 146.24989] CT
0.149 GC
N
-77.399 -6.72 M
-77.399 -7.392 L
-76.743 -7.392 -76.329 -7.494 QT
-75.915 -7.595 -75.915 -7.986 QT
-75.915 -13.173 L
-75.915 -13.689 -76.063 -13.915 QT
-76.212 -14.142 -76.501 -14.197 QT
-76.79 -14.251 -77.399 -14.251 QT
-77.399 -14.908 L
-74.633 -15.111 L
-74.633 -13.267 L
-74.258 -14.079 -73.508 -14.595 QT
-72.758 -15.111 -71.883 -15.111 QT
-70.571 -15.111 -69.907 -14.486 QT
-69.243 -13.861 -69.243 -12.548 QT
-69.243 -7.986 L
-69.243 -7.595 -68.821 -7.494 QT
-68.399 -7.392 -67.758 -7.392 QT
-67.758 -6.72 L
-72.102 -6.72 L
-72.102 -7.392 L
-71.462 -7.392 -71.04 -7.494 QT
-70.618 -7.595 -70.618 -7.986 QT
-70.618 -12.501 L
-70.618 -13.423 -70.891 -14.025 QT
-71.165 -14.626 -71.993 -14.626 QT
-73.102 -14.626 -73.813 -13.744 QT
-74.524 -12.861 -74.524 -11.736 QT
-74.524 -7.986 L
-74.524 -7.595 -74.102 -7.494 QT
-73.68 -7.392 -73.04 -7.392 QT
-73.04 -6.72 L
-77.399 -6.72 L
cp
f
GR
GS
[0 -0.75 0.75 0 41.75 146.24989] CT
0.149 GC
N
-67.107 -3.033 M
-67.107 -3.689 L
-66.451 -3.689 -66.036 -3.806 QT
-65.622 -3.923 -65.622 -4.314 QT
-65.622 -13.47 L
-65.622 -13.986 -65.99 -14.119 QT
-66.357 -14.251 -67.107 -14.251 QT
-67.107 -14.908 L
-64.294 -15.111 L
-64.294 -13.939 L
-63.763 -14.517 -63.076 -14.814 QT
-62.388 -15.111 -61.607 -15.111 QT
-60.482 -15.111 -59.583 -14.509 QT
-58.685 -13.908 -58.177 -12.915 QT
-57.669 -11.923 -57.669 -10.814 QT
-57.669 -9.673 -58.232 -8.681 QT
-58.794 -7.689 -59.763 -7.095 QT
-60.732 -6.501 -61.888 -6.501 QT
-63.279 -6.501 -64.232 -7.626 QT
-64.232 -4.314 L
-64.232 -3.923 -63.81 -3.806 QT
-63.388 -3.689 -62.747 -3.689 QT
-62.747 -3.033 L
-67.107 -3.033 L
cp
-64.232 -8.564 M
-63.904 -7.892 -63.31 -7.447 QT
-62.716 -7.001 -62.013 -7.001 QT
-61.341 -7.001 -60.841 -7.361 QT
-60.341 -7.72 -59.997 -8.314 QT
-59.654 -8.908 -59.49 -9.556 QT
-59.326 -10.204 -59.326 -10.814 QT
-59.326 -11.579 -59.599 -12.47 QT
-59.872 -13.361 -60.435 -13.962 QT
-60.997 -14.564 -61.794 -14.564 QT
-62.56 -14.564 -63.208 -14.173 QT
-63.857 -13.783 -64.232 -13.111 QT
-64.232 -8.564 L
cp
f
GR
GS
[0 -0.75 0.75 0 41.75 146.24989] CT
0.149 GC
N
-55.174 -8.986 M
-55.174 -13.173 L
-55.174 -13.689 -55.322 -13.915 QT
-55.471 -14.142 -55.76 -14.197 QT
-56.049 -14.251 -56.658 -14.251 QT
-56.658 -14.908 L
-53.783 -15.111 L
-53.783 -8.986 L
-53.783 -8.236 -53.674 -7.829 QT
-53.565 -7.423 -53.221 -7.212 QT
-52.877 -7.001 -52.111 -7.001 QT
-51.096 -7.001 -50.486 -7.861 QT
-49.877 -8.72 -49.877 -9.798 QT
-49.877 -13.173 L
-49.877 -13.689 -50.041 -13.915 QT
-50.205 -14.142 -50.486 -14.197 QT
-50.768 -14.251 -51.361 -14.251 QT
-51.361 -14.908 L
-48.502 -15.111 L
-48.502 -8.439 L
-48.502 -7.939 -48.346 -7.712 QT
-48.19 -7.486 -47.9 -7.439 QT
-47.611 -7.392 -47.018 -7.392 QT
-47.018 -6.72 L
-49.83 -6.501 L
-49.83 -8.111 L
-50.174 -7.392 -50.807 -6.947 QT
-51.44 -6.501 -52.205 -6.501 QT
-53.565 -6.501 -54.369 -7.087 QT
-55.174 -7.673 -55.174 -8.986 QT
cp
f
GR
GS
[0 -0.75 0.75 0 41.75 146.24989] CT
0.149 GC
N
-44.913 -9.001 M
-44.913 -14.251 L
-46.491 -14.251 L
-46.491 -14.736 L
-45.241 -14.736 -44.655 -15.892 QT
-44.069 -17.048 -44.069 -18.408 QT
-43.522 -18.408 L
-43.522 -14.908 L
-40.85 -14.908 L
-40.85 -14.251 L
-43.522 -14.251 L
-43.522 -9.033 L
-43.522 -8.251 -43.264 -7.658 QT
-43.007 -7.064 -42.319 -7.064 QT
-41.663 -7.064 -41.374 -7.689 QT
-41.085 -8.314 -41.085 -9.033 QT
-41.085 -10.158 L
-40.538 -10.158 L
-40.538 -9.001 L
-40.538 -8.408 -40.757 -7.829 QT
-40.975 -7.251 -41.405 -6.876 QT
-41.835 -6.501 -42.444 -6.501 QT
-43.585 -6.501 -44.249 -7.189 QT
-44.913 -7.876 -44.913 -9.001 QT
cp
f
GR
GS
[0 -0.75 0.75 0 41.75 146.24989] CT
0.149 GC
N
-32.76 -6.72 M
-32.76 -7.392 L
-31.056 -7.392 -30.666 -8.517 QT
-26.681 -20.111 L
-26.619 -20.314 -26.369 -20.314 QT
-26.135 -20.314 L
-25.885 -20.314 -25.822 -20.111 QT
-21.666 -7.986 L
-21.478 -7.595 -20.986 -7.494 QT
-20.494 -7.392 -19.744 -7.392 QT
-19.744 -6.72 L
-25.041 -6.72 L
-25.041 -7.392 L
-23.463 -7.392 -23.463 -7.892 QT
-23.463 -7.986 L
-24.494 -10.954 L
-29.103 -10.954 L
-29.963 -8.517 L
-29.978 -8.439 -29.978 -8.314 QT
-29.978 -7.845 -29.533 -7.619 QT
-29.088 -7.392 -28.556 -7.392 QT
-28.556 -6.72 L
-32.76 -6.72 L
cp
-28.885 -11.626 M
-24.728 -11.626 L
-26.806 -17.689 L
-28.885 -11.626 L
cp
f
GR
GS
[0 -0.75 0.75 0 41.75 146.24989] CT
0.149 GC
N
-14.634 -6.501 M
-15.791 -6.501 -16.728 -7.103 QT
-17.666 -7.704 -18.205 -8.704 QT
-18.744 -9.704 -18.744 -10.814 QT
-18.744 -11.939 -18.205 -12.97 QT
-17.666 -14.001 -16.728 -14.619 QT
-15.791 -15.236 -14.634 -15.236 QT
-13.525 -15.236 -12.611 -14.798 QT
-11.697 -14.361 -11.697 -13.376 QT
-11.697 -13.001 -11.963 -12.728 QT
-12.228 -12.454 -12.603 -12.454 QT
-12.978 -12.454 -13.244 -12.728 QT
-13.509 -13.001 -13.509 -13.376 QT
-13.509 -13.704 -13.299 -13.954 QT
-13.088 -14.204 -12.775 -14.267 QT
-13.431 -14.673 -14.619 -14.673 QT
-15.525 -14.673 -16.08 -14.072 QT
-16.634 -13.47 -16.861 -12.579 QT
-17.088 -11.689 -17.088 -10.814 QT
-17.088 -9.908 -16.814 -9.048 QT
-16.541 -8.189 -15.931 -7.626 QT
-15.322 -7.064 -14.4 -7.064 QT
-13.509 -7.064 -12.877 -7.619 QT
-12.244 -8.173 -12.009 -9.064 QT
-12.009 -9.173 -11.869 -9.173 QT
-11.634 -9.173 L
-11.572 -9.173 -11.525 -9.119 QT
-11.478 -9.064 -11.478 -9.001 QT
-11.478 -8.954 L
-11.775 -7.829 -12.627 -7.165 QT
-13.478 -6.501 -14.634 -6.501 QT
cp
f
GR
GS
[0 -0.75 0.75 0 41.75 146.24989] CT
0.149 GC
N
-6.338 -6.501 M
-7.494 -6.501 -8.432 -7.103 QT
-9.369 -7.704 -9.909 -8.704 QT
-10.448 -9.704 -10.448 -10.814 QT
-10.448 -11.939 -9.909 -12.97 QT
-9.369 -14.001 -8.432 -14.619 QT
-7.494 -15.236 -6.338 -15.236 QT
-5.229 -15.236 -4.315 -14.798 QT
-3.401 -14.361 -3.401 -13.376 QT
-3.401 -13.001 -3.666 -12.728 QT
-3.932 -12.454 -4.307 -12.454 QT
-4.682 -12.454 -4.948 -12.728 QT
-5.213 -13.001 -5.213 -13.376 QT
-5.213 -13.704 -5.002 -13.954 QT
-4.791 -14.204 -4.479 -14.267 QT
-5.135 -14.673 -6.323 -14.673 QT
-7.229 -14.673 -7.784 -14.072 QT
-8.338 -13.47 -8.565 -12.579 QT
-8.791 -11.689 -8.791 -10.814 QT
-8.791 -9.908 -8.518 -9.048 QT
-8.244 -8.189 -7.635 -7.626 QT
-7.026 -7.064 -6.104 -7.064 QT
-5.213 -7.064 -4.58 -7.619 QT
-3.948 -8.173 -3.713 -9.064 QT
-3.713 -9.173 -3.573 -9.173 QT
-3.338 -9.173 L
-3.276 -9.173 -3.229 -9.119 QT
-3.182 -9.064 -3.182 -9.001 QT
-3.182 -8.954 L
-3.479 -7.829 -4.33 -7.165 QT
-5.182 -6.501 -6.338 -6.501 QT
cp
f
GR
GS
[0 -0.75 0.75 0 41.75 146.24989] CT
0.149 GC
N
1.958 -6.501 M
0.802 -6.501 -0.167 -7.111 QT
-1.136 -7.72 -1.69 -8.736 QT
-2.245 -9.751 -2.245 -10.892 QT
-2.245 -12.001 -1.737 -13.001 QT
-1.229 -14.001 -0.331 -14.619 QT
0.567 -15.236 1.692 -15.236 QT
2.552 -15.236 3.2 -14.947 QT
3.849 -14.658 4.263 -14.134 QT
4.677 -13.611 4.896 -12.908 QT
5.114 -12.204 5.114 -11.361 QT
5.114 -11.111 4.911 -11.111 QT
-0.589 -11.111 L
-0.589 -10.908 L
-0.589 -9.329 0.044 -8.197 QT
0.677 -7.064 2.13 -7.064 QT
2.708 -7.064 3.2 -7.322 QT
3.692 -7.579 4.06 -8.048 QT
4.427 -8.517 4.567 -9.033 QT
4.583 -9.111 4.63 -9.158 QT
4.677 -9.204 4.755 -9.204 QT
4.911 -9.204 L
5.114 -9.204 5.114 -8.97 QT
4.833 -7.892 3.942 -7.197 QT
3.052 -6.501 1.958 -6.501 QT
cp
-0.573 -11.579 M
3.771 -11.579 L
3.771 -12.298 3.567 -13.033 QT
3.364 -13.767 2.903 -14.251 QT
2.442 -14.736 1.692 -14.736 QT
0.614 -14.736 0.021 -13.728 QT
-0.573 -12.72 -0.573 -11.579 QT
cp
f
GR
GS
[0 -0.75 0.75 0 41.75 146.24989] CT
0.149 GC
N
6.098 -6.72 M
6.098 -7.392 L
6.754 -7.392 7.168 -7.494 QT
7.583 -7.595 7.583 -7.986 QT
7.583 -17.97 L
7.583 -18.47 7.434 -18.697 QT
7.286 -18.923 6.997 -18.978 QT
6.708 -19.033 6.098 -19.033 QT
6.098 -19.704 L
8.926 -19.908 L
8.926 -7.986 L
8.926 -7.595 9.34 -7.494 QT
9.754 -7.392 10.395 -7.392 QT
10.395 -6.72 L
6.098 -6.72 L
cp
f
GR
GS
[0 -0.75 0.75 0 41.75 146.24989] CT
0.149 GC
N
15.44 -6.501 M
14.283 -6.501 13.315 -7.111 QT
12.346 -7.72 11.791 -8.736 QT
11.236 -9.751 11.236 -10.892 QT
11.236 -12.001 11.744 -13.001 QT
12.252 -14.001 13.151 -14.619 QT
14.049 -15.236 15.174 -15.236 QT
16.033 -15.236 16.682 -14.947 QT
17.33 -14.658 17.744 -14.134 QT
18.158 -13.611 18.377 -12.908 QT
18.596 -12.204 18.596 -11.361 QT
18.596 -11.111 18.393 -11.111 QT
12.893 -11.111 L
12.893 -10.908 L
12.893 -9.329 13.526 -8.197 QT
14.158 -7.064 15.611 -7.064 QT
16.19 -7.064 16.682 -7.322 QT
17.174 -7.579 17.541 -8.048 QT
17.908 -8.517 18.049 -9.033 QT
18.065 -9.111 18.111 -9.158 QT
18.158 -9.204 18.236 -9.204 QT
18.393 -9.204 L
18.596 -9.204 18.596 -8.97 QT
18.315 -7.892 17.424 -7.197 QT
16.533 -6.501 15.44 -6.501 QT
cp
12.908 -11.579 M
17.252 -11.579 L
17.252 -12.298 17.049 -13.033 QT
16.846 -13.767 16.385 -14.251 QT
15.924 -14.736 15.174 -14.736 QT
14.096 -14.736 13.502 -13.728 QT
12.908 -12.72 12.908 -11.579 QT
cp
f
GR
GS
[0 -0.75 0.75 0 41.75 146.24989] CT
0.149 GC
N
19.486 -6.72 M
19.486 -7.392 L
20.142 -7.392 20.556 -7.494 QT
20.97 -7.595 20.97 -7.986 QT
20.97 -13.173 L
20.97 -13.689 20.822 -13.915 QT
20.673 -14.142 20.384 -14.197 QT
20.095 -14.251 19.486 -14.251 QT
19.486 -14.908 L
22.205 -15.111 L
22.205 -13.267 L
22.517 -14.079 23.08 -14.595 QT
23.642 -15.111 24.455 -15.111 QT
25.017 -15.111 25.462 -14.783 QT
25.908 -14.454 25.908 -13.908 QT
25.908 -13.564 25.666 -13.306 QT
25.423 -13.048 25.064 -13.048 QT
24.705 -13.048 24.455 -13.298 QT
24.205 -13.548 24.205 -13.908 QT
24.205 -14.408 24.564 -14.626 QT
24.455 -14.626 L
23.689 -14.626 23.205 -14.072 QT
22.72 -13.517 22.509 -12.689 QT
22.298 -11.861 22.298 -11.111 QT
22.298 -7.986 L
22.298 -7.392 24.158 -7.392 QT
24.158 -6.72 L
19.486 -6.72 L
cp
f
GR
GS
[0 -0.75 0.75 0 41.75 146.24989] CT
0.149 GC
N
27.078 -8.579 M
27.078 -9.72 27.969 -10.431 QT
28.86 -11.142 30.102 -11.431 QT
31.344 -11.72 32.469 -11.72 QT
32.469 -12.501 L
32.469 -13.048 32.227 -13.564 QT
31.985 -14.079 31.531 -14.408 QT
31.078 -14.736 30.531 -14.736 QT
29.266 -14.736 28.61 -14.173 QT
28.969 -14.173 29.211 -13.9 QT
29.453 -13.626 29.453 -13.267 QT
29.453 -12.876 29.18 -12.611 QT
28.906 -12.345 28.547 -12.345 QT
28.156 -12.345 27.891 -12.611 QT
27.625 -12.876 27.625 -13.267 QT
27.625 -14.267 28.531 -14.751 QT
29.438 -15.236 30.531 -15.236 QT
31.297 -15.236 32.078 -14.908 QT
32.86 -14.579 33.36 -13.97 QT
33.86 -13.361 33.86 -12.533 QT
33.86 -8.267 L
33.86 -7.892 34.016 -7.579 QT
34.172 -7.267 34.5 -7.267 QT
34.813 -7.267 34.969 -7.579 QT
35.125 -7.892 35.125 -8.267 QT
35.125 -9.47 L
35.688 -9.47 L
35.688 -8.267 L
35.688 -7.829 35.461 -7.447 QT
35.235 -7.064 34.86 -6.837 QT
34.485 -6.611 34.047 -6.611 QT
33.5 -6.611 33.094 -7.04 QT
32.688 -7.47 32.641 -8.064 QT
32.281 -7.345 31.602 -6.923 QT
30.922 -6.501 30.141 -6.501 QT
29.406 -6.501 28.711 -6.72 QT
28.016 -6.939 27.547 -7.392 QT
27.078 -7.845 27.078 -8.579 QT
cp
28.61 -8.579 M
28.61 -7.923 29.102 -7.462 QT
29.594 -7.001 30.266 -7.001 QT
30.875 -7.001 31.375 -7.314 QT
31.875 -7.626 32.172 -8.15 QT
32.469 -8.673 32.469 -9.267 QT
32.469 -11.236 L
31.61 -11.236 30.703 -10.954 QT
29.797 -10.673 29.203 -10.072 QT
28.61 -9.47 28.61 -8.579 QT
cp
f
GR
GS
[0 -0.75 0.75 0 41.75 146.24989] CT
0.149 GC
N
37.583 -9.001 M
37.583 -14.251 L
36.005 -14.251 L
36.005 -14.736 L
37.255 -14.736 37.841 -15.892 QT
38.427 -17.048 38.427 -18.408 QT
38.974 -18.408 L
38.974 -14.908 L
41.646 -14.908 L
41.646 -14.251 L
38.974 -14.251 L
38.974 -9.033 L
38.974 -8.251 39.232 -7.658 QT
39.49 -7.064 40.177 -7.064 QT
40.833 -7.064 41.123 -7.689 QT
41.412 -8.314 41.412 -9.033 QT
41.412 -10.158 L
41.958 -10.158 L
41.958 -9.001 L
41.958 -8.408 41.74 -7.829 QT
41.521 -7.251 41.091 -6.876 QT
40.662 -6.501 40.052 -6.501 QT
38.912 -6.501 38.248 -7.189 QT
37.583 -7.876 37.583 -9.001 QT
cp
f
GR
GS
[0 -0.75 0.75 0 41.75 146.24989] CT
0.149 GC
N
43.483 -6.72 M
43.483 -7.392 L
44.14 -7.392 44.554 -7.494 QT
44.968 -7.595 44.968 -7.986 QT
44.968 -13.173 L
44.968 -13.908 44.687 -14.079 QT
44.405 -14.251 43.577 -14.251 QT
43.577 -14.908 L
46.312 -15.111 L
46.312 -7.986 L
46.312 -7.595 46.671 -7.494 QT
47.03 -7.392 47.64 -7.392 QT
47.64 -6.72 L
43.483 -6.72 L
cp
44.296 -18.376 M
44.296 -18.798 44.608 -19.111 QT
44.921 -19.423 45.343 -19.423 QT
45.608 -19.423 45.858 -19.29 QT
46.108 -19.158 46.249 -18.908 QT
46.39 -18.658 46.39 -18.376 QT
46.39 -17.97 46.069 -17.658 QT
45.749 -17.345 45.343 -17.345 QT
44.921 -17.345 44.608 -17.658 QT
44.296 -17.97 44.296 -18.376 QT
cp
f
GR
GS
[0 -0.75 0.75 0 41.75 146.24989] CT
0.149 GC
N
52.84 -6.501 M
51.7 -6.501 50.723 -7.087 QT
49.747 -7.673 49.184 -8.642 QT
48.622 -9.611 48.622 -10.767 QT
48.622 -11.642 48.934 -12.447 QT
49.247 -13.251 49.825 -13.884 QT
50.403 -14.517 51.169 -14.876 QT
51.934 -15.236 52.84 -15.236 QT
54.012 -15.236 54.973 -14.619 QT
55.934 -14.001 56.489 -12.97 QT
57.044 -11.939 57.044 -10.767 QT
57.044 -9.626 56.481 -8.65 QT
55.919 -7.673 54.942 -7.087 QT
53.965 -6.501 52.84 -6.501 QT
cp
52.84 -7.064 M
54.356 -7.064 54.872 -8.165 QT
55.387 -9.267 55.387 -10.986 QT
55.387 -11.939 55.286 -12.564 QT
55.184 -13.189 54.84 -13.704 QT
54.622 -14.017 54.294 -14.251 QT
53.965 -14.486 53.598 -14.611 QT
53.231 -14.736 52.84 -14.736 QT
52.247 -14.736 51.715 -14.47 QT
51.184 -14.204 50.825 -13.704 QT
50.481 -13.158 50.38 -12.517 QT
50.278 -11.876 50.278 -10.986 QT
50.278 -9.908 50.465 -9.064 QT
50.653 -8.22 51.215 -7.642 QT
51.778 -7.064 52.84 -7.064 QT
cp
f
GR
GS
[0 -0.75 0.75 0 41.75 146.24989] CT
0.149 GC
N
57.986 -6.72 M
57.986 -7.392 L
58.643 -7.392 59.057 -7.494 QT
59.471 -7.595 59.471 -7.986 QT
59.471 -13.173 L
59.471 -13.689 59.322 -13.915 QT
59.174 -14.142 58.885 -14.197 QT
58.596 -14.251 57.986 -14.251 QT
57.986 -14.908 L
60.752 -15.111 L
60.752 -13.267 L
61.127 -14.079 61.877 -14.595 QT
62.627 -15.111 63.502 -15.111 QT
64.814 -15.111 65.479 -14.486 QT
66.143 -13.861 66.143 -12.548 QT
66.143 -7.986 L
66.143 -7.595 66.564 -7.494 QT
66.986 -7.392 67.627 -7.392 QT
67.627 -6.72 L
63.283 -6.72 L
63.283 -7.392 L
63.924 -7.392 64.346 -7.494 QT
64.768 -7.595 64.768 -7.986 QT
64.768 -12.501 L
64.768 -13.423 64.494 -14.025 QT
64.221 -14.626 63.393 -14.626 QT
62.283 -14.626 61.572 -13.744 QT
60.861 -12.861 60.861 -11.736 QT
60.861 -7.986 L
60.861 -7.595 61.283 -7.494 QT
61.705 -7.392 62.346 -7.392 QT
62.346 -6.72 L
57.986 -6.72 L
cp
f
GR
GS
[0 -0.75 0.75 0 41.75 146.24989] CT
0.149 GC
N
76.032 -8.783 M
76.032 -9.408 76.196 -10.064 QT
76.36 -10.72 76.665 -11.525 QT
76.97 -12.329 77.188 -12.923 QT
77.438 -13.611 77.438 -14.064 QT
77.438 -14.626 77.016 -14.626 QT
76.266 -14.626 75.782 -13.853 QT
75.298 -13.079 75.063 -12.126 QT
75.032 -12.001 74.907 -12.001 QT
74.688 -12.001 L
74.532 -12.001 74.532 -12.173 QT
74.532 -12.236 L
74.829 -13.361 75.462 -14.236 QT
76.095 -15.111 77.063 -15.111 QT
77.735 -15.111 78.204 -14.665 QT
78.673 -14.22 78.673 -13.533 QT
78.673 -13.189 78.516 -12.798 QT
78.438 -12.564 78.141 -11.783 QT
77.845 -11.001 77.681 -10.494 QT
77.516 -9.986 77.415 -9.494 QT
77.313 -9.001 77.313 -8.517 QT
77.313 -7.876 77.587 -7.439 QT
77.86 -7.001 78.454 -7.001 QT
79.673 -7.001 80.595 -8.517 QT
80.61 -8.579 80.626 -8.65 QT
80.641 -8.72 80.657 -8.783 QT
82.016 -14.298 L
82.079 -14.548 82.313 -14.728 QT
82.548 -14.908 82.813 -14.908 QT
83.048 -14.908 83.22 -14.759 QT
83.391 -14.611 83.391 -14.376 QT
83.391 -14.267 83.376 -14.22 QT
82.001 -8.751 L
81.86 -8.189 81.86 -7.829 QT
81.86 -7.001 82.407 -7.001 QT
83.032 -7.001 83.329 -7.759 QT
83.626 -8.517 83.845 -9.517 QT
83.876 -9.626 83.985 -9.626 QT
84.22 -9.626 L
84.298 -9.626 84.345 -9.564 QT
84.391 -9.501 84.391 -9.439 QT
84.188 -8.626 83.993 -8.04 QT
83.798 -7.454 83.391 -6.978 QT
82.985 -6.501 82.376 -6.501 QT
81.766 -6.501 81.29 -6.837 QT
80.813 -7.173 80.657 -7.736 QT
80.22 -7.173 79.641 -6.837 QT
79.063 -6.501 78.423 -6.501 QT
77.329 -6.501 76.681 -7.103 QT
76.032 -7.704 76.032 -8.783 QT
cp
f
GR
GS
[0.75 0 0 0.75 0 0] CT
0 0.447 0.741 RC
10.0 ML
2.267 LW
N
79 228 M
88.42 228 L
88.42 48.145 L
97.84 48.145 L
97.84 116.076 L
107.26 116.076 L
107.26 173.539 L
116.68 173.539 L
116.68 211.091 L
126.1 211.091 L
126.1 240.954 L
135.52 240.954 L
135.52 260.824 L
144.94 260.824 L
144.94 273.796 L
154.36 273.796 L
154.36 282.386 L
163.78 282.386 L
163.78 283.844 L
173.2 283.844 L
173.2 285.042 L
182.62 285.042 L
182.62 282.99 L
192.04 282.99 L
192.04 279.578 L
201.46 279.578 L
201.46 275.43 L
210.88 275.43 L
210.88 270.841 L
220.3 270.841 L
220.3 266.239 L
229.72 266.239 L
229.72 261.637 L
239.14 261.637 L
239.14 257.217 L
248.56 257.217 L
248.56 253.233 L
257.98 253.233 L
257.98 249.6 L
267.4 249.6 L
267.4 246.309 L
276.82 246.309 L
276.82 243.346 L
286.24 243.346 L
286.24 240.707 L
295.66 240.707 L
295.66 238.36 L
305.08 238.36 L
305.08 236.294 L
314.5 236.294 L
314.5 234.445 L
323.92 234.445 L
323.92 232.942 L
333.34 232.942 L
333.34 231.749 L
342.76 231.749 L
342.76 230.814 L
352.18 230.814 L
352.18 230.086 L
361.6 230.086 L
361.6 229.525 L
371.02 229.525 L
371.02 229.107 L
380.44 229.107 L
380.44 228.781 L
389.86 228.781 L
389.86 228.539 L
399.28 228.539 L
399.28 228.363 L
408.7 228.363 L
408.7 228.247 L
418.12 228.247 L
418.12 228.15 L
427.54 228.15 L
427.54 228.082 L
436.96 228.082 L
436.96 228.035 L
446.38 228.035 L
446.38 228.001 L
455.8 228.001 L
455.8 227.978 L
465.22 227.978 L
465.22 227.964 L
474.64 227.964 L
474.64 227.96 L
484.06 227.96 L
484.06 227.959 L
493.48 227.959 L
493.48 227.961 L
502.9 227.961 L
502.9 227.964 L
512.32 227.964 L
512.32 227.968 L
521.74 227.968 L
521.74 227.972 L
531.16 227.972 L
531.16 227.977 L
540.58 227.977 L
540.58 227.981 L
550 227.981 L
550 227.985 L
S
GR
GS
[0.75 0 0 0.75 0 0] CT
0.851 0.325 0.098 RC
10.0 ML
2.267 LW
N
79 228 M
88.42 228 L
88.42 117.152 L
97.84 117.152 L
97.84 156.454 L
107.26 156.454 L
107.26 189.564 L
116.68 189.564 L
116.68 208.086 L
126.1 208.086 L
126.1 222.717 L
135.52 222.717 L
135.52 232.29 L
144.94 232.29 L
144.94 238.468 L
154.36 238.468 L
154.36 243.11 L
163.78 243.11 L
163.78 243.326 L
173.2 243.326 L
173.2 244.525 L
182.62 244.525 L
182.62 244.646 L
192.04 244.646 L
192.04 244.147 L
201.46 244.147 L
201.46 243.397 L
210.88 243.397 L
210.88 242.573 L
220.3 242.573 L
220.3 241.487 L
229.72 241.487 L
229.72 240.394 L
239.14 240.394 L
239.14 239.27 L
248.56 239.27 L
248.56 238.13 L
257.98 238.13 L
257.98 237.056 L
267.4 237.056 L
267.4 236.076 L
276.82 236.076 L
276.82 235.197 L
286.24 235.197 L
286.24 234.404 L
295.66 234.404 L
295.66 233.675 L
305.08 233.675 L
305.08 233.027 L
314.5 233.027 L
314.5 232.404 L
323.92 232.404 L
323.92 231.898 L
333.34 231.898 L
333.34 231.423 L
342.76 231.423 L
342.76 230.991 L
352.18 230.991 L
352.18 230.602 L
361.6 230.602 L
361.6 230.255 L
371.02 230.255 L
371.02 229.963 L
380.44 229.963 L
380.44 229.683 L
389.86 229.683 L
389.86 229.442 L
399.28 229.442 L
399.28 229.234 L
408.7 229.234 L
408.7 229.059 L
418.12 229.059 L
418.12 228.901 L
427.54 228.901 L
427.54 228.767 L
436.96 228.767 L
436.96 228.653 L
446.38 228.653 L
446.38 228.555 L
455.8 228.555 L
455.8 228.47 L
465.22 228.47 L
465.22 228.397 L
474.64 228.397 L
474.64 228.343 L
484.06 228.343 L
484.06 228.289 L
493.48 228.289 L
493.48 228.243 L
502.9 228.243 L
502.9 228.204 L
512.32 228.204 L
512.32 228.17 L
521.74 228.17 L
521.74 228.142 L
531.16 228.142 L
531.16 228.118 L
540.58 228.118 L
540.58 228.097 L
550 228.097 L
550 228.08 L
S
GR
GS
[0.75 0 0 0.75 0 0] CT
0.929 0.694 0.125 RC
10.0 ML
2.267 LW
N
79 228 M
88.42 228 L
88.42 357.25 L
97.84 357.25 L
97.84 313.652 L
107.26 313.652 L
107.26 276.424 L
116.68 276.424 L
116.68 251.643 L
126.1 251.643 L
126.1 231.787 L
135.52 231.787 L
135.52 218.381 L
144.94 218.381 L
144.94 209.687 L
154.36 209.687 L
154.36 202.996 L
163.78 202.996 L
163.78 202.745 L
173.2 202.745 L
173.2 201.82 L
182.62 201.82 L
182.62 202.794 L
192.04 202.794 L
192.04 204.469 L
201.46 204.469 L
201.46 206.563 L
210.88 206.563 L
210.88 208.865 L
220.3 208.865 L
220.3 211.169 L
229.72 211.169 L
229.72 213.428 L
239.14 213.428 L
239.14 215.546 L
248.56 215.546 L
248.56 217.373 L
257.98 217.373 L
257.98 219.026 L
267.4 219.026 L
267.4 220.51 L
276.82 220.51 L
276.82 221.829 L
286.24 221.829 L
286.24 222.986 L
295.66 222.986 L
295.66 224.009 L
305.08 224.009 L
305.08 224.889 L
314.5 224.889 L
314.5 225.683 L
323.92 225.683 L
323.92 226.283 L
333.34 226.283 L
333.34 226.744 L
342.76 226.744 L
342.76 227.094 L
352.18 227.094 L
352.18 227.358 L
361.6 227.358 L
361.6 227.554 L
371.02 227.554 L
371.02 227.692 L
380.44 227.692 L
380.44 227.8 L
389.86 227.8 L
389.86 227.876 L
399.28 227.876 L
399.28 227.929 L
408.7 227.929 L
408.7 227.961 L
418.12 227.961 L
418.12 227.987 L
427.54 227.987 L
427.54 228.004 L
436.96 228.004 L
436.96 228.014 L
446.38 228.014 L
446.38 228.02 L
455.8 228.02 L
455.8 228.023 L
465.22 228.023 L
465.22 228.024 L
474.64 228.024 L
474.64 228.022 L
484.06 228.022 L
484.06 228.02 L
493.48 228.02 L
493.48 228.017 L
502.9 228.017 L
502.9 228.015 L
512.32 228.015 L
512.32 228.012 L
521.74 228.012 L
521.74 228.01 L
531.16 228.01 L
531.16 228.008 L
540.58 228.008 L
540.58 228.006 L
550 228.006 L
550 228.004 L
S
GR
GS
[0.75 0 0 0.75 0 0] CT
1 GC
N
539 108 M
539 41 L
471 41 L
471 108 L
cp
f
GR
GS
[0.75 0 0 0.75 388.57484 39.99481] CT
N
1.797 2.316 M
1.797 1.754 1.945 1.168 QT
2.094 0.582 2.367 -0.137 QT
2.641 -0.856 2.844 -1.387 QT
3.063 -2.012 3.063 -2.403 QT
3.063 -2.918 2.688 -2.918 QT
2.016 -2.918 1.578 -2.223 QT
1.141 -1.528 0.938 -0.668 QT
0.906 -0.559 0.797 -0.559 QT
0.594 -0.559 L
0.453 -0.559 0.453 -0.715 QT
0.453 -0.778 L
0.734 -1.778 1.297 -2.567 QT
1.859 -3.356 2.719 -3.356 QT
3.328 -3.356 3.75 -2.957 QT
4.172 -2.559 4.172 -1.934 QT
4.172 -1.621 4.031 -1.278 QT
3.953 -1.074 3.688 -0.371 QT
3.422 0.332 3.281 0.785 QT
3.141 1.238 3.047 1.676 QT
2.953 2.113 2.953 2.551 QT
2.953 3.129 3.195 3.519 QT
3.438 3.91 3.969 3.91 QT
5.063 3.91 5.891 2.551 QT
5.906 2.488 5.914 2.426 QT
5.922 2.363 5.938 2.316 QT
7.156 -2.621 L
7.219 -2.84 7.422 -3.004 QT
7.625 -3.168 7.875 -3.168 QT
8.078 -3.168 8.234 -3.035 QT
8.391 -2.903 8.391 -2.684 QT
8.391 -2.59 8.375 -2.559 QT
7.141 2.347 L
7.016 2.847 7.016 3.176 QT
7.016 3.91 7.516 3.91 QT
8.063 3.91 8.328 3.23 QT
8.594 2.551 8.797 1.66 QT
8.828 1.566 8.922 1.566 QT
9.125 1.566 L
9.203 1.566 9.242 1.621 QT
9.281 1.676 9.281 1.722 QT
9.094 2.457 8.922 2.98 QT
8.75 3.504 8.391 3.926 QT
8.031 4.347 7.484 4.347 QT
6.938 4.347 6.508 4.051 QT
6.078 3.754 5.938 3.254 QT
5.547 3.754 5.031 4.051 QT
4.516 4.347 3.938 4.347 QT
2.969 4.347 2.383 3.816 QT
1.797 3.285 1.797 2.316 QT
cp
f
GR
GS
[0.75 0 0 0.75 388.57484 39.99481] CT
N
11.032 6.76 M
11.032 6.338 L
12.532 6.338 12.532 5.963 QT
12.532 -0.349 L
11.923 -0.037 10.969 -0.037 QT
10.969 -0.459 L
12.438 -0.459 13.188 -1.24 QT
13.36 -1.24 L
13.391 -1.24 13.43 -1.201 QT
13.469 -1.162 13.469 -1.131 QT
13.469 5.963 L
13.469 6.338 14.969 6.338 QT
14.969 6.76 L
11.032 6.76 L
cp
f
GR
GS
[0.75 0 0 0.75 0 0] CT
0 0.447 0.741 RC
1 LJ
2.267 LW
N
475.008 53.326 M
515.093 53.326 L
S
GR
GS
[0.75 0 0 0.75 388.57484 55.875] CT
N
/f216805525{1.797 2.316 M
1.797 1.754 1.945 1.168 QT
2.094 0.582 2.367 -0.137 QT
2.641 -0.856 2.844 -1.387 QT
3.063 -2.012 3.063 -2.403 QT
3.063 -2.918 2.688 -2.918 QT
2.016 -2.918 1.578 -2.223 QT
1.141 -1.528 0.938 -0.668 QT
0.906 -0.559 0.797 -0.559 QT
0.594 -0.559 L
0.453 -0.559 0.453 -0.715 QT
0.453 -0.778 L
0.734 -1.778 1.297 -2.567 QT
1.859 -3.356 2.719 -3.356 QT
3.328 -3.356 3.75 -2.957 QT
4.172 -2.559 4.172 -1.934 QT
4.172 -1.621 4.031 -1.278 QT
3.953 -1.074 3.688 -0.371 QT
3.422 0.332 3.281 0.785 QT
3.141 1.238 3.047 1.676 QT
2.953 2.113 2.953 2.551 QT
2.953 3.129 3.195 3.519 QT
3.438 3.91 3.969 3.91 QT
5.063 3.91 5.891 2.551 QT
5.906 2.488 5.914 2.426 QT
5.922 2.363 5.938 2.316 QT
7.156 -2.621 L
7.219 -2.84 7.422 -3.004 QT
7.625 -3.168 7.875 -3.168 QT
8.078 -3.168 8.234 -3.035 QT
8.391 -2.903 8.391 -2.684 QT
8.391 -2.59 8.375 -2.559 QT
7.141 2.347 L
7.016 2.847 7.016 3.176 QT
7.016 3.91 7.516 3.91 QT
8.063 3.91 8.328 3.23 QT
8.594 2.551 8.797 1.66 QT
8.828 1.566 8.922 1.566 QT
9.125 1.566 L
9.203 1.566 9.242 1.621 QT
9.281 1.676 9.281 1.722 QT
9.094 2.457 8.922 2.98 QT
8.75 3.504 8.391 3.926 QT
8.031 4.347 7.484 4.347 QT
6.938 4.347 6.508 4.051 QT
6.078 3.754 5.938 3.254 QT
5.547 3.754 5.031 4.051 QT
4.516 4.347 3.938 4.347 QT
2.969 4.347 2.383 3.816 QT
1.797 3.285 1.797 2.316 QT
cp}def
f216805525
f
GR
GS
[0.75 0 0 0.75 388.57484 55.875] CT
N
/f245655981{10.516 6.76 M
10.516 6.432 L
10.516 6.401 10.548 6.369 QT
12.407 4.307 L
12.829 3.854 13.094 3.541 QT
13.36 3.229 13.618 2.822 QT
13.876 2.416 14.024 2.002 QT
14.173 1.588 14.173 1.119 QT
14.173 0.619 13.993 0.174 QT
13.813 -0.271 13.454 -0.545 QT
13.094 -0.818 12.579 -0.818 QT
12.063 -0.818 11.641 -0.498 QT
11.219 -0.178 11.048 0.307 QT
11.094 0.307 11.188 0.307 QT
11.454 0.307 11.641 0.486 QT
11.829 0.666 11.829 0.947 QT
11.829 1.229 11.641 1.416 QT
11.454 1.604 11.188 1.604 QT
10.907 1.604 10.712 1.408 QT
10.516 1.213 10.516 0.947 QT
10.516 0.494 10.688 0.104 QT
10.86 -0.287 11.18 -0.599 QT
11.501 -0.912 11.899 -1.076 QT
12.298 -1.24 12.751 -1.24 QT
13.438 -1.24 14.032 -0.943 QT
14.626 -0.646 14.969 -0.123 QT
15.313 0.401 15.313 1.119 QT
15.313 1.635 15.087 2.104 QT
14.86 2.572 14.501 2.955 QT
14.141 3.338 13.587 3.83 QT
13.032 4.322 12.86 4.479 QT
11.501 5.791 L
12.641 5.791 L
13.501 5.791 14.071 5.776 QT
14.641 5.76 14.673 5.729 QT
14.813 5.572 14.969 4.619 QT
15.313 4.619 L
14.969 6.76 L
10.516 6.76 L
cp}def
f245655981
f
GR
GS
[0.75 0 0 0.75 0 0] CT
0.851 0.325 0.098 RC
1 LJ
2.267 LW
N
475.008 74.5 M
515.093 74.5 L
S
GR
GS
[0.75 0 0 0.75 388.57484 71.75519] CT
N
f216805525
f
GR
GS
[0.75 0 0 0.75 388.57484 71.75519] CT
N
/f-1556650708{11.063 5.838 M
11.344 6.244 11.821 6.44 QT
12.298 6.635 12.844 6.635 QT
13.532 6.635 13.829 6.041 QT
14.126 5.447 14.126 4.697 QT
14.126 4.354 14.063 4.018 QT
14.001 3.682 13.852 3.385 QT
13.704 3.088 13.454 2.916 QT
13.204 2.744 12.829 2.744 QT
12.032 2.744 L
11.923 2.744 11.923 2.635 QT
11.923 2.526 L
11.923 2.432 12.032 2.432 QT
12.688 2.369 L
13.11 2.369 13.391 2.057 QT
13.673 1.744 13.805 1.291 QT
13.938 0.838 13.938 0.432 QT
13.938 -0.146 13.665 -0.514 QT
13.391 -0.881 12.844 -0.881 QT
12.391 -0.881 11.969 -0.709 QT
11.548 -0.537 11.313 -0.193 QT
11.329 -0.193 11.344 -0.201 QT
11.36 -0.209 11.391 -0.209 QT
11.657 -0.209 11.837 -0.021 QT
12.016 0.166 12.016 0.432 QT
12.016 0.697 11.837 0.885 QT
11.657 1.072 11.391 1.072 QT
11.126 1.072 10.938 0.885 QT
10.751 0.697 10.751 0.432 QT
10.751 -0.084 11.063 -0.459 QT
11.376 -0.834 11.86 -1.037 QT
12.344 -1.24 12.844 -1.24 QT
13.204 -1.24 13.61 -1.131 QT
14.016 -1.021 14.344 -0.818 QT
14.673 -0.615 14.876 -0.295 QT
15.079 0.026 15.079 0.432 QT
15.079 0.932 14.86 1.361 QT
14.641 1.791 14.243 2.096 QT
13.844 2.401 13.376 2.557 QT
13.907 2.651 14.376 2.947 QT
14.844 3.244 15.126 3.697 QT
15.407 4.151 15.407 4.682 QT
15.407 5.354 15.048 5.885 QT
14.688 6.416 14.094 6.721 QT
13.501 7.026 12.844 7.026 QT
12.282 7.026 11.712 6.807 QT
11.141 6.588 10.782 6.166 QT
10.423 5.744 10.423 5.135 QT
10.423 4.838 10.626 4.643 QT
10.829 4.447 11.126 4.447 QT
11.313 4.447 11.477 4.533 QT
11.641 4.619 11.735 4.783 QT
11.829 4.947 11.829 5.135 QT
11.829 5.432 11.618 5.635 QT
11.407 5.838 11.126 5.838 QT
11.063 5.838 L
cp}def
f-1556650708
f
GR
GS
[0.75 0 0 0.75 0 0] CT
0.929 0.694 0.125 RC
1 LJ
2.267 LW
N
475.008 95.674 M
515.093 95.674 L
S
GR
GS
[0.75 0 0 0.75 0 0] CT
0.149 GC
10.0 ML
0.667 LW
N
471 108 M
471 41 L
539 41 L
539 108 L
cp
S
GR
%%Trailer
%%Pages: 1
%%EOF
