%!PS-Adobe-3.0 EPSF-3.0
%%Creator: (MATLAB, The Mathworks, Inc. Version 9.4.0.813654 \(R2018a\). Operating System: Linux)
%%Title: ./plot/DiscSystem/plot_fval.eps
%%CreationDate: 2019-03-01T17:47:26
%%Pages: (atend)
%%BoundingBox:    16     2   415   286
%%LanguageLevel: 3
%%EndComments
%%BeginProlog
%%BeginResource: procset (Apache XML Graphics Std ProcSet) 1.2 0
%%Version: 1.2 0
%%Copyright: (Copyright 2001-2003,2010 The Apache Software Foundation. License terms: http://www.apache.org/licenses/LICENSE-2.0)
/bd{bind def}bind def
/ld{load def}bd
/GR/grestore ld
/GS/gsave ld
/RM/rmoveto ld
/C/curveto ld
/t/show ld
/L/lineto ld
/ML/setmiterlimit ld
/CT/concat ld
/f/fill ld
/N/newpath ld
/S/stroke ld
/CC/setcmykcolor ld
/A/ashow ld
/cp/closepath ld
/RC/setrgbcolor ld
/LJ/setlinejoin ld
/GC/setgray ld
/LW/setlinewidth ld
/M/moveto ld
/re {4 2 roll M
1 index 0 rlineto
0 exch rlineto
neg 0 rlineto
cp } bd
/_ctm matrix def
/_tm matrix def
/BT { _ctm currentmatrix pop matrix _tm copy pop 0 0 moveto } bd
/ET { _ctm setmatrix } bd
/iTm { _ctm setmatrix _tm concat } bd
/Tm { _tm astore pop iTm 0 0 moveto } bd
/ux 0.0 def
/uy 0.0 def
/F {
  /Tp exch def
  /Tf exch def
  Tf findfont Tp scalefont setfont
  /cf Tf def  /cs Tp def
} bd
/ULS {currentpoint /uy exch def /ux exch def} bd
/ULE {
  /Tcx currentpoint pop def
  gsave
  newpath
  cf findfont cs scalefont dup
  /FontMatrix get 0 get /Ts exch def /FontInfo get dup
  /UnderlinePosition get Ts mul /To exch def
  /UnderlineThickness get Ts mul /Tt exch def
  ux uy To add moveto  Tcx uy To add lineto
  Tt setlinewidth stroke
  grestore
} bd
/OLE {
  /Tcx currentpoint pop def
  gsave
  newpath
  cf findfont cs scalefont dup
  /FontMatrix get 0 get /Ts exch def /FontInfo get dup
  /UnderlinePosition get Ts mul /To exch def
  /UnderlineThickness get Ts mul /Tt exch def
  ux uy To add cs add moveto Tcx uy To add cs add lineto
  Tt setlinewidth stroke
  grestore
} bd
/SOE {
  /Tcx currentpoint pop def
  gsave
  newpath
  cf findfont cs scalefont dup
  /FontMatrix get 0 get /Ts exch def /FontInfo get dup
  /UnderlinePosition get Ts mul /To exch def
  /UnderlineThickness get Ts mul /Tt exch def
  ux uy To add cs 10 mul 26 idiv add moveto Tcx uy To add cs 10 mul 26 idiv add lineto
  Tt setlinewidth stroke
  grestore
} bd
/QT {
/Y22 exch store
/X22 exch store
/Y21 exch store
/X21 exch store
currentpoint
/Y21 load 2 mul add 3 div exch
/X21 load 2 mul add 3 div exch
/X21 load 2 mul /X22 load add 3 div
/Y21 load 2 mul /Y22 load add 3 div
/X22 load /Y22 load curveto
} bd
/SSPD {
dup length /d exch dict def
{
/v exch def
/k exch def
currentpagedevice k known {
/cpdv currentpagedevice k get def
v cpdv ne {
/upd false def
/nullv v type /nulltype eq def
/nullcpdv cpdv type /nulltype eq def
nullv nullcpdv or
{
/upd true def
} {
/sametype v type cpdv type eq def
sametype {
v type /arraytype eq {
/vlen v length def
/cpdvlen cpdv length def
vlen cpdvlen eq {
0 1 vlen 1 sub {
/i exch def
/obj v i get def
/cpdobj cpdv i get def
obj cpdobj ne {
/upd true def
exit
} if
} for
} {
/upd true def
} ifelse
} {
v type /dicttype eq {
v {
/dv exch def
/dk exch def
/cpddv cpdv dk get def
dv cpddv ne {
/upd true def
exit
} if
} forall
} {
/upd true def
} ifelse
} ifelse
} if
} ifelse
upd true eq {
d k v put
} if
} if
} if
} forall
d length 0 gt {
d setpagedevice
} if
} bd
/RE { % /NewFontName [NewEncodingArray] /FontName RE -
  findfont dup length dict begin
  {
    1 index /FID ne
    {def} {pop pop} ifelse
  } forall
  /Encoding exch def
  /FontName 1 index def
  currentdict definefont pop
  end
} bind def
%%EndResource
%%BeginResource: procset (Apache XML Graphics EPS ProcSet) 1.0 0
%%Version: 1.0 0
%%Copyright: (Copyright 2002-2003 The Apache Software Foundation. License terms: http://www.apache.org/licenses/LICENSE-2.0)
/BeginEPSF { %def
/b4_Inc_state save def         % Save state for cleanup
/dict_count countdictstack def % Count objects on dict stack
/op_count count 1 sub def      % Count objects on operand stack
userdict begin                 % Push userdict on dict stack
/showpage { } def              % Redefine showpage, { } = null proc
0 setgray 0 setlinecap         % Prepare graphics state
1 setlinewidth 0 setlinejoin
10 setmiterlimit [ ] 0 setdash newpath
/languagelevel where           % If level not equal to 1 then
{pop languagelevel             % set strokeadjust and
1 ne                           % overprint to their defaults.
{false setstrokeadjust false setoverprint
} if
} if
} bd
/EndEPSF { %def
count op_count sub {pop} repeat            % Clean up stacks
countdictstack dict_count sub {end} repeat
b4_Inc_state restore
} bd
%%EndResource
%FOPBeginFontDict
%%IncludeResource: font Courier-Oblique
%%IncludeResource: font Courier-BoldOblique
%%IncludeResource: font Courier-Bold
%%IncludeResource: font ZapfDingbats
%%IncludeResource: font Symbol
%%IncludeResource: font Helvetica
%%IncludeResource: font Helvetica-Oblique
%%IncludeResource: font Helvetica-Bold
%%IncludeResource: font Helvetica-BoldOblique
%%IncludeResource: font Times-Roman
%%IncludeResource: font Times-Italic
%%IncludeResource: font Times-Bold
%%IncludeResource: font Times-BoldItalic
%%IncludeResource: font Courier
%FOPEndFontDict
%%BeginResource: encoding WinAnsiEncoding
/WinAnsiEncoding [
/.notdef /.notdef /.notdef /.notdef /.notdef
/.notdef /.notdef /.notdef /.notdef /.notdef
/.notdef /.notdef /.notdef /.notdef /.notdef
/.notdef /.notdef /.notdef /.notdef /.notdef
/.notdef /.notdef /.notdef /.notdef /.notdef
/.notdef /.notdef /.notdef /.notdef /.notdef
/.notdef /.notdef /space /exclam /quotedbl
/numbersign /dollar /percent /ampersand /quotesingle
/parenleft /parenright /asterisk /plus /comma
/hyphen /period /slash /zero /one
/two /three /four /five /six
/seven /eight /nine /colon /semicolon
/less /equal /greater /question /at
/A /B /C /D /E
/F /G /H /I /J
/K /L /M /N /O
/P /Q /R /S /T
/U /V /W /X /Y
/Z /bracketleft /backslash /bracketright /asciicircum
/underscore /quoteleft /a /b /c
/d /e /f /g /h
/i /j /k /l /m
/n /o /p /q /r
/s /t /u /v /w
/x /y /z /braceleft /bar
/braceright /asciitilde /bullet /Euro /bullet
/quotesinglbase /florin /quotedblbase /ellipsis /dagger
/daggerdbl /circumflex /perthousand /Scaron /guilsinglleft
/OE /bullet /Zcaron /bullet /bullet
/quoteleft /quoteright /quotedblleft /quotedblright /bullet
/endash /emdash /asciitilde /trademark /scaron
/guilsinglright /oe /bullet /zcaron /Ydieresis
/space /exclamdown /cent /sterling /currency
/yen /brokenbar /section /dieresis /copyright
/ordfeminine /guillemotleft /logicalnot /sfthyphen /registered
/macron /degree /plusminus /twosuperior /threesuperior
/acute /mu /paragraph /middot /cedilla
/onesuperior /ordmasculine /guillemotright /onequarter /onehalf
/threequarters /questiondown /Agrave /Aacute /Acircumflex
/Atilde /Adieresis /Aring /AE /Ccedilla
/Egrave /Eacute /Ecircumflex /Edieresis /Igrave
/Iacute /Icircumflex /Idieresis /Eth /Ntilde
/Ograve /Oacute /Ocircumflex /Otilde /Odieresis
/multiply /Oslash /Ugrave /Uacute /Ucircumflex
/Udieresis /Yacute /Thorn /germandbls /agrave
/aacute /acircumflex /atilde /adieresis /aring
/ae /ccedilla /egrave /eacute /ecircumflex
/edieresis /igrave /iacute /icircumflex /idieresis
/eth /ntilde /ograve /oacute /ocircumflex
/otilde /odieresis /divide /oslash /ugrave
/uacute /ucircumflex /udieresis /yacute /thorn
/ydieresis
] def
%%EndResource
%FOPBeginFontReencode
/Courier-Oblique findfont
dup length dict begin
  {1 index /FID ne {def} {pop pop} ifelse} forall
  /Encoding WinAnsiEncoding def
  currentdict
end
/Courier-Oblique exch definefont pop
/Courier-BoldOblique findfont
dup length dict begin
  {1 index /FID ne {def} {pop pop} ifelse} forall
  /Encoding WinAnsiEncoding def
  currentdict
end
/Courier-BoldOblique exch definefont pop
/Courier-Bold findfont
dup length dict begin
  {1 index /FID ne {def} {pop pop} ifelse} forall
  /Encoding WinAnsiEncoding def
  currentdict
end
/Courier-Bold exch definefont pop
/Helvetica findfont
dup length dict begin
  {1 index /FID ne {def} {pop pop} ifelse} forall
  /Encoding WinAnsiEncoding def
  currentdict
end
/Helvetica exch definefont pop
/Helvetica-Oblique findfont
dup length dict begin
  {1 index /FID ne {def} {pop pop} ifelse} forall
  /Encoding WinAnsiEncoding def
  currentdict
end
/Helvetica-Oblique exch definefont pop
/Helvetica-Bold findfont
dup length dict begin
  {1 index /FID ne {def} {pop pop} ifelse} forall
  /Encoding WinAnsiEncoding def
  currentdict
end
/Helvetica-Bold exch definefont pop
/Helvetica-BoldOblique findfont
dup length dict begin
  {1 index /FID ne {def} {pop pop} ifelse} forall
  /Encoding WinAnsiEncoding def
  currentdict
end
/Helvetica-BoldOblique exch definefont pop
/Times-Roman findfont
dup length dict begin
  {1 index /FID ne {def} {pop pop} ifelse} forall
  /Encoding WinAnsiEncoding def
  currentdict
end
/Times-Roman exch definefont pop
/Times-Italic findfont
dup length dict begin
  {1 index /FID ne {def} {pop pop} ifelse} forall
  /Encoding WinAnsiEncoding def
  currentdict
end
/Times-Italic exch definefont pop
/Times-Bold findfont
dup length dict begin
  {1 index /FID ne {def} {pop pop} ifelse} forall
  /Encoding WinAnsiEncoding def
  currentdict
end
/Times-Bold exch definefont pop
/Times-BoldItalic findfont
dup length dict begin
  {1 index /FID ne {def} {pop pop} ifelse} forall
  /Encoding WinAnsiEncoding def
  currentdict
end
/Times-BoldItalic exch definefont pop
/Courier findfont
dup length dict begin
  {1 index /FID ne {def} {pop pop} ifelse} forall
  /Encoding WinAnsiEncoding def
  currentdict
end
/Courier exch definefont pop
%FOPEndFontReencode
%%EndProlog
%%Page: 1 1
%%PageBoundingBox: 0 0 456 303
%%BeginPageSetup
[1 0 0 -1 0 303] CT
%%EndPageSetup
GS
[0.75 0 0 0.75 0 0] CT
1 GC
N
0 0 608 404 re
f
GR
GS
[0.75 0 0 0.75 0 0] CT
1 GC
N
0 0 608 404 re
f
GR
GS
[0.75 0 0 0.75 0 0] CT
1 GC
N
79 360 M
550 360 L
550 30 L
79 30 L
cp
f
GR
GS
[0.75 0 0 0.75 0 0] CT
0.873 GC
1 LJ
0.667 LW
N
79 360 M
79 30 L
S
GR
GS
[0.75 0 0 0.75 0 0] CT
0.873 GC
1 LJ
0.667 LW
N
173.2 360 M
173.2 30 L
S
GR
GS
[0.75 0 0 0.75 0 0] CT
0.873 GC
1 LJ
0.667 LW
N
267.4 360 M
267.4 30 L
S
GR
GS
[0.75 0 0 0.75 0 0] CT
0.873 GC
1 LJ
0.667 LW
N
361.6 360 M
361.6 30 L
S
GR
GS
[0.75 0 0 0.75 0 0] CT
0.873 GC
1 LJ
0.667 LW
N
455.8 360 M
455.8 30 L
S
GR
GS
[0.75 0 0 0.75 0 0] CT
0.873 GC
1 LJ
0.667 LW
N
550 360 M
550 30 L
S
GR
GS
[0.75 0 0 0.75 0 0] CT
0.775 GC
[1 3] 0 setdash
2 LJ
0.667 LW
N
550 347.583 M
79 347.583 L
S
GR
GS
[0.75 0 0 0.75 0 0] CT
0.775 GC
[1 3] 0 setdash
2 LJ
0.667 LW
N
550 340.319 M
79 340.319 L
S
GR
GS
[0.75 0 0 0.75 0 0] CT
0.775 GC
[1 3] 0 setdash
2 LJ
0.667 LW
N
550 335.165 M
79 335.165 L
S
GR
GS
[0.75 0 0 0.75 0 0] CT
0.775 GC
[1 3] 0 setdash
2 LJ
0.667 LW
N
550 331.167 M
79 331.167 L
S
GR
GS
[0.75 0 0 0.75 0 0] CT
0.775 GC
[1 3] 0 setdash
2 LJ
0.667 LW
N
550 327.901 M
79 327.901 L
S
GR
GS
[0.75 0 0 0.75 0 0] CT
0.775 GC
[1 3] 0 setdash
2 LJ
0.667 LW
N
550 325.14 M
79 325.14 L
S
GR
GS
[0.75 0 0 0.75 0 0] CT
0.775 GC
[1 3] 0 setdash
2 LJ
0.667 LW
N
550 322.748 M
79 322.748 L
S
GR
GS
[0.75 0 0 0.75 0 0] CT
0.775 GC
[1 3] 0 setdash
2 LJ
0.667 LW
N
550 320.637 M
79 320.637 L
S
GR
GS
[0.75 0 0 0.75 0 0] CT
0.775 GC
[1 3] 0 setdash
2 LJ
0.667 LW
N
550 306.333 M
79 306.333 L
S
GR
GS
[0.75 0 0 0.75 0 0] CT
0.775 GC
[1 3] 0 setdash
2 LJ
0.667 LW
N
550 299.069 M
79 299.069 L
S
GR
GS
[0.75 0 0 0.75 0 0] CT
0.775 GC
[1 3] 0 setdash
2 LJ
0.667 LW
N
550 293.915 M
79 293.915 L
S
GR
GS
[0.75 0 0 0.75 0 0] CT
0.775 GC
[1 3] 0 setdash
2 LJ
0.667 LW
N
550 289.917 M
79 289.917 L
S
GR
GS
[0.75 0 0 0.75 0 0] CT
0.775 GC
[1 3] 0 setdash
2 LJ
0.667 LW
N
550 286.651 M
79 286.651 L
S
GR
GS
[0.75 0 0 0.75 0 0] CT
0.775 GC
[1 3] 0 setdash
2 LJ
0.667 LW
N
550 283.89 M
79 283.89 L
S
GR
GS
[0.75 0 0 0.75 0 0] CT
0.775 GC
[1 3] 0 setdash
2 LJ
0.667 LW
N
550 281.498 M
79 281.498 L
S
GR
GS
[0.75 0 0 0.75 0 0] CT
0.775 GC
[1 3] 0 setdash
2 LJ
0.667 LW
N
550 279.388 M
79 279.388 L
S
GR
GS
[0.75 0 0 0.75 0 0] CT
0.775 GC
[1 3] 0 setdash
2 LJ
0.667 LW
N
550 277.5 M
79 277.5 L
S
GR
GS
[0.75 0 0 0.75 0 0] CT
0.775 GC
[1 3] 0 setdash
2 LJ
0.667 LW
N
550 265.083 M
79 265.083 L
S
GR
GS
[0.75 0 0 0.75 0 0] CT
0.775 GC
[1 3] 0 setdash
2 LJ
0.667 LW
N
550 257.819 M
79 257.819 L
S
GR
GS
[0.75 0 0 0.75 0 0] CT
0.775 GC
[1 3] 0 setdash
2 LJ
0.667 LW
N
550 252.665 M
79 252.665 L
S
GR
GS
[0.75 0 0 0.75 0 0] CT
0.775 GC
[1 3] 0 setdash
2 LJ
0.667 LW
N
550 248.667 M
79 248.667 L
S
GR
GS
[0.75 0 0 0.75 0 0] CT
0.775 GC
[1 3] 0 setdash
2 LJ
0.667 LW
N
550 245.401 M
79 245.401 L
S
GR
GS
[0.75 0 0 0.75 0 0] CT
0.775 GC
[1 3] 0 setdash
2 LJ
0.667 LW
N
550 242.64 M
79 242.64 L
S
GR
GS
[0.75 0 0 0.75 0 0] CT
0.775 GC
[1 3] 0 setdash
2 LJ
0.667 LW
N
550 240.248 M
79 240.248 L
S
GR
GS
[0.75 0 0 0.75 0 0] CT
0.775 GC
[1 3] 0 setdash
2 LJ
0.667 LW
N
550 238.137 M
79 238.137 L
S
GR
GS
[0.75 0 0 0.75 0 0] CT
0.775 GC
[1 3] 0 setdash
2 LJ
0.667 LW
N
550 223.833 M
79 223.833 L
S
GR
GS
[0.75 0 0 0.75 0 0] CT
0.775 GC
[1 3] 0 setdash
2 LJ
0.667 LW
N
550 216.569 M
79 216.569 L
S
GR
GS
[0.75 0 0 0.75 0 0] CT
0.775 GC
[1 3] 0 setdash
2 LJ
0.667 LW
N
550 211.415 M
79 211.415 L
S
GR
GS
[0.75 0 0 0.75 0 0] CT
0.775 GC
[1 3] 0 setdash
2 LJ
0.667 LW
N
550 207.417 M
79 207.417 L
S
GR
GS
[0.75 0 0 0.75 0 0] CT
0.775 GC
[1 3] 0 setdash
2 LJ
0.667 LW
N
550 204.151 M
79 204.151 L
S
GR
GS
[0.75 0 0 0.75 0 0] CT
0.775 GC
[1 3] 0 setdash
2 LJ
0.667 LW
N
550 201.39 M
79 201.39 L
S
GR
GS
[0.75 0 0 0.75 0 0] CT
0.775 GC
[1 3] 0 setdash
2 LJ
0.667 LW
N
550 198.998 M
79 198.998 L
S
GR
GS
[0.75 0 0 0.75 0 0] CT
0.775 GC
[1 3] 0 setdash
2 LJ
0.667 LW
N
550 196.887 M
79 196.887 L
S
GR
GS
[0.75 0 0 0.75 0 0] CT
0.775 GC
[1 3] 0 setdash
2 LJ
0.667 LW
N
550 182.583 M
79 182.583 L
S
GR
GS
[0.75 0 0 0.75 0 0] CT
0.775 GC
[1 3] 0 setdash
2 LJ
0.667 LW
N
550 175.319 M
79 175.319 L
S
GR
GS
[0.75 0 0 0.75 0 0] CT
0.775 GC
[1 3] 0 setdash
2 LJ
0.667 LW
N
550 170.165 M
79 170.165 L
S
GR
GS
[0.75 0 0 0.75 0 0] CT
0.775 GC
[1 3] 0 setdash
2 LJ
0.667 LW
N
550 166.167 M
79 166.167 L
S
GR
GS
[0.75 0 0 0.75 0 0] CT
0.775 GC
[1 3] 0 setdash
2 LJ
0.667 LW
N
550 162.901 M
79 162.901 L
S
GR
GS
[0.75 0 0 0.75 0 0] CT
0.775 GC
[1 3] 0 setdash
2 LJ
0.667 LW
N
550 160.14 M
79 160.14 L
S
GR
GS
[0.75 0 0 0.75 0 0] CT
0.775 GC
[1 3] 0 setdash
2 LJ
0.667 LW
N
550 157.748 M
79 157.748 L
S
GR
GS
[0.75 0 0 0.75 0 0] CT
0.775 GC
[1 3] 0 setdash
2 LJ
0.667 LW
N
550 155.637 M
79 155.637 L
S
GR
GS
[0.75 0 0 0.75 0 0] CT
0.775 GC
[1 3] 0 setdash
2 LJ
0.667 LW
N
550 141.333 M
79 141.333 L
S
GR
GS
[0.75 0 0 0.75 0 0] CT
0.775 GC
[1 3] 0 setdash
2 LJ
0.667 LW
N
550 134.069 M
79 134.069 L
S
GR
GS
[0.75 0 0 0.75 0 0] CT
0.775 GC
[1 3] 0 setdash
2 LJ
0.667 LW
N
550 128.915 M
79 128.915 L
S
GR
GS
[0.75 0 0 0.75 0 0] CT
0.775 GC
[1 3] 0 setdash
2 LJ
0.667 LW
N
550 124.917 M
79 124.917 L
S
GR
GS
[0.75 0 0 0.75 0 0] CT
0.775 GC
[1 3] 0 setdash
2 LJ
0.667 LW
N
550 121.651 M
79 121.651 L
S
GR
GS
[0.75 0 0 0.75 0 0] CT
0.775 GC
[1 3] 0 setdash
2 LJ
0.667 LW
N
550 118.89 M
79 118.89 L
S
GR
GS
[0.75 0 0 0.75 0 0] CT
0.775 GC
[1 3] 0 setdash
2 LJ
0.667 LW
N
550 116.498 M
79 116.498 L
S
GR
GS
[0.75 0 0 0.75 0 0] CT
0.775 GC
[1 3] 0 setdash
2 LJ
0.667 LW
N
550 114.387 M
79 114.387 L
S
GR
GS
[0.75 0 0 0.75 0 0] CT
0.775 GC
[1 3] 0 setdash
2 LJ
0.667 LW
N
550 100.083 M
79 100.083 L
S
GR
GS
[0.75 0 0 0.75 0 0] CT
0.775 GC
[1 3] 0 setdash
2 LJ
0.667 LW
N
550 92.819 M
79 92.819 L
S
GR
GS
[0.75 0 0 0.75 0 0] CT
0.775 GC
[1 3] 0 setdash
2 LJ
0.667 LW
N
550 87.665 M
79 87.665 L
S
GR
GS
[0.75 0 0 0.75 0 0] CT
0.775 GC
[1 3] 0 setdash
2 LJ
0.667 LW
N
550 83.667 M
79 83.667 L
S
GR
GS
[0.75 0 0 0.75 0 0] CT
0.775 GC
[1 3] 0 setdash
2 LJ
0.667 LW
N
550 80.401 M
79 80.401 L
S
GR
GS
[0.75 0 0 0.75 0 0] CT
0.775 GC
[1 3] 0 setdash
2 LJ
0.667 LW
N
550 77.64 M
79 77.64 L
S
GR
GS
[0.75 0 0 0.75 0 0] CT
0.775 GC
[1 3] 0 setdash
2 LJ
0.667 LW
N
550 75.248 M
79 75.248 L
S
GR
GS
[0.75 0 0 0.75 0 0] CT
0.775 GC
[1 3] 0 setdash
2 LJ
0.667 LW
N
550 73.137 M
79 73.137 L
S
GR
GS
[0.75 0 0 0.75 0 0] CT
0.775 GC
[1 3] 0 setdash
2 LJ
0.667 LW
N
550 58.833 M
79 58.833 L
S
GR
GS
[0.75 0 0 0.75 0 0] CT
0.775 GC
[1 3] 0 setdash
2 LJ
0.667 LW
N
550 51.569 M
79 51.569 L
S
GR
GS
[0.75 0 0 0.75 0 0] CT
0.775 GC
[1 3] 0 setdash
2 LJ
0.667 LW
N
550 46.415 M
79 46.415 L
S
GR
GS
[0.75 0 0 0.75 0 0] CT
0.775 GC
[1 3] 0 setdash
2 LJ
0.667 LW
N
550 42.417 M
79 42.417 L
S
GR
GS
[0.75 0 0 0.75 0 0] CT
0.775 GC
[1 3] 0 setdash
2 LJ
0.667 LW
N
550 39.151 M
79 39.151 L
S
GR
GS
[0.75 0 0 0.75 0 0] CT
0.775 GC
[1 3] 0 setdash
2 LJ
0.667 LW
N
550 36.39 M
79 36.39 L
S
GR
GS
[0.75 0 0 0.75 0 0] CT
0.775 GC
[1 3] 0 setdash
2 LJ
0.667 LW
N
550 33.998 M
79 33.998 L
S
GR
GS
[0.75 0 0 0.75 0 0] CT
0.775 GC
[1 3] 0 setdash
2 LJ
0.667 LW
N
550 31.887 M
79 31.887 L
S
GR
GS
[0.75 0 0 0.75 0 0] CT
0.873 GC
1 LJ
0.667 LW
N
550 360 M
79 360 L
S
GR
GS
[0.75 0 0 0.75 0 0] CT
0.873 GC
1 LJ
0.667 LW
N
550 318.75 M
79 318.75 L
S
GR
GS
[0.75 0 0 0.75 0 0] CT
0.873 GC
1 LJ
0.667 LW
N
550 277.5 M
79 277.5 L
S
GR
GS
[0.75 0 0 0.75 0 0] CT
0.873 GC
1 LJ
0.667 LW
N
550 236.25 M
79 236.25 L
S
GR
GS
[0.75 0 0 0.75 0 0] CT
0.873 GC
1 LJ
0.667 LW
N
550 195 M
79 195 L
S
GR
GS
[0.75 0 0 0.75 0 0] CT
0.873 GC
1 LJ
0.667 LW
N
550 153.75 M
79 153.75 L
S
GR
GS
[0.75 0 0 0.75 0 0] CT
0.873 GC
1 LJ
0.667 LW
N
550 112.5 M
79 112.5 L
S
GR
GS
[0.75 0 0 0.75 0 0] CT
0.873 GC
1 LJ
0.667 LW
N
550 71.25 M
79 71.25 L
S
GR
GS
[0.75 0 0 0.75 0 0] CT
0.873 GC
1 LJ
0.667 LW
N
550 30 M
79 30 L
S
GR
GS
[0.75 0 0 0.75 0 0] CT
0.149 GC
2 setlinecap
1 LJ
0.667 LW
N
79 360 M
550 360 L
S
GR
GS
[0.75 0 0 0.75 0 0] CT
0.149 GC
2 setlinecap
1 LJ
0.667 LW
N
79 30 M
550 30 L
S
GR
GS
[0.75 0 0 0.75 0 0] CT
0.149 GC
2 setlinecap
1 LJ
0.667 LW
N
79 360 M
79 355.29 L
S
GR
GS
[0.75 0 0 0.75 0 0] CT
0.149 GC
2 setlinecap
1 LJ
0.667 LW
N
173.2 360 M
173.2 355.29 L
S
GR
GS
[0.75 0 0 0.75 0 0] CT
0.149 GC
2 setlinecap
1 LJ
0.667 LW
N
267.4 360 M
267.4 355.29 L
S
GR
GS
[0.75 0 0 0.75 0 0] CT
0.149 GC
2 setlinecap
1 LJ
0.667 LW
N
361.6 360 M
361.6 355.29 L
S
GR
GS
[0.75 0 0 0.75 0 0] CT
0.149 GC
2 setlinecap
1 LJ
0.667 LW
N
455.8 360 M
455.8 355.29 L
S
GR
GS
[0.75 0 0 0.75 0 0] CT
0.149 GC
2 setlinecap
1 LJ
0.667 LW
N
550 360 M
550 355.29 L
S
GR
GS
[0.75 0 0 0.75 0 0] CT
0.149 GC
2 setlinecap
1 LJ
0.667 LW
N
79 30 M
79 34.71 L
S
GR
GS
[0.75 0 0 0.75 0 0] CT
0.149 GC
2 setlinecap
1 LJ
0.667 LW
N
173.2 30 M
173.2 34.71 L
S
GR
GS
[0.75 0 0 0.75 0 0] CT
0.149 GC
2 setlinecap
1 LJ
0.667 LW
N
267.4 30 M
267.4 34.71 L
S
GR
GS
[0.75 0 0 0.75 0 0] CT
0.149 GC
2 setlinecap
1 LJ
0.667 LW
N
361.6 30 M
361.6 34.71 L
S
GR
GS
[0.75 0 0 0.75 0 0] CT
0.149 GC
2 setlinecap
1 LJ
0.667 LW
N
455.8 30 M
455.8 34.71 L
S
GR
GS
[0.75 0 0 0.75 0 0] CT
0.149 GC
2 setlinecap
1 LJ
0.667 LW
N
550 30 M
550 34.71 L
S
GR
GS
[0.75 0 0 0.75 59.25 274.00001] CT
0.149 GC
/Helvetica 13.333 F
GS
[1 0 0 1 0 0] CT
-4.5 12 moveto 
1 -1 scale
(0) t 
GR
GR
GS
[0.75 0 0 0.75 129.9 274.00001] CT
0.149 GC
/Helvetica 13.333 F
GS
[1 0 0 1 0 0] CT
-4.5 12 moveto 
1 -1 scale
(1) t 
GR
GR
GS
[0.75 0 0 0.75 200.55 274.00001] CT
0.149 GC
/Helvetica 13.333 F
GS
[1 0 0 1 0 0] CT
-4.5 12 moveto 
1 -1 scale
(2) t 
GR
GR
GS
[0.75 0 0 0.75 271.2 274.00001] CT
0.149 GC
/Helvetica 13.333 F
GS
[1 0 0 1 0 0] CT
-4.5 12 moveto 
1 -1 scale
(3) t 
GR
GR
GS
[0.75 0 0 0.75 341.85001 274.00001] CT
0.149 GC
/Helvetica 13.333 F
GS
[1 0 0 1 0 0] CT
-4.5 12 moveto 
1 -1 scale
(4) t 
GR
GR
GS
[0.75 0 0 0.75 412.5 274.00001] CT
0.149 GC
/Helvetica 13.333 F
GS
[1 0 0 1 0 0] CT
-4.5 12 moveto 
1 -1 scale
(5) t 
GR
GR
GS
[0.75 0 0 0.75 235.87516 285.49999] CT
0.149 GC
N
-30.034 15.68 M
-30.034 15.008 L
-29.065 15.008 -28.167 14.906 QT
-27.268 14.805 -27.268 14.414 QT
-27.268 3.977 L
-27.268 3.571 -27.495 3.469 QT
-27.721 3.367 -28.237 3.367 QT
-29.034 3.367 L
-30.596 3.367 -31.268 4.055 QT
-31.596 4.399 -31.745 5.156 QT
-31.893 5.914 -32.003 7.055 QT
-32.55 7.055 L
-32.19 2.696 L
-20.581 2.696 L
-20.221 7.055 L
-20.784 7.055 L
-20.893 5.821 -21.026 5.102 QT
-21.159 4.383 -21.503 4.055 QT
-22.175 3.367 -23.737 3.367 QT
-24.534 3.367 L
-24.878 3.367 -25.065 3.399 QT
-25.253 3.43 -25.378 3.563 QT
-25.503 3.696 -25.503 3.977 QT
-25.503 14.414 L
-25.503 14.805 -24.604 14.906 QT
-23.706 15.008 -22.753 15.008 QT
-22.753 15.68 L
-30.034 15.68 L
cp
f
GR
GS
[0.75 0 0 0.75 235.87516 285.49999] CT
0.149 GC
N
-19.177 15.68 M
-19.177 15.008 L
-18.521 15.008 -18.107 14.906 QT
-17.693 14.805 -17.693 14.414 QT
-17.693 9.227 L
-17.693 8.492 -17.974 8.321 QT
-18.256 8.149 -19.084 8.149 QT
-19.084 7.492 L
-16.349 7.289 L
-16.349 14.414 L
-16.349 14.805 -15.99 14.906 QT
-15.631 15.008 -15.021 15.008 QT
-15.021 15.68 L
-19.177 15.68 L
cp
-18.365 4.024 M
-18.365 3.602 -18.052 3.289 QT
-17.74 2.977 -17.318 2.977 QT
-17.052 2.977 -16.802 3.11 QT
-16.552 3.242 -16.412 3.492 QT
-16.271 3.742 -16.271 4.024 QT
-16.271 4.43 -16.592 4.742 QT
-16.912 5.055 -17.318 5.055 QT
-17.74 5.055 -18.052 4.742 QT
-18.365 4.43 -18.365 4.024 QT
cp
f
GR
GS
[0.75 0 0 0.75 235.87516 285.49999] CT
0.149 GC
N
-14.008 15.68 M
-14.008 15.008 L
-13.352 15.008 -12.938 14.906 QT
-12.523 14.805 -12.523 14.414 QT
-12.523 9.227 L
-12.523 8.711 -12.672 8.485 QT
-12.82 8.258 -13.109 8.203 QT
-13.398 8.149 -14.008 8.149 QT
-14.008 7.492 L
-11.242 7.289 L
-11.242 9.133 L
-10.867 8.321 -10.117 7.805 QT
-9.367 7.289 -8.492 7.289 QT
-6.305 7.289 -5.93 9.071 QT
-5.539 8.274 -4.805 7.781 QT
-4.07 7.289 -3.211 7.289 QT
-2.336 7.289 -1.75 7.563 QT
-1.164 7.836 -0.867 8.406 QT
-0.57 8.977 -0.57 9.852 QT
-0.57 14.414 L
-0.57 14.805 -0.148 14.906 QT
0.273 15.008 0.914 15.008 QT
0.914 15.68 L
-3.43 15.68 L
-3.43 15.008 L
-2.789 15.008 -2.367 14.906 QT
-1.945 14.805 -1.945 14.414 QT
-1.945 9.899 L
-1.945 8.946 -2.219 8.36 QT
-2.492 7.774 -3.32 7.774 QT
-4.414 7.774 -5.133 8.656 QT
-5.852 9.539 -5.852 10.664 QT
-5.852 14.414 L
-5.852 14.805 -5.43 14.906 QT
-5.008 15.008 -4.367 15.008 QT
-4.367 15.68 L
-8.711 15.68 L
-8.711 15.008 L
-8.07 15.008 -7.648 14.906 QT
-7.227 14.805 -7.227 14.414 QT
-7.227 9.899 L
-7.227 8.977 -7.5 8.375 QT
-7.773 7.774 -8.602 7.774 QT
-9.711 7.774 -10.422 8.656 QT
-11.133 9.539 -11.133 10.664 QT
-11.133 14.414 L
-11.133 14.805 -10.711 14.906 QT
-10.289 15.008 -9.648 15.008 QT
-9.648 15.68 L
-14.008 15.68 L
cp
f
GR
GS
[0.75 0 0 0.75 235.87516 285.49999] CT
0.149 GC
N
5.72 15.899 M
4.563 15.899 3.595 15.289 QT
2.626 14.68 2.071 13.664 QT
1.516 12.649 1.516 11.508 QT
1.516 10.399 2.024 9.399 QT
2.532 8.399 3.431 7.781 QT
4.329 7.164 5.454 7.164 QT
6.313 7.164 6.962 7.453 QT
7.61 7.742 8.024 8.266 QT
8.438 8.789 8.657 9.492 QT
8.876 10.196 8.876 11.039 QT
8.876 11.289 8.673 11.289 QT
3.173 11.289 L
3.173 11.492 L
3.173 13.071 3.806 14.203 QT
4.438 15.336 5.891 15.336 QT
6.47 15.336 6.962 15.078 QT
7.454 14.821 7.821 14.352 QT
8.188 13.883 8.329 13.367 QT
8.345 13.289 8.391 13.242 QT
8.438 13.196 8.516 13.196 QT
8.673 13.196 L
8.876 13.196 8.876 13.43 QT
8.595 14.508 7.704 15.203 QT
6.813 15.899 5.72 15.899 QT
cp
3.188 10.821 M
7.532 10.821 L
7.532 10.102 7.329 9.367 QT
7.126 8.633 6.665 8.149 QT
6.204 7.664 5.454 7.664 QT
4.376 7.664 3.782 8.672 QT
3.188 9.68 3.188 10.821 QT
cp
f
GR
GS
[0.75 0 0 0.75 235.87516 285.49999] CT
0.149 GC
N
17.754 20.43 M
17.754 1.43 L
20.347 1.43 L
20.347 2.196 L
18.504 2.196 L
18.504 19.664 L
20.347 19.664 L
20.347 20.43 L
17.754 20.43 L
cp
f
GR
GS
[0.75 0 0 0.75 235.87516 285.49999] CT
0.149 GC
N
21.314 15.742 M
21.314 12.633 L
21.314 12.492 21.486 12.492 QT
21.72 12.492 L
21.83 12.492 21.861 12.633 QT
22.392 15.399 24.423 15.399 QT
25.33 15.399 25.939 14.985 QT
26.548 14.571 26.548 13.727 QT
26.548 13.117 26.072 12.68 QT
25.595 12.242 24.955 12.086 QT
23.673 11.836 L
23.033 11.696 22.509 11.406 QT
21.986 11.117 21.65 10.641 QT
21.314 10.164 21.314 9.539 QT
21.314 8.696 21.759 8.164 QT
22.205 7.633 22.908 7.399 QT
23.611 7.164 24.423 7.164 QT
25.408 7.164 26.126 7.68 QT
26.673 7.211 L
26.673 7.164 26.767 7.164 QT
26.908 7.164 L
26.955 7.164 27.001 7.211 QT
27.048 7.258 27.048 7.321 QT
27.048 9.805 L
27.048 9.977 26.908 9.977 QT
26.673 9.977 L
26.501 9.977 26.501 9.805 QT
26.501 8.821 25.955 8.211 QT
25.408 7.602 24.408 7.602 QT
23.548 7.602 22.923 7.922 QT
22.298 8.242 22.298 9.008 QT
22.298 9.539 22.751 9.875 QT
23.205 10.211 23.814 10.367 QT
25.095 10.602 L
25.751 10.758 26.306 11.11 QT
26.861 11.461 27.197 12 QT
27.533 12.539 27.533 13.211 QT
27.533 13.899 27.29 14.406 QT
27.048 14.914 26.626 15.242 QT
26.205 15.571 25.634 15.735 QT
25.064 15.899 24.423 15.899 QT
23.236 15.899 22.392 15.102 QT
21.705 15.852 L
21.705 15.899 21.595 15.899 QT
21.486 15.899 L
21.314 15.899 21.314 15.742 QT
cp
f
GR
GS
[0.75 0 0 0.75 235.87516 285.49999] CT
0.149 GC
N
28.474 20.43 M
28.474 19.664 L
30.318 19.664 L
30.318 2.196 L
28.474 2.196 L
28.474 1.43 L
31.083 1.43 L
31.083 20.43 L
28.474 20.43 L
cp
f
GR
GS
[0.75 0 0 0.75 0 0] CT
0.149 GC
2 setlinecap
1 LJ
0.667 LW
N
79 360 M
79 30 L
S
GR
GS
[0.75 0 0 0.75 0 0] CT
0.149 GC
2 setlinecap
1 LJ
0.667 LW
N
550 360 M
550 30 L
S
GR
GS
[0.75 0 0 0.75 0 0] CT
0.149 GC
2 setlinecap
1 LJ
0.667 LW
N
79 360 M
83.71 360 L
S
GR
GS
[0.75 0 0 0.75 0 0] CT
0.149 GC
2 setlinecap
1 LJ
0.667 LW
N
79 318.75 M
83.71 318.75 L
S
GR
GS
[0.75 0 0 0.75 0 0] CT
0.149 GC
2 setlinecap
1 LJ
0.667 LW
N
79 277.5 M
83.71 277.5 L
S
GR
GS
[0.75 0 0 0.75 0 0] CT
0.149 GC
2 setlinecap
1 LJ
0.667 LW
N
79 236.25 M
83.71 236.25 L
S
GR
GS
[0.75 0 0 0.75 0 0] CT
0.149 GC
2 setlinecap
1 LJ
0.667 LW
N
79 195 M
83.71 195 L
S
GR
GS
[0.75 0 0 0.75 0 0] CT
0.149 GC
2 setlinecap
1 LJ
0.667 LW
N
79 153.75 M
83.71 153.75 L
S
GR
GS
[0.75 0 0 0.75 0 0] CT
0.149 GC
2 setlinecap
1 LJ
0.667 LW
N
79 112.5 M
83.71 112.5 L
S
GR
GS
[0.75 0 0 0.75 0 0] CT
0.149 GC
2 setlinecap
1 LJ
0.667 LW
N
79 71.25 M
83.71 71.25 L
S
GR
GS
[0.75 0 0 0.75 0 0] CT
0.149 GC
2 setlinecap
1 LJ
0.667 LW
N
79 30 M
83.71 30 L
S
GR
GS
[0.75 0 0 0.75 0 0] CT
0.149 GC
2 setlinecap
1 LJ
0.667 LW
N
550 360 M
545.29 360 L
S
GR
GS
[0.75 0 0 0.75 0 0] CT
0.149 GC
2 setlinecap
1 LJ
0.667 LW
N
550 318.75 M
545.29 318.75 L
S
GR
GS
[0.75 0 0 0.75 0 0] CT
0.149 GC
2 setlinecap
1 LJ
0.667 LW
N
550 277.5 M
545.29 277.5 L
S
GR
GS
[0.75 0 0 0.75 0 0] CT
0.149 GC
2 setlinecap
1 LJ
0.667 LW
N
550 236.25 M
545.29 236.25 L
S
GR
GS
[0.75 0 0 0.75 0 0] CT
0.149 GC
2 setlinecap
1 LJ
0.667 LW
N
550 195 M
545.29 195 L
S
GR
GS
[0.75 0 0 0.75 0 0] CT
0.149 GC
2 setlinecap
1 LJ
0.667 LW
N
550 153.75 M
545.29 153.75 L
S
GR
GS
[0.75 0 0 0.75 0 0] CT
0.149 GC
2 setlinecap
1 LJ
0.667 LW
N
550 112.5 M
545.29 112.5 L
S
GR
GS
[0.75 0 0 0.75 0 0] CT
0.149 GC
2 setlinecap
1 LJ
0.667 LW
N
550 71.25 M
545.29 71.25 L
S
GR
GS
[0.75 0 0 0.75 0 0] CT
0.149 GC
2 setlinecap
1 LJ
0.667 LW
N
550 30 M
545.29 30 L
S
GR
GS
[0.75 0 0 0.75 0 0] CT
0.149 GC
2 setlinecap
1 LJ
0.667 LW
N
79 360 M
81.355 360 L
S
GR
GS
[0.75 0 0 0.75 0 0] CT
0.149 GC
2 setlinecap
1 LJ
0.667 LW
N
79 347.583 M
81.355 347.583 L
S
GR
GS
[0.75 0 0 0.75 0 0] CT
0.149 GC
2 setlinecap
1 LJ
0.667 LW
N
79 340.319 M
81.355 340.319 L
S
GR
GS
[0.75 0 0 0.75 0 0] CT
0.149 GC
2 setlinecap
1 LJ
0.667 LW
N
79 335.165 M
81.355 335.165 L
S
GR
GS
[0.75 0 0 0.75 0 0] CT
0.149 GC
2 setlinecap
1 LJ
0.667 LW
N
79 331.167 M
81.355 331.167 L
S
GR
GS
[0.75 0 0 0.75 0 0] CT
0.149 GC
2 setlinecap
1 LJ
0.667 LW
N
79 327.901 M
81.355 327.901 L
S
GR
GS
[0.75 0 0 0.75 0 0] CT
0.149 GC
2 setlinecap
1 LJ
0.667 LW
N
79 325.14 M
81.355 325.14 L
S
GR
GS
[0.75 0 0 0.75 0 0] CT
0.149 GC
2 setlinecap
1 LJ
0.667 LW
N
79 322.748 M
81.355 322.748 L
S
GR
GS
[0.75 0 0 0.75 0 0] CT
0.149 GC
2 setlinecap
1 LJ
0.667 LW
N
79 320.637 M
81.355 320.637 L
S
GR
GS
[0.75 0 0 0.75 0 0] CT
0.149 GC
2 setlinecap
1 LJ
0.667 LW
N
79 318.75 M
81.355 318.75 L
S
GR
GS
[0.75 0 0 0.75 0 0] CT
0.149 GC
2 setlinecap
1 LJ
0.667 LW
N
79 306.333 M
81.355 306.333 L
S
GR
GS
[0.75 0 0 0.75 0 0] CT
0.149 GC
2 setlinecap
1 LJ
0.667 LW
N
79 299.069 M
81.355 299.069 L
S
GR
GS
[0.75 0 0 0.75 0 0] CT
0.149 GC
2 setlinecap
1 LJ
0.667 LW
N
79 293.915 M
81.355 293.915 L
S
GR
GS
[0.75 0 0 0.75 0 0] CT
0.149 GC
2 setlinecap
1 LJ
0.667 LW
N
79 289.917 M
81.355 289.917 L
S
GR
GS
[0.75 0 0 0.75 0 0] CT
0.149 GC
2 setlinecap
1 LJ
0.667 LW
N
79 286.651 M
81.355 286.651 L
S
GR
GS
[0.75 0 0 0.75 0 0] CT
0.149 GC
2 setlinecap
1 LJ
0.667 LW
N
79 283.89 M
81.355 283.89 L
S
GR
GS
[0.75 0 0 0.75 0 0] CT
0.149 GC
2 setlinecap
1 LJ
0.667 LW
N
79 281.498 M
81.355 281.498 L
S
GR
GS
[0.75 0 0 0.75 0 0] CT
0.149 GC
2 setlinecap
1 LJ
0.667 LW
N
79 279.388 M
81.355 279.388 L
S
GR
GS
[0.75 0 0 0.75 0 0] CT
0.149 GC
2 setlinecap
1 LJ
0.667 LW
N
79 277.5 M
81.355 277.5 L
S
GR
GS
[0.75 0 0 0.75 0 0] CT
0.149 GC
2 setlinecap
1 LJ
0.667 LW
N
79 277.5 M
81.355 277.5 L
S
GR
GS
[0.75 0 0 0.75 0 0] CT
0.149 GC
2 setlinecap
1 LJ
0.667 LW
N
79 265.083 M
81.355 265.083 L
S
GR
GS
[0.75 0 0 0.75 0 0] CT
0.149 GC
2 setlinecap
1 LJ
0.667 LW
N
79 257.819 M
81.355 257.819 L
S
GR
GS
[0.75 0 0 0.75 0 0] CT
0.149 GC
2 setlinecap
1 LJ
0.667 LW
N
79 252.665 M
81.355 252.665 L
S
GR
GS
[0.75 0 0 0.75 0 0] CT
0.149 GC
2 setlinecap
1 LJ
0.667 LW
N
79 248.667 M
81.355 248.667 L
S
GR
GS
[0.75 0 0 0.75 0 0] CT
0.149 GC
2 setlinecap
1 LJ
0.667 LW
N
79 245.401 M
81.355 245.401 L
S
GR
GS
[0.75 0 0 0.75 0 0] CT
0.149 GC
2 setlinecap
1 LJ
0.667 LW
N
79 242.64 M
81.355 242.64 L
S
GR
GS
[0.75 0 0 0.75 0 0] CT
0.149 GC
2 setlinecap
1 LJ
0.667 LW
N
79 240.248 M
81.355 240.248 L
S
GR
GS
[0.75 0 0 0.75 0 0] CT
0.149 GC
2 setlinecap
1 LJ
0.667 LW
N
79 238.137 M
81.355 238.137 L
S
GR
GS
[0.75 0 0 0.75 0 0] CT
0.149 GC
2 setlinecap
1 LJ
0.667 LW
N
79 236.25 M
81.355 236.25 L
S
GR
GS
[0.75 0 0 0.75 0 0] CT
0.149 GC
2 setlinecap
1 LJ
0.667 LW
N
79 223.833 M
81.355 223.833 L
S
GR
GS
[0.75 0 0 0.75 0 0] CT
0.149 GC
2 setlinecap
1 LJ
0.667 LW
N
79 216.569 M
81.355 216.569 L
S
GR
GS
[0.75 0 0 0.75 0 0] CT
0.149 GC
2 setlinecap
1 LJ
0.667 LW
N
79 211.415 M
81.355 211.415 L
S
GR
GS
[0.75 0 0 0.75 0 0] CT
0.149 GC
2 setlinecap
1 LJ
0.667 LW
N
79 207.417 M
81.355 207.417 L
S
GR
GS
[0.75 0 0 0.75 0 0] CT
0.149 GC
2 setlinecap
1 LJ
0.667 LW
N
79 204.151 M
81.355 204.151 L
S
GR
GS
[0.75 0 0 0.75 0 0] CT
0.149 GC
2 setlinecap
1 LJ
0.667 LW
N
79 201.39 M
81.355 201.39 L
S
GR
GS
[0.75 0 0 0.75 0 0] CT
0.149 GC
2 setlinecap
1 LJ
0.667 LW
N
79 198.998 M
81.355 198.998 L
S
GR
GS
[0.75 0 0 0.75 0 0] CT
0.149 GC
2 setlinecap
1 LJ
0.667 LW
N
79 196.887 M
81.355 196.887 L
S
GR
GS
[0.75 0 0 0.75 0 0] CT
0.149 GC
2 setlinecap
1 LJ
0.667 LW
N
79 195 M
81.355 195 L
S
GR
GS
[0.75 0 0 0.75 0 0] CT
0.149 GC
2 setlinecap
1 LJ
0.667 LW
N
79 182.583 M
81.355 182.583 L
S
GR
GS
[0.75 0 0 0.75 0 0] CT
0.149 GC
2 setlinecap
1 LJ
0.667 LW
N
79 175.319 M
81.355 175.319 L
S
GR
GS
[0.75 0 0 0.75 0 0] CT
0.149 GC
2 setlinecap
1 LJ
0.667 LW
N
79 170.165 M
81.355 170.165 L
S
GR
GS
[0.75 0 0 0.75 0 0] CT
0.149 GC
2 setlinecap
1 LJ
0.667 LW
N
79 166.167 M
81.355 166.167 L
S
GR
GS
[0.75 0 0 0.75 0 0] CT
0.149 GC
2 setlinecap
1 LJ
0.667 LW
N
79 162.901 M
81.355 162.901 L
S
GR
GS
[0.75 0 0 0.75 0 0] CT
0.149 GC
2 setlinecap
1 LJ
0.667 LW
N
79 160.14 M
81.355 160.14 L
S
GR
GS
[0.75 0 0 0.75 0 0] CT
0.149 GC
2 setlinecap
1 LJ
0.667 LW
N
79 157.748 M
81.355 157.748 L
S
GR
GS
[0.75 0 0 0.75 0 0] CT
0.149 GC
2 setlinecap
1 LJ
0.667 LW
N
79 155.637 M
81.355 155.637 L
S
GR
GS
[0.75 0 0 0.75 0 0] CT
0.149 GC
2 setlinecap
1 LJ
0.667 LW
N
79 153.75 M
81.355 153.75 L
S
GR
GS
[0.75 0 0 0.75 0 0] CT
0.149 GC
2 setlinecap
1 LJ
0.667 LW
N
79 141.333 M
81.355 141.333 L
S
GR
GS
[0.75 0 0 0.75 0 0] CT
0.149 GC
2 setlinecap
1 LJ
0.667 LW
N
79 134.069 M
81.355 134.069 L
S
GR
GS
[0.75 0 0 0.75 0 0] CT
0.149 GC
2 setlinecap
1 LJ
0.667 LW
N
79 128.915 M
81.355 128.915 L
S
GR
GS
[0.75 0 0 0.75 0 0] CT
0.149 GC
2 setlinecap
1 LJ
0.667 LW
N
79 124.917 M
81.355 124.917 L
S
GR
GS
[0.75 0 0 0.75 0 0] CT
0.149 GC
2 setlinecap
1 LJ
0.667 LW
N
79 121.651 M
81.355 121.651 L
S
GR
GS
[0.75 0 0 0.75 0 0] CT
0.149 GC
2 setlinecap
1 LJ
0.667 LW
N
79 118.89 M
81.355 118.89 L
S
GR
GS
[0.75 0 0 0.75 0 0] CT
0.149 GC
2 setlinecap
1 LJ
0.667 LW
N
79 116.498 M
81.355 116.498 L
S
GR
GS
[0.75 0 0 0.75 0 0] CT
0.149 GC
2 setlinecap
1 LJ
0.667 LW
N
79 114.387 M
81.355 114.387 L
S
GR
GS
[0.75 0 0 0.75 0 0] CT
0.149 GC
2 setlinecap
1 LJ
0.667 LW
N
79 112.5 M
81.355 112.5 L
S
GR
GS
[0.75 0 0 0.75 0 0] CT
0.149 GC
2 setlinecap
1 LJ
0.667 LW
N
79 100.083 M
81.355 100.083 L
S
GR
GS
[0.75 0 0 0.75 0 0] CT
0.149 GC
2 setlinecap
1 LJ
0.667 LW
N
79 92.819 M
81.355 92.819 L
S
GR
GS
[0.75 0 0 0.75 0 0] CT
0.149 GC
2 setlinecap
1 LJ
0.667 LW
N
79 87.665 M
81.355 87.665 L
S
GR
GS
[0.75 0 0 0.75 0 0] CT
0.149 GC
2 setlinecap
1 LJ
0.667 LW
N
79 83.667 M
81.355 83.667 L
S
GR
GS
[0.75 0 0 0.75 0 0] CT
0.149 GC
2 setlinecap
1 LJ
0.667 LW
N
79 80.401 M
81.355 80.401 L
S
GR
GS
[0.75 0 0 0.75 0 0] CT
0.149 GC
2 setlinecap
1 LJ
0.667 LW
N
79 77.64 M
81.355 77.64 L
S
GR
GS
[0.75 0 0 0.75 0 0] CT
0.149 GC
2 setlinecap
1 LJ
0.667 LW
N
79 75.248 M
81.355 75.248 L
S
GR
GS
[0.75 0 0 0.75 0 0] CT
0.149 GC
2 setlinecap
1 LJ
0.667 LW
N
79 73.137 M
81.355 73.137 L
S
GR
GS
[0.75 0 0 0.75 0 0] CT
0.149 GC
2 setlinecap
1 LJ
0.667 LW
N
79 71.25 M
81.355 71.25 L
S
GR
GS
[0.75 0 0 0.75 0 0] CT
0.149 GC
2 setlinecap
1 LJ
0.667 LW
N
79 58.833 M
81.355 58.833 L
S
GR
GS
[0.75 0 0 0.75 0 0] CT
0.149 GC
2 setlinecap
1 LJ
0.667 LW
N
79 51.569 M
81.355 51.569 L
S
GR
GS
[0.75 0 0 0.75 0 0] CT
0.149 GC
2 setlinecap
1 LJ
0.667 LW
N
79 46.415 M
81.355 46.415 L
S
GR
GS
[0.75 0 0 0.75 0 0] CT
0.149 GC
2 setlinecap
1 LJ
0.667 LW
N
79 42.417 M
81.355 42.417 L
S
GR
GS
[0.75 0 0 0.75 0 0] CT
0.149 GC
2 setlinecap
1 LJ
0.667 LW
N
79 39.151 M
81.355 39.151 L
S
GR
GS
[0.75 0 0 0.75 0 0] CT
0.149 GC
2 setlinecap
1 LJ
0.667 LW
N
79 36.39 M
81.355 36.39 L
S
GR
GS
[0.75 0 0 0.75 0 0] CT
0.149 GC
2 setlinecap
1 LJ
0.667 LW
N
79 33.998 M
81.355 33.998 L
S
GR
GS
[0.75 0 0 0.75 0 0] CT
0.149 GC
2 setlinecap
1 LJ
0.667 LW
N
79 31.887 M
81.355 31.887 L
S
GR
GS
[0.75 0 0 0.75 0 0] CT
0.149 GC
2 setlinecap
1 LJ
0.667 LW
N
79 30 M
81.355 30 L
S
GR
GS
[0.75 0 0 0.75 0 0] CT
0.149 GC
2 setlinecap
1 LJ
0.667 LW
N
550 360 M
547.645 360 L
S
GR
GS
[0.75 0 0 0.75 0 0] CT
0.149 GC
2 setlinecap
1 LJ
0.667 LW
N
550 347.583 M
547.645 347.583 L
S
GR
GS
[0.75 0 0 0.75 0 0] CT
0.149 GC
2 setlinecap
1 LJ
0.667 LW
N
550 340.319 M
547.645 340.319 L
S
GR
GS
[0.75 0 0 0.75 0 0] CT
0.149 GC
2 setlinecap
1 LJ
0.667 LW
N
550 335.165 M
547.645 335.165 L
S
GR
GS
[0.75 0 0 0.75 0 0] CT
0.149 GC
2 setlinecap
1 LJ
0.667 LW
N
550 331.167 M
547.645 331.167 L
S
GR
GS
[0.75 0 0 0.75 0 0] CT
0.149 GC
2 setlinecap
1 LJ
0.667 LW
N
550 327.901 M
547.645 327.901 L
S
GR
GS
[0.75 0 0 0.75 0 0] CT
0.149 GC
2 setlinecap
1 LJ
0.667 LW
N
550 325.14 M
547.645 325.14 L
S
GR
GS
[0.75 0 0 0.75 0 0] CT
0.149 GC
2 setlinecap
1 LJ
0.667 LW
N
550 322.748 M
547.645 322.748 L
S
GR
GS
[0.75 0 0 0.75 0 0] CT
0.149 GC
2 setlinecap
1 LJ
0.667 LW
N
550 320.637 M
547.645 320.637 L
S
GR
GS
[0.75 0 0 0.75 0 0] CT
0.149 GC
2 setlinecap
1 LJ
0.667 LW
N
550 318.75 M
547.645 318.75 L
S
GR
GS
[0.75 0 0 0.75 0 0] CT
0.149 GC
2 setlinecap
1 LJ
0.667 LW
N
550 306.333 M
547.645 306.333 L
S
GR
GS
[0.75 0 0 0.75 0 0] CT
0.149 GC
2 setlinecap
1 LJ
0.667 LW
N
550 299.069 M
547.645 299.069 L
S
GR
GS
[0.75 0 0 0.75 0 0] CT
0.149 GC
2 setlinecap
1 LJ
0.667 LW
N
550 293.915 M
547.645 293.915 L
S
GR
GS
[0.75 0 0 0.75 0 0] CT
0.149 GC
2 setlinecap
1 LJ
0.667 LW
N
550 289.917 M
547.645 289.917 L
S
GR
GS
[0.75 0 0 0.75 0 0] CT
0.149 GC
2 setlinecap
1 LJ
0.667 LW
N
550 286.651 M
547.645 286.651 L
S
GR
GS
[0.75 0 0 0.75 0 0] CT
0.149 GC
2 setlinecap
1 LJ
0.667 LW
N
550 283.89 M
547.645 283.89 L
S
GR
GS
[0.75 0 0 0.75 0 0] CT
0.149 GC
2 setlinecap
1 LJ
0.667 LW
N
550 281.498 M
547.645 281.498 L
S
GR
GS
[0.75 0 0 0.75 0 0] CT
0.149 GC
2 setlinecap
1 LJ
0.667 LW
N
550 279.388 M
547.645 279.388 L
S
GR
GS
[0.75 0 0 0.75 0 0] CT
0.149 GC
2 setlinecap
1 LJ
0.667 LW
N
550 277.5 M
547.645 277.5 L
S
GR
GS
[0.75 0 0 0.75 0 0] CT
0.149 GC
2 setlinecap
1 LJ
0.667 LW
N
550 277.5 M
547.645 277.5 L
S
GR
GS
[0.75 0 0 0.75 0 0] CT
0.149 GC
2 setlinecap
1 LJ
0.667 LW
N
550 265.083 M
547.645 265.083 L
S
GR
GS
[0.75 0 0 0.75 0 0] CT
0.149 GC
2 setlinecap
1 LJ
0.667 LW
N
550 257.819 M
547.645 257.819 L
S
GR
GS
[0.75 0 0 0.75 0 0] CT
0.149 GC
2 setlinecap
1 LJ
0.667 LW
N
550 252.665 M
547.645 252.665 L
S
GR
GS
[0.75 0 0 0.75 0 0] CT
0.149 GC
2 setlinecap
1 LJ
0.667 LW
N
550 248.667 M
547.645 248.667 L
S
GR
GS
[0.75 0 0 0.75 0 0] CT
0.149 GC
2 setlinecap
1 LJ
0.667 LW
N
550 245.401 M
547.645 245.401 L
S
GR
GS
[0.75 0 0 0.75 0 0] CT
0.149 GC
2 setlinecap
1 LJ
0.667 LW
N
550 242.64 M
547.645 242.64 L
S
GR
GS
[0.75 0 0 0.75 0 0] CT
0.149 GC
2 setlinecap
1 LJ
0.667 LW
N
550 240.248 M
547.645 240.248 L
S
GR
GS
[0.75 0 0 0.75 0 0] CT
0.149 GC
2 setlinecap
1 LJ
0.667 LW
N
550 238.137 M
547.645 238.137 L
S
GR
GS
[0.75 0 0 0.75 0 0] CT
0.149 GC
2 setlinecap
1 LJ
0.667 LW
N
550 236.25 M
547.645 236.25 L
S
GR
GS
[0.75 0 0 0.75 0 0] CT
0.149 GC
2 setlinecap
1 LJ
0.667 LW
N
550 223.833 M
547.645 223.833 L
S
GR
GS
[0.75 0 0 0.75 0 0] CT
0.149 GC
2 setlinecap
1 LJ
0.667 LW
N
550 216.569 M
547.645 216.569 L
S
GR
GS
[0.75 0 0 0.75 0 0] CT
0.149 GC
2 setlinecap
1 LJ
0.667 LW
N
550 211.415 M
547.645 211.415 L
S
GR
GS
[0.75 0 0 0.75 0 0] CT
0.149 GC
2 setlinecap
1 LJ
0.667 LW
N
550 207.417 M
547.645 207.417 L
S
GR
GS
[0.75 0 0 0.75 0 0] CT
0.149 GC
2 setlinecap
1 LJ
0.667 LW
N
550 204.151 M
547.645 204.151 L
S
GR
GS
[0.75 0 0 0.75 0 0] CT
0.149 GC
2 setlinecap
1 LJ
0.667 LW
N
550 201.39 M
547.645 201.39 L
S
GR
GS
[0.75 0 0 0.75 0 0] CT
0.149 GC
2 setlinecap
1 LJ
0.667 LW
N
550 198.998 M
547.645 198.998 L
S
GR
GS
[0.75 0 0 0.75 0 0] CT
0.149 GC
2 setlinecap
1 LJ
0.667 LW
N
550 196.887 M
547.645 196.887 L
S
GR
GS
[0.75 0 0 0.75 0 0] CT
0.149 GC
2 setlinecap
1 LJ
0.667 LW
N
550 195 M
547.645 195 L
S
GR
GS
[0.75 0 0 0.75 0 0] CT
0.149 GC
2 setlinecap
1 LJ
0.667 LW
N
550 182.583 M
547.645 182.583 L
S
GR
GS
[0.75 0 0 0.75 0 0] CT
0.149 GC
2 setlinecap
1 LJ
0.667 LW
N
550 175.319 M
547.645 175.319 L
S
GR
GS
[0.75 0 0 0.75 0 0] CT
0.149 GC
2 setlinecap
1 LJ
0.667 LW
N
550 170.165 M
547.645 170.165 L
S
GR
GS
[0.75 0 0 0.75 0 0] CT
0.149 GC
2 setlinecap
1 LJ
0.667 LW
N
550 166.167 M
547.645 166.167 L
S
GR
GS
[0.75 0 0 0.75 0 0] CT
0.149 GC
2 setlinecap
1 LJ
0.667 LW
N
550 162.901 M
547.645 162.901 L
S
GR
GS
[0.75 0 0 0.75 0 0] CT
0.149 GC
2 setlinecap
1 LJ
0.667 LW
N
550 160.14 M
547.645 160.14 L
S
GR
GS
[0.75 0 0 0.75 0 0] CT
0.149 GC
2 setlinecap
1 LJ
0.667 LW
N
550 157.748 M
547.645 157.748 L
S
GR
GS
[0.75 0 0 0.75 0 0] CT
0.149 GC
2 setlinecap
1 LJ
0.667 LW
N
550 155.637 M
547.645 155.637 L
S
GR
GS
[0.75 0 0 0.75 0 0] CT
0.149 GC
2 setlinecap
1 LJ
0.667 LW
N
550 153.75 M
547.645 153.75 L
S
GR
GS
[0.75 0 0 0.75 0 0] CT
0.149 GC
2 setlinecap
1 LJ
0.667 LW
N
550 141.333 M
547.645 141.333 L
S
GR
GS
[0.75 0 0 0.75 0 0] CT
0.149 GC
2 setlinecap
1 LJ
0.667 LW
N
550 134.069 M
547.645 134.069 L
S
GR
GS
[0.75 0 0 0.75 0 0] CT
0.149 GC
2 setlinecap
1 LJ
0.667 LW
N
550 128.915 M
547.645 128.915 L
S
GR
GS
[0.75 0 0 0.75 0 0] CT
0.149 GC
2 setlinecap
1 LJ
0.667 LW
N
550 124.917 M
547.645 124.917 L
S
GR
GS
[0.75 0 0 0.75 0 0] CT
0.149 GC
2 setlinecap
1 LJ
0.667 LW
N
550 121.651 M
547.645 121.651 L
S
GR
GS
[0.75 0 0 0.75 0 0] CT
0.149 GC
2 setlinecap
1 LJ
0.667 LW
N
550 118.89 M
547.645 118.89 L
S
GR
GS
[0.75 0 0 0.75 0 0] CT
0.149 GC
2 setlinecap
1 LJ
0.667 LW
N
550 116.498 M
547.645 116.498 L
S
GR
GS
[0.75 0 0 0.75 0 0] CT
0.149 GC
2 setlinecap
1 LJ
0.667 LW
N
550 114.387 M
547.645 114.387 L
S
GR
GS
[0.75 0 0 0.75 0 0] CT
0.149 GC
2 setlinecap
1 LJ
0.667 LW
N
550 112.5 M
547.645 112.5 L
S
GR
GS
[0.75 0 0 0.75 0 0] CT
0.149 GC
2 setlinecap
1 LJ
0.667 LW
N
550 100.083 M
547.645 100.083 L
S
GR
GS
[0.75 0 0 0.75 0 0] CT
0.149 GC
2 setlinecap
1 LJ
0.667 LW
N
550 92.819 M
547.645 92.819 L
S
GR
GS
[0.75 0 0 0.75 0 0] CT
0.149 GC
2 setlinecap
1 LJ
0.667 LW
N
550 87.665 M
547.645 87.665 L
S
GR
GS
[0.75 0 0 0.75 0 0] CT
0.149 GC
2 setlinecap
1 LJ
0.667 LW
N
550 83.667 M
547.645 83.667 L
S
GR
GS
[0.75 0 0 0.75 0 0] CT
0.149 GC
2 setlinecap
1 LJ
0.667 LW
N
550 80.401 M
547.645 80.401 L
S
GR
GS
[0.75 0 0 0.75 0 0] CT
0.149 GC
2 setlinecap
1 LJ
0.667 LW
N
550 77.64 M
547.645 77.64 L
S
GR
GS
[0.75 0 0 0.75 0 0] CT
0.149 GC
2 setlinecap
1 LJ
0.667 LW
N
550 75.248 M
547.645 75.248 L
S
GR
GS
[0.75 0 0 0.75 0 0] CT
0.149 GC
2 setlinecap
1 LJ
0.667 LW
N
550 73.137 M
547.645 73.137 L
S
GR
GS
[0.75 0 0 0.75 0 0] CT
0.149 GC
2 setlinecap
1 LJ
0.667 LW
N
550 71.25 M
547.645 71.25 L
S
GR
GS
[0.75 0 0 0.75 0 0] CT
0.149 GC
2 setlinecap
1 LJ
0.667 LW
N
550 58.833 M
547.645 58.833 L
S
GR
GS
[0.75 0 0 0.75 0 0] CT
0.149 GC
2 setlinecap
1 LJ
0.667 LW
N
550 51.569 M
547.645 51.569 L
S
GR
GS
[0.75 0 0 0.75 0 0] CT
0.149 GC
2 setlinecap
1 LJ
0.667 LW
N
550 46.415 M
547.645 46.415 L
S
GR
GS
[0.75 0 0 0.75 0 0] CT
0.149 GC
2 setlinecap
1 LJ
0.667 LW
N
550 42.417 M
547.645 42.417 L
S
GR
GS
[0.75 0 0 0.75 0 0] CT
0.149 GC
2 setlinecap
1 LJ
0.667 LW
N
550 39.151 M
547.645 39.151 L
S
GR
GS
[0.75 0 0 0.75 0 0] CT
0.149 GC
2 setlinecap
1 LJ
0.667 LW
N
550 36.39 M
547.645 36.39 L
S
GR
GS
[0.75 0 0 0.75 0 0] CT
0.149 GC
2 setlinecap
1 LJ
0.667 LW
N
550 33.998 M
547.645 33.998 L
S
GR
GS
[0.75 0 0 0.75 0 0] CT
0.149 GC
2 setlinecap
1 LJ
0.667 LW
N
550 31.887 M
547.645 31.887 L
S
GR
GS
[0.75 0 0 0.75 0 0] CT
0.149 GC
2 setlinecap
1 LJ
0.667 LW
N
550 30 M
547.645 30 L
S
GR
GS
[0.75 0 0 0.75 34.5 275.25] CT
0.149 GC
/Helvetica 13.333 F
GS
[1 0 0 1 0 0] CT
0 0 moveto 
1 -1 scale
(10) t 
GR
GR
GS
[0.75 0 0 0.75 47.25 270.75] CT
0.149 GC
/Helvetica 10.667 F
GS
[1 0 0 1 0 0] CT
0 0 moveto 
1 -1 scale
(-6) t 
GR
GR
GS
[0.75 0 0 0.75 34.5 244.5] CT
0.149 GC
/Helvetica 13.333 F
GS
[1 0 0 1 0 0] CT
0 0 moveto 
1 -1 scale
(10) t 
GR
GR
GS
[0.75 0 0 0.75 47.25 240] CT
0.149 GC
/Helvetica 10.667 F
GS
[1 0 0 1 0 0] CT
0 0 moveto 
1 -1 scale
(-5) t 
GR
GR
GS
[0.75 0 0 0.75 34.5 213.75] CT
0.149 GC
/Helvetica 13.333 F
GS
[1 0 0 1 0 0] CT
0 0 moveto 
1 -1 scale
(10) t 
GR
GR
GS
[0.75 0 0 0.75 47.25 209.25] CT
0.149 GC
/Helvetica 10.667 F
GS
[1 0 0 1 0 0] CT
0 0 moveto 
1 -1 scale
(-4) t 
GR
GR
GS
[0.75 0 0 0.75 34.5 182.25] CT
0.149 GC
/Helvetica 13.333 F
GS
[1 0 0 1 0 0] CT
0 0 moveto 
1 -1 scale
(10) t 
GR
GR
GS
[0.75 0 0 0.75 47.25 177.75] CT
0.149 GC
/Helvetica 10.667 F
GS
[1 0 0 1 0 0] CT
0 0 moveto 
1 -1 scale
(-3) t 
GR
GR
GS
[0.75 0 0 0.75 34.5 151.5] CT
0.149 GC
/Helvetica 13.333 F
GS
[1 0 0 1 0 0] CT
0 0 moveto 
1 -1 scale
(10) t 
GR
GR
GS
[0.75 0 0 0.75 47.25 147] CT
0.149 GC
/Helvetica 10.667 F
GS
[1 0 0 1 0 0] CT
0 0 moveto 
1 -1 scale
(-2) t 
GR
GR
GS
[0.75 0 0 0.75 34.5 120.75] CT
0.149 GC
/Helvetica 13.333 F
GS
[1 0 0 1 0 0] CT
0 0 moveto 
1 -1 scale
(10) t 
GR
GR
GS
[0.75 0 0 0.75 47.25 116.25] CT
0.149 GC
/Helvetica 10.667 F
GS
[1 0 0 1 0 0] CT
0 0 moveto 
1 -1 scale
(-1) t 
GR
GR
GS
[0.75 0 0 0.75 37.5 90] CT
0.149 GC
/Helvetica 13.333 F
GS
[1 0 0 1 0 0] CT
0 0 moveto 
1 -1 scale
(10) t 
GR
GR
GS
[0.75 0 0 0.75 50.25 85.5] CT
0.149 GC
/Helvetica 10.667 F
GS
[1 0 0 1 0 0] CT
0 0 moveto 
1 -1 scale
(0) t 
GR
GR
GS
[0.75 0 0 0.75 37.5 58.5] CT
0.149 GC
/Helvetica 13.333 F
GS
[1 0 0 1 0 0] CT
0 0 moveto 
1 -1 scale
(10) t 
GR
GR
GS
[0.75 0 0 0.75 50.25 54] CT
0.149 GC
/Helvetica 10.667 F
GS
[1 0 0 1 0 0] CT
0 0 moveto 
1 -1 scale
(1) t 
GR
GR
GS
[0.75 0 0 0.75 37.5 27.75] CT
0.149 GC
/Helvetica 13.333 F
GS
[1 0 0 1 0 0] CT
0 0 moveto 
1 -1 scale
(10) t 
GR
GR
GS
[0.75 0 0 0.75 50.25 23.25] CT
0.149 GC
/Helvetica 10.667 F
GS
[1 0 0 1 0 0] CT
0 0 moveto 
1 -1 scale
(2) t 
GR
GR
GS
[0 -0.75 0.75 0 31.25 146.24989] CT
0.149 GC
N
-35.941 -6.501 M
-40.426 -18.423 L
-40.582 -18.829 -41.058 -18.931 QT
-41.535 -19.033 -42.269 -19.033 QT
-42.269 -19.704 L
-37.051 -19.704 L
-37.051 -19.033 L
-38.613 -19.033 -38.613 -18.533 QT
-38.613 -18.517 -38.605 -18.494 QT
-38.598 -18.47 -38.598 -18.423 QT
-34.957 -8.736 L
-31.519 -17.908 L
-31.473 -17.986 -31.473 -18.142 QT
-31.473 -18.611 -31.902 -18.822 QT
-32.332 -19.033 -32.863 -19.033 QT
-32.863 -19.704 L
-28.754 -19.704 L
-28.754 -19.033 L
-29.473 -19.033 -30.019 -18.767 QT
-30.566 -18.501 -30.785 -17.908 QT
-35.082 -6.501 L
-35.144 -6.298 -35.394 -6.298 QT
-35.629 -6.298 L
-35.879 -6.298 -35.941 -6.501 QT
cp
f
GR
GS
[0 -0.75 0.75 0 31.25 146.24989] CT
0.149 GC
N
-29.419 -8.579 M
-29.419 -9.72 -28.528 -10.431 QT
-27.637 -11.142 -26.395 -11.431 QT
-25.153 -11.72 -24.028 -11.72 QT
-24.028 -12.501 L
-24.028 -13.048 -24.27 -13.564 QT
-24.512 -14.079 -24.966 -14.408 QT
-25.419 -14.736 -25.966 -14.736 QT
-27.231 -14.736 -27.887 -14.173 QT
-27.528 -14.173 -27.286 -13.9 QT
-27.044 -13.626 -27.044 -13.267 QT
-27.044 -12.876 -27.317 -12.611 QT
-27.591 -12.345 -27.95 -12.345 QT
-28.341 -12.345 -28.606 -12.611 QT
-28.872 -12.876 -28.872 -13.267 QT
-28.872 -14.267 -27.966 -14.751 QT
-27.059 -15.236 -25.966 -15.236 QT
-25.2 -15.236 -24.419 -14.908 QT
-23.637 -14.579 -23.137 -13.97 QT
-22.637 -13.361 -22.637 -12.533 QT
-22.637 -8.267 L
-22.637 -7.892 -22.481 -7.579 QT
-22.325 -7.267 -21.997 -7.267 QT
-21.684 -7.267 -21.528 -7.579 QT
-21.372 -7.892 -21.372 -8.267 QT
-21.372 -9.47 L
-20.809 -9.47 L
-20.809 -8.267 L
-20.809 -7.829 -21.036 -7.447 QT
-21.262 -7.064 -21.637 -6.837 QT
-22.012 -6.611 -22.45 -6.611 QT
-22.997 -6.611 -23.403 -7.04 QT
-23.809 -7.47 -23.856 -8.064 QT
-24.216 -7.345 -24.895 -6.923 QT
-25.575 -6.501 -26.356 -6.501 QT
-27.091 -6.501 -27.786 -6.72 QT
-28.481 -6.939 -28.95 -7.392 QT
-29.419 -7.845 -29.419 -8.579 QT
cp
-27.887 -8.579 M
-27.887 -7.923 -27.395 -7.462 QT
-26.903 -7.001 -26.231 -7.001 QT
-25.622 -7.001 -25.122 -7.314 QT
-24.622 -7.626 -24.325 -8.15 QT
-24.028 -8.673 -24.028 -9.267 QT
-24.028 -11.236 L
-24.887 -11.236 -25.794 -10.954 QT
-26.7 -10.673 -27.294 -10.072 QT
-27.887 -9.47 -27.887 -8.579 QT
cp
f
GR
GS
[0 -0.75 0.75 0 31.25 146.24989] CT
0.149 GC
N
-20.273 -6.72 M
-20.273 -7.392 L
-19.617 -7.392 -19.203 -7.494 QT
-18.788 -7.595 -18.788 -7.986 QT
-18.788 -17.97 L
-18.788 -18.47 -18.937 -18.697 QT
-19.085 -18.923 -19.374 -18.978 QT
-19.663 -19.033 -20.273 -19.033 QT
-20.273 -19.704 L
-17.445 -19.908 L
-17.445 -7.986 L
-17.445 -7.595 -17.031 -7.494 QT
-16.617 -7.392 -15.976 -7.392 QT
-15.976 -6.72 L
-20.273 -6.72 L
cp
f
GR
GS
[0 -0.75 0.75 0 31.25 146.24989] CT
0.149 GC
N
-13.619 -8.986 M
-13.619 -13.173 L
-13.619 -13.689 -13.767 -13.915 QT
-13.916 -14.142 -14.205 -14.197 QT
-14.494 -14.251 -15.103 -14.251 QT
-15.103 -14.908 L
-12.228 -15.111 L
-12.228 -8.986 L
-12.228 -8.236 -12.119 -7.829 QT
-12.009 -7.423 -11.666 -7.212 QT
-11.322 -7.001 -10.556 -7.001 QT
-9.541 -7.001 -8.931 -7.861 QT
-8.322 -8.72 -8.322 -9.798 QT
-8.322 -13.173 L
-8.322 -13.689 -8.486 -13.915 QT
-8.65 -14.142 -8.931 -14.197 QT
-9.213 -14.251 -9.806 -14.251 QT
-9.806 -14.908 L
-6.947 -15.111 L
-6.947 -8.439 L
-6.947 -7.939 -6.791 -7.712 QT
-6.634 -7.486 -6.345 -7.439 QT
-6.056 -7.392 -5.463 -7.392 QT
-5.463 -6.72 L
-8.275 -6.501 L
-8.275 -8.111 L
-8.619 -7.392 -9.252 -6.947 QT
-9.884 -6.501 -10.65 -6.501 QT
-12.009 -6.501 -12.814 -7.087 QT
-13.619 -7.673 -13.619 -8.986 QT
cp
f
GR
GS
[0 -0.75 0.75 0 31.25 146.24989] CT
0.149 GC
N
-0.561 -6.501 M
-1.717 -6.501 -2.686 -7.111 QT
-3.655 -7.72 -4.209 -8.736 QT
-4.764 -9.751 -4.764 -10.892 QT
-4.764 -12.001 -4.256 -13.001 QT
-3.748 -14.001 -2.85 -14.619 QT
-1.952 -15.236 -0.827 -15.236 QT
0.033 -15.236 0.681 -14.947 QT
1.33 -14.658 1.744 -14.134 QT
2.158 -13.611 2.377 -12.908 QT
2.595 -12.204 2.595 -11.361 QT
2.595 -11.111 2.392 -11.111 QT
-3.108 -11.111 L
-3.108 -10.908 L
-3.108 -9.329 -2.475 -8.197 QT
-1.842 -7.064 -0.389 -7.064 QT
0.189 -7.064 0.681 -7.322 QT
1.173 -7.579 1.541 -8.048 QT
1.908 -8.517 2.048 -9.033 QT
2.064 -9.111 2.111 -9.158 QT
2.158 -9.204 2.236 -9.204 QT
2.392 -9.204 L
2.595 -9.204 2.595 -8.97 QT
2.314 -7.892 1.423 -7.197 QT
0.533 -6.501 -0.561 -6.501 QT
cp
-3.092 -11.579 M
1.252 -11.579 L
1.252 -12.298 1.048 -13.033 QT
0.845 -13.767 0.384 -14.251 QT
-0.077 -14.736 -0.827 -14.736 QT
-1.905 -14.736 -2.498 -13.728 QT
-3.092 -12.72 -3.092 -11.579 QT
cp
f
GR
GS
[0 -0.75 0.75 0 31.25 146.24989] CT
0.149 GC
N
13.973 -6.501 M
12.833 -6.501 11.856 -7.087 QT
10.879 -7.673 10.317 -8.642 QT
9.754 -9.611 9.754 -10.767 QT
9.754 -11.642 10.067 -12.447 QT
10.379 -13.251 10.958 -13.884 QT
11.536 -14.517 12.301 -14.876 QT
13.067 -15.236 13.973 -15.236 QT
15.145 -15.236 16.106 -14.619 QT
17.067 -14.001 17.622 -12.97 QT
18.176 -11.939 18.176 -10.767 QT
18.176 -9.626 17.614 -8.65 QT
17.051 -7.673 16.075 -7.087 QT
15.098 -6.501 13.973 -6.501 QT
cp
13.973 -7.064 M
15.489 -7.064 16.004 -8.165 QT
16.52 -9.267 16.52 -10.986 QT
16.52 -11.939 16.418 -12.564 QT
16.317 -13.189 15.973 -13.704 QT
15.754 -14.017 15.426 -14.251 QT
15.098 -14.486 14.731 -14.611 QT
14.364 -14.736 13.973 -14.736 QT
13.379 -14.736 12.848 -14.47 QT
12.317 -14.204 11.958 -13.704 QT
11.614 -13.158 11.512 -12.517 QT
11.411 -11.876 11.411 -10.986 QT
11.411 -9.908 11.598 -9.064 QT
11.786 -8.22 12.348 -7.642 QT
12.911 -7.064 13.973 -7.064 QT
cp
f
GR
GS
[0 -0.75 0.75 0 31.25 146.24989] CT
0.149 GC
N
19.166 -6.72 M
19.166 -7.392 L
19.807 -7.392 20.228 -7.494 QT
20.65 -7.595 20.65 -7.986 QT
20.65 -14.251 L
19.182 -14.251 L
19.182 -14.908 L
20.65 -14.908 L
20.65 -17.189 L
20.65 -17.798 20.9 -18.329 QT
21.15 -18.861 21.58 -19.259 QT
22.01 -19.658 22.572 -19.884 QT
23.135 -20.111 23.744 -20.111 QT
24.385 -20.111 24.9 -19.736 QT
25.416 -19.361 25.416 -18.72 QT
25.416 -18.361 25.166 -18.119 QT
24.916 -17.876 24.557 -17.876 QT
24.197 -17.876 23.939 -18.119 QT
23.682 -18.361 23.682 -18.72 QT
23.682 -19.314 24.197 -19.517 QT
23.885 -19.626 23.65 -19.626 QT
23.088 -19.626 22.697 -19.228 QT
22.307 -18.829 22.111 -18.267 QT
21.916 -17.704 21.916 -17.142 QT
21.916 -14.908 L
24.103 -14.908 L
24.103 -14.251 L
21.978 -14.251 L
21.978 -7.986 L
21.978 -7.595 22.533 -7.494 QT
23.088 -7.392 23.822 -7.392 QT
23.822 -6.72 L
19.166 -6.72 L
cp
f
GR
GS
[0 -0.75 0.75 0 31.25 146.24989] CT
0.149 GC
N
32.545 -7.861 M
32.732 -7.329 33.232 -7.064 QT
33.732 -6.798 34.326 -6.798 QT
34.92 -6.798 35.467 -7.212 QT
36.014 -7.626 36.404 -8.244 QT
36.795 -8.861 36.936 -9.47 QT
39.186 -18.47 L
39.201 -18.533 39.209 -18.572 QT
39.217 -18.611 39.217 -18.658 QT
39.217 -18.861 39.076 -18.908 QT
38.576 -19.033 37.045 -19.033 QT
36.842 -19.033 36.842 -19.283 QT
36.889 -19.423 36.912 -19.509 QT
36.936 -19.595 36.99 -19.65 QT
37.045 -19.704 37.17 -19.704 QT
42.326 -19.704 L
42.514 -19.704 42.514 -19.454 QT
42.436 -19.033 42.264 -19.033 QT
41.592 -19.033 41.248 -18.931 QT
40.904 -18.829 40.779 -18.376 QT
38.529 -9.408 L
38.326 -8.517 37.67 -7.806 QT
37.014 -7.095 36.115 -6.697 QT
35.217 -6.298 34.311 -6.298 QT
33.311 -6.298 32.553 -6.861 QT
31.795 -7.423 31.795 -8.376 QT
31.795 -9.001 32.139 -9.454 QT
32.482 -9.908 33.107 -9.908 QT
33.467 -9.908 33.717 -9.689 QT
33.967 -9.47 33.967 -9.111 QT
33.967 -8.611 33.584 -8.228 QT
33.201 -7.845 32.686 -7.845 QT
32.592 -7.845 32.545 -7.861 QT
cp
f
GR
GS
[0.75 0 0 0.75 0 0] CT
0 0.447 0.741 RC
1 LJ
2.667 LW
N
88.42 32.929 M
97.84 36.025 L
107.26 39.388 L
116.68 43.044 L
126.1 47.055 L
135.52 51.402 L
144.94 56.07 L
154.36 61.058 L
163.78 66.29 L
173.2 71.797 L
182.62 77.533 L
192.04 83.484 L
201.46 89.631 L
210.88 95.959 L
220.3 102.448 L
229.72 109.078 L
239.14 115.824 L
248.56 122.663 L
257.98 129.583 L
267.4 136.557 L
276.82 143.55 L
286.24 150.526 L
295.66 157.445 L
305.08 164.267 L
314.5 170.963 L
323.92 177.503 L
333.34 183.903 L
342.76 190.181 L
352.18 196.359 L
361.6 202.461 L
371.02 208.51 L
380.44 214.528 L
389.86 220.517 L
399.28 226.496 L
408.7 232.476 L
418.12 238.466 L
427.54 244.465 L
436.96 250.477 L
446.38 256.498 L
455.8 262.525 L
465.22 268.551 L
474.64 274.578 L
484.06 280.592 L
493.48 286.553 L
502.9 292.442 L
512.32 298.243 L
521.74 303.934 L
531.16 309.499 L
540.58 314.929 L
550 320.221 L
S
GR
GS
[0.75 0 0 0.75 0 0] CT
1 GC
N
539 65 M
539 41 L
477 41 L
477 65 L
cp
f
GR
GS
[0.75 0 0 0.75 392.84225 39.75] CT
N
1.844 3.144 M
2.016 3.613 2.461 3.855 QT
2.906 4.097 3.438 4.097 QT
3.969 4.097 4.461 3.722 QT
4.953 3.347 5.297 2.793 QT
5.641 2.238 5.781 1.691 QT
7.781 -6.356 L
7.797 -6.418 7.805 -6.449 QT
7.813 -6.481 7.813 -6.512 QT
7.813 -6.699 7.688 -6.746 QT
7.234 -6.856 5.875 -6.856 QT
5.688 -6.856 5.688 -7.074 QT
5.734 -7.215 5.75 -7.285 QT
5.766 -7.356 5.82 -7.403 QT
5.875 -7.449 5.984 -7.449 QT
10.594 -7.449 L
10.766 -7.449 10.766 -7.231 QT
10.688 -6.856 10.547 -6.856 QT
9.938 -6.856 9.633 -6.762 QT
9.328 -6.668 9.219 -6.278 QT
7.203 1.754 L
7.016 2.551 6.43 3.183 QT
5.844 3.816 5.039 4.176 QT
4.234 4.535 3.422 4.535 QT
2.531 4.535 1.852 4.035 QT
1.172 3.535 1.172 2.676 QT
1.172 2.113 1.477 1.707 QT
1.781 1.301 2.344 1.301 QT
2.672 1.301 2.891 1.504 QT
3.109 1.707 3.109 2.019 QT
3.109 2.472 2.773 2.816 QT
2.438 3.16 1.969 3.16 QT
1.891 3.16 1.844 3.144 QT
cp
f
GR
GS
[0.75 0 0 0.75 0 0] CT
0 0.447 0.741 RC
1 LJ
2.667 LW
N
480.982 53 M
520.803 53 L
S
GR
GS
[0.75 0 0 0.75 0 0] CT
0.149 GC
10.0 ML
0.667 LW
N
477 65 M
477 41 L
539 41 L
539 65 L
cp
S
GR
%%Trailer
%%Pages: 1
%%EOF
